INDEX VERSION 1.130+D:\Documents\aspect\.metadata\.plugins\org.eclipse.jdt.core
2696371093.index
3396631215.index
2963452822.index
1056031855.index
3228951359.index
1070108031.index
529093919.index
4005617011.index
134360950.index
754819241.index
2304713751.index
3907380088.index
4062329064.index
1421474103.index
130792880.index
197789008.index
139180693.index
2689647388.index
1776025952.index
3682805136.index
3608005317.index
4145119992.index
3608585563.index
189530877.index
2924539341.index
4054217407.index
543409727.index
593372732.index
2855019622.index
631193900.index
3627084181.index
3446740586.index
2725125150.index
220263967.index
673632078.index
4177714061.index
2012359179.index
3922859863.index
3982276604.index
1294600478.index
1423205914.index
4216635485.index
318313879.index
2816613229.index
243817097.index
2187505829.index
3423992707.index
521771546.index
921298608.index
2746661199.index
481243965.index
1270643399.index
1686655237.index
1072970621.index
146473449.index
4150619059.index
3699395686.index
3449055620.index
1924480154.index
3771199552.index
3765662663.index
1336174244.index
3763814213.index
1386627918.index
3145607036.index
2834020330.index
729552832.index
915622731.index
3374175270.index
3922397620.index
2284601425.index
2602023262.index
1972402229.index
918797948.index
2075892729.index
2148250228.index
98187974.index
2060950720.index
4039670295.index
1050493060.index
709258851.index
2276431268.index
4044456258.index
1162782216.index
1654674800.index
