#
## Alias OBJ Material File
# Exported from SketchUp, (c) 2000-2012 Trimble Navigation Limited

newmtl Color_005
Ka 0.000000 0.000000 0.000000
Kd 0.447059 0.447059 0.447059
Ks 0.330000 0.330000 0.330000

newmtl Color_A16
Ka 0.000000 0.000000 0.000000
Kd 0.400000 0.000000 0.000000
Ks 0.330000 0.330000 0.330000

newmtl FrontColor
Ka 0.000000 0.000000 0.000000
Kd 1.000000 1.000000 1.000000
Ks 0.330000 0.330000 0.330000

