# Alias OBJ Model File
# Exported from SketchUp, (c) 2000-2012 Trimble Navigation Limited
# File units = meters

mtllib frigate_blue.mtl

g Mesh1 Model

usemtl Color_005
v -0.25 -0.23 -0.5
vt 9.84252 19.685
vn 7.64737e-017 -1 4.51195e-017
v 0.25 -0.23 0.5
vt -9.84252 -19.685
v -0.25 -0.23 0.5
vt 9.84252 -19.685
f 1/1/1 2/2/1 3/3/1

v -0.15 -0.23 -0.5
vt 5.90551 19.685
f 2/2/1 1/1/1 4/4/1

usemtl Color_I16
vt 9.84252 16.773
vn 1.44412e-015 -0.967823 -0.251634
v -0.15 -0.1 -1
vt 5.90551 37.1126
vt 5.90551 16.773
f 1/5/2 5/6/2 4/7/2

v -0.25 -0.1 -1
vt 9.84252 37.1126
f 5/6/2 1/5/2 6/8/2

usemtl Color_005
vt -19.685 -9.05512
vn -1 3.67255e-017 8.02561e-017
v -0.25 -0.1 -0.5
vt -19.685 -3.93701
vt -39.3701 -3.93701
f 1/9/3 7/10/3 6/11/3

v -0.25 1.69198e-017 -0.5
vt -19.685 3.04663e-016
f 1/9/3 8/12/3 7/10/3

v -0.25 0.1 -0.5
vt -19.685 3.93701
f 1/9/3 9/13/3 8/12/3

vt 19.685 -9.05512
f 3/14/3 9/13/3 1/9/3

v -0.25 1.69198e-017 0.5
vt 19.685 3.04663e-016
f 10/15/3 9/13/3 3/14/3

v -0.25 0.1 0.5
vt 19.685 3.93701
f 9/13/3 10/15/3 11/16/3

usemtl Color_I16
vt 9.84252 6.66134e-016
vn -8.20354e-016 -1.52682e-031 -1
v -0.8 0.1 0.5
vt 31.4961 3.93701
vt 9.84252 3.93701
f 10/17/4 12/18/4 11/19/4

v -0.8 1.69198e-017 0.5
vt 31.4961 6.66134e-016
f 12/18/4 10/17/4 13/20/4

usemtl Color_005
vn 0 -1 -0
v -0.8 1.69198e-017 0.875333
vt 31.4961 -34.4619
vt 31.4961 -19.685
f 10/3/5 14/21/5 13/22/5

v -0.25 1.69198e-017 1
vt 9.84252 -39.3701
f 14/21/5 10/3/5 15/23/5

v -0.25 -0.13 1
vt 39.3701 -5.11811
vt 39.3701 3.04663e-016
f 10/15/3 16/24/3 15/25/3

f 16/24/3 10/15/3 3/14/3

vt 9.84252 17.5269
vn -2.98476e-016 -0.980581 0.196116
vt -9.84252 37.6018
vt -9.84252 17.5269
f 2/26/6 16/27/6 3/28/6

v 0.25 -0.13 1
vt 9.84252 37.6018
f 16/27/6 2/26/6 17/29/6

vn 1 2.36666e-016 9.97927e-019
v 0.25 1.69198e-017 1
vt -39.3701 -1.66326e-015
vt -39.3701 -5.11811
f 2/9/7 18/30/7 17/31/7

v 0.25 1.69198e-017 0.5
vt -19.685 -1.66326e-015
f 18/30/7 2/9/7 19/32/7

v 0.25 0.1 0.5
f 19/32/7 2/9/7 20/13/7

v 0.25 0.1 -0.5
f 20/13/7 2/9/7 21/16/7

v 0.25 -0.23 -0.5
f 21/16/7 2/9/7 22/14/7

v 0.15 -0.23 -0.5
vt -5.90551 19.685
vt -9.84252 19.685
f 2/2/1 23/33/1 22/34/1

f 2/2/1 4/4/1 23/33/1

v -0.15 0.1 -0.5
vt 5.90551 3.93701
vn -1.50398e-016 1.36726e-016 -1
vt -5.90551 -9.05512
vt 5.90551 -9.05512
f 24/35/8 23/36/8 4/37/8

v 0.15 0.1 -0.5
vt -5.90551 3.93701
f 23/36/8 24/35/8 25/38/8

vn 2.27111e-017 1 5.04509e-017
v -0.139142 0.1 -0.264142
vt -5.47804 10.3993
f 24/33/9 26/39/9 25/4/9

v -0.142321 0.1 -0.26
vt -5.60317 10.2362
f 26/39/9 24/33/9 27/40/9

v -0.144319 0.1 -0.255176
vt -5.68183 10.0463
f 27/40/9 24/33/9 28/41/9

v -0.145 0.1 -0.25
vt -5.70866 9.84252
f 28/41/9 24/33/9 29/42/9

v -0.145 0.1 0.9
vt -5.70866 -35.4331
f 24/33/9 30/43/9 29/42/9

v -0.25 0.1 1
vt -9.84252 -39.3701
f 24/33/9 31/44/9 30/43/9

f 9/34/9 31/44/9 24/33/9

f 11/2/9 31/44/9 9/34/9

v -0.8 0.1 0.875333
vt -31.4961 -34.4619
f 11/2/9 32/45/9 31/44/9

vt -31.4961 -19.685
f 32/45/9 11/2/9 12/46/9

usemtl Color_I16
v -0.8 0.09 0.665
vt 26.1811 3.54331
vn -1 -1.95778e-046 3.84677e-015
vt 34.4619 3.93701
f 33/47/10 32/48/10 12/16/10

v -0.8 0.088637 0.675353
vt 26.5887 3.48965
f 34/49/10 32/48/10 33/47/10

v -0.8 0.084641 0.685
vt 26.9685 3.33232
f 35/50/10 32/48/10 34/49/10

vt 34.4619 6.66134e-016
f 32/48/10 35/50/10 14/51/10

v -0.8 0.0782843 0.693284
vt 27.2947 3.08206
f 14/51/10 35/50/10 36/52/10

vt -31.4961 -19.367
vn 5.7257e-014 0.866025 0.5
v -0.81 0.0782843 0.693284
vt -31.8898 -19.7781
vn 4.72554e-014 0.707107 0.707107
vt -31.4961 -19.7781
f 35/53/11 37/54/12 36/55/12

v -0.81 0.084641 0.685
vt -31.8898 -19.367
f 37/54/12 35/53/11 38/56/11

vt -31.4961 -23.6404
v -0.81 0.088637 0.675353
vt -31.8898 -23.2293
vn 2.17489e-014 0.965926 0.258819
vt -31.8898 -23.6404
f 35/57/11 39/58/13 38/59/11

vt -31.4961 -23.2293
f 39/58/13 35/57/11 34/60/13

vt -31.4961 -25.9057
v -0.81 0.09 0.665
vt -31.8898 -25.4946
vn -8.95152e-016 1 -8.67847e-016
vt -31.8898 -25.9057
f 34/61/13 40/62/14 39/63/13

vt -31.4961 -25.4946
f 40/62/14 34/61/13 33/64/14

v -0.8 0.088637 0.654647
vt 31.4961 26.0085
vn -1.21925e-014 0.965926 -0.258819
vt 31.8898 26.4196
vt 31.4961 26.4196
f 41/65/15 40/66/14 33/67/14

v -0.81 0.088637 0.654647
vt 31.8898 26.0085
f 40/66/14 41/65/15 42/68/15

v -0.8 0.084641 0.645
vt 31.4961 24.7359
vn -1.77532e-014 0.866025 -0.5
vt 31.8898 25.1471
vt 31.4961 25.1471
f 43/69/16 42/70/15 41/71/15

v -0.81 0.084641 0.645
vt 31.8898 24.7359
f 42/70/15 43/69/16 44/72/16

vt 31.4961 22.1748
v -0.81 0.0782843 0.636716
vt 31.8898 21.7637
vn -1.09851e-014 0.707107 -0.707107
vt 31.8898 22.1748
f 43/73/16 45/74/17 44/75/16

v -0.8 0.0782843 0.636716
vt 31.4961 21.7637
f 45/74/17 43/73/16 46/76/17

vt 25.3937 3.33232
vt 25.0675 3.08206
f 43/77/10 12/16/10 46/78/10

vt 25.7735 3.48965
f 41/79/10 12/16/10 43/77/10

f 33/47/10 12/16/10 41/79/10

v -0.8 0.07 0.630359
vt 24.8173 2.75591
f 46/78/10 12/16/10 47/80/10

v -0.8 0.061557 0.626862
vt 24.6796 2.42351
f 47/80/10 12/16/10 48/81/10

v -0.8 0.0603528 0.626363
vt 24.66 2.37609
f 48/81/10 12/16/10 49/82/10

v -0.8 0.05 0.625
vt 24.6063 1.9685
f 49/82/10 12/16/10 50/83/10

vt 19.685 6.66134e-016
f 13/84/10 50/83/10 12/16/10

v -0.8 0.0396472 0.626363
vt 24.66 1.56091
f 13/84/10 51/85/10 50/83/10

v -0.8 0.038443 0.626862
vt 24.6796 1.5135
f 13/84/10 52/86/10 51/85/10

v -0.8 0.03 0.630359
vt 24.8173 1.1811
f 13/84/10 53/87/10 52/86/10

v -0.8 0.0217157 0.636716
vt 25.0675 0.85495
f 13/84/10 54/88/10 53/87/10

v -0.8 0.015359 0.645
vt 25.3937 0.604684
f 13/84/10 55/89/10 54/88/10

v -0.8 0.011363 0.654647
vt 25.7735 0.447361
f 13/84/10 56/90/10 55/89/10

v -0.8 0.01 0.665
vt 26.1811 0.393701
f 13/84/10 57/91/10 56/90/10

f 14/51/10 57/91/10 13/84/10

v -0.8 0.011363 0.675353
vt 26.5887 0.447361
f 57/91/10 14/51/10 58/92/10

v -0.8 0.015359 0.685
vt 26.9685 0.604684
f 58/92/10 14/51/10 59/93/10

v -0.8 0.0217157 0.693284
vt 27.2947 0.85495
f 59/93/10 14/51/10 60/94/10

v -0.8 0.03 0.699641
vt 27.5449 1.1811
f 60/94/10 14/51/10 61/95/10

v -0.8 0.0396472 0.703637
vt 27.7022 1.56091
f 61/95/10 14/51/10 62/96/10

v -0.8 0.05 0.705
vt 27.7559 1.9685
f 62/96/10 14/51/10 63/97/10

v -0.8 0.0603528 0.703637
vt 27.7022 2.37609
f 14/51/10 64/98/10 63/97/10

v -0.8 0.07 0.699641
vt 27.5449 2.75591
f 14/51/10 65/99/10 64/98/10

f 14/51/10 36/52/10 65/99/10

vt -31.4961 -14.1708
v -0.81 0.07 0.699641
vt -31.8898 -14.5819
vn 3.99659e-014 0.5 0.866025
vt -31.4961 -14.5819
f 36/100/12 66/101/18 65/102/18

vt -31.8898 -14.1708
f 66/101/18 36/100/12 37/103/12

usemtl FrontColor
v -0.81 0.05 0.665
vt 26.1811 1.9685
vn -1 -2.90896e-014 -2.8733e-014
f 67/104/19 66/99/19 37/52/19

v -0.81 0.061557 0.703138
vt 27.6826 2.42351
f 67/104/19 68/105/19 66/99/19

v -0.81 0.0603528 0.703637
f 67/104/19 69/98/19 68/105/19

v -0.81 0.05 0.705
f 69/98/19 67/104/19 70/97/19

vn -1 -2.58163e-015 1.23243e-014
v -0.81 0.0396472 0.703637
f 67/104/20 71/96/20 70/97/20

v -0.81 0.038443 0.703138
vt 27.6826 1.5135
f 71/96/20 67/104/20 72/106/20

v -0.81 0.03 0.699641
f 72/106/20 67/104/20 73/95/20

v -0.81 0.0217157 0.693284
f 73/95/20 67/104/20 74/94/20

v -0.81 0.015359 0.685
f 74/94/20 67/104/20 75/93/20

v -0.81 0.011363 0.675353
f 75/93/20 67/104/20 76/92/20

v -0.81 0.01 0.665
f 76/92/20 67/104/20 77/91/20

v -0.81 0.05 0.625
vn -1 1.23614e-014 2.62485e-014
f 78/83/21 77/91/21 67/104/21

v -0.81 0.011363 0.654647
f 77/91/21 78/83/21 79/90/21

v -0.81 0.015359 0.645
f 79/90/21 78/83/21 80/89/21

v -0.81 0.0217157 0.636716
f 80/89/21 78/83/21 81/88/21

v -0.81 0.03 0.630359
f 81/88/21 78/83/21 82/87/21

v -0.81 0.038443 0.626862
f 82/87/21 78/83/21 83/86/21

v -0.81 0.0396472 0.626363
f 83/86/21 78/83/21 84/85/21

usemtl Color_I16
vt 31.8898 -1.2601
vn 2.26068e-015 -1.53133e-014 -1
vt 31.4961 -1.67121
vn 1.55297e-016 -0.258819 -0.965926
vt 31.8898 -1.67121
f 78/107/22 51/108/23 84/109/23

vt 31.4961 -1.2601
f 51/108/23 78/107/22 50/110/22

v -0.81 0.0603528 0.626363
vt 31.8898 5.57454
vn -1.68134e-014 0.258819 -0.965926
vt 31.4961 5.16343
vt 31.8898 5.16343
f 85/111/24 50/112/22 78/113/22

vt 31.4961 5.57454
f 50/112/22 85/111/24 49/114/24

v -0.81 0.061557 0.626862
vt 31.8898 11.6835
vn -4.58479e-014 0.382683 -0.92388
vt 31.4961 11.6322
vt 31.8898 11.6322
f 86/115/25 49/116/24 85/117/24

vt 31.4961 11.6835
f 49/116/24 86/115/25 48/118/25

v -0.81 0.07 0.630359
vt 31.8898 12.0433
vn -3.48478e-014 0.5 -0.866025
f 87/119/26 48/118/25 86/115/25

vt 31.4961 12.0433
f 48/118/25 87/119/26 47/120/26

vt 31.8898 17.7053
vt 31.4961 17.2942
vt 31.8898 17.2942
f 45/121/17 47/122/26 87/123/26

vt 31.4961 17.7053
f 47/122/26 45/121/17 46/124/17

usemtl FrontColor
vn -1 -1.05674e-014 2.1744e-014
f 78/83/27 45/78/27 87/80/27

f 78/83/27 44/77/27 45/78/27

f 78/83/27 42/79/27 44/77/27

f 67/104/27 42/79/27 78/83/27

f 42/79/27 67/104/27 40/47/27

f 67/104/19 39/49/19 40/47/19

f 67/104/19 38/50/19 39/49/19

f 67/104/19 37/52/19 38/50/19

f 78/83/27 87/80/27 86/81/27

f 78/83/27 86/81/27 85/82/27

usemtl Color_I16
vt 31.4961 -8.04618
vn -3.96079e-014 -0.382683 -0.92388
vt 31.8898 -7.99486
vt 31.4961 -7.99486
f 52/125/28 84/126/23 51/127/23

vt 31.8898 -8.04618
f 84/126/23 52/125/28 83/128/28

vt 31.4961 -8.40597
vn -6.13216e-014 -0.5 -0.866025
f 53/129/29 83/128/28 52/125/28

vt 31.8898 -8.40597
f 83/128/28 53/129/29 82/130/29

vt 31.4961 -14.5819
vn -2.62506e-014 -0.707107 -0.707107
vt 31.8898 -14.1708
vt 31.4961 -14.1708
f 54/131/30 82/132/29 53/133/29

vt 31.8898 -14.5819
f 82/132/29 54/131/30 81/134/30

vt 31.4961 -19.7781
vn -7.98807e-015 -0.866025 -0.5
vt 31.8898 -19.367
vt 31.4961 -19.367
f 55/135/31 81/136/30 54/137/30

vt 31.8898 -19.7781
f 81/136/30 55/135/31 80/138/31

vt 31.4961 -23.2293
vt 31.8898 -23.6404
vn -3.43198e-015 -0.965926 -0.258819
vt 31.8898 -23.2293
f 55/139/31 79/140/32 80/141/31

vt 31.4961 -23.6404
f 79/140/32 55/139/31 56/142/32

vt 31.4961 -25.4946
vt 31.8898 -25.9057
vn 8.89407e-016 -1 -3.65336e-015
vt 31.8898 -25.4946
f 56/143/32 77/144/33 79/145/32

vt 31.4961 -25.9057
f 77/144/33 56/143/32 57/146/33

vt -31.4961 26.0085
vt -31.8898 26.4196
vn 1.65316e-014 -0.965926 0.258819
vt -31.8898 26.0085
f 57/147/33 76/148/34 77/149/33

vt -31.4961 26.4196
f 76/148/34 57/147/33 58/150/34

vt -31.4961 25.1471
vn 3.12552e-014 -0.866025 0.5
vt -31.8898 24.7359
vt -31.4961 24.7359
f 59/151/35 76/152/34 58/153/34

vt -31.8898 25.1471
f 76/152/34 59/151/35 75/154/35

vt -31.4961 21.7637
vt -31.8898 22.1748
vn 4.80987e-015 -0.707107 0.707107
vt -31.8898 21.7637
f 59/155/35 74/156/36 75/157/35

vt -31.4961 22.1748
f 74/156/36 59/155/35 60/158/36

vt -31.4961 17.7053
vn 5.6974e-015 -0.5 0.866025
vt -31.8898 17.2942
vt -31.4961 17.2942
f 61/159/37 74/160/36 60/161/36

vt -31.8898 17.7053
f 74/160/36 61/159/37 73/162/37

v -0.8 0.038443 0.703138
vt -31.4961 11.992
vn 8.00793e-018 -0.382683 0.92388
vt -31.8898 11.6322
vt -31.4961 11.6322
f 88/163/38 73/164/37 61/165/37

vt -31.8898 11.992
f 73/164/37 88/163/38 72/166/38

vt -31.4961 12.0433
vn -5.30675e-014 -0.258819 0.965926
f 62/167/39 72/166/38 88/163/38

vt -31.8898 12.0433
f 72/166/38 62/167/39 71/168/39

vt -31.4961 5.57454
vn -6.54253e-014 -1.10161e-014 1
vt -31.8898 5.16343
vt -31.4961 5.16343
f 63/169/40 71/170/39 62/171/39

vt -31.8898 5.57454
f 71/170/39 63/169/40 70/172/40

vt -31.4961 -1.2601
vn -2.49679e-014 0.258819 0.965926
vt -31.8898 -1.67121
vt -31.4961 -1.67121
f 64/173/41 70/174/40 63/175/40

vt -31.8898 -1.2601
f 70/174/40 64/173/41 69/176/41

v -0.8 0.061557 0.703138
vt -31.4961 -8.35465
vn 2.9178e-014 0.382683 0.92388
vt -31.8898 -8.40597
vt -31.4961 -8.40597
f 89/177/42 69/178/41 64/179/41

vt -31.8898 -8.35465
f 69/178/41 89/177/42 68/180/42

vt -31.4961 -7.99486
f 65/181/18 68/180/42 89/177/42

vt -31.8898 -7.99486
f 68/180/42 65/181/18 66/182/18

f 64/98/10 65/99/10 89/105/10

f 61/95/10 62/96/10 88/106/10

vt -23.0987 -1.60119e-015
vn -0.221059 5.58841e-017 0.97526
vt -0.895909 3.93701
vt -23.0987 3.93701
f 14/183/43 31/184/43 32/185/43

vt -0.895909 -1.60119e-015
f 31/184/43 14/183/43 15/186/43

usemtl Color_005
vt -9.84252 -3.13884e-014
vn -2.76733e-015 8.14186e-016 1
v 0.25 0.1 1
vt -9.84252 3.93701
f 15/187/44 90/19/44 31/188/44

vt 9.84252 -3.13884e-014
f 15/187/44 18/189/44 90/19/44

vt -9.84252 -5.11811
f 16/190/44 18/189/44 15/187/44

vt 9.84252 -5.11811
f 18/189/44 16/190/44 17/191/44

usemtl Color_I16
vt 0.895909 6.66134e-016
vn 0.221059 -1.12506e-032 0.97526
v 0.8 0.1 0.875333
vt 23.0987 3.93701
vt 0.895909 3.93701
f 18/192/45 91/193/45 90/194/45

v 0.8 1.69198e-017 0.875333
vt 23.0987 6.66134e-016
f 91/193/45 18/192/45 92/195/45

usemtl Color_005
f 19/2/5 92/45/5 18/44/5

v 0.8 1.69198e-017 0.5
f 92/45/5 19/2/5 93/46/5

usemtl Color_I16
vn 1.64071e-016 -1.25254e-047 -1
vt -31.4961 6.66134e-016
vt -9.84252 6.66134e-016
f 20/188/46 93/196/46 19/197/46

v 0.8 0.1 0.5
vt -31.4961 3.93701
f 93/196/46 20/188/46 94/198/46

usemtl Color_005
f 20/3/9 91/21/9 94/22/9

f 91/21/9 20/3/9 90/23/9

f 21/1/9 90/23/9 20/3/9

f 25/4/9 90/23/9 21/1/9

v 0.145 0.1 0.9
vt 5.70866 -35.4331
f 95/199/9 90/23/9 25/4/9

v 0.144319 0.1 0.905176
vt 5.68183 -35.6369
f 96/200/9 90/23/9 95/199/9

v 0.142321 0.1 0.91
vt 5.60317 -35.8268
f 97/201/9 90/23/9 96/200/9

v 0.139142 0.1 0.914142
vt 5.47804 -35.9898
f 98/202/9 90/23/9 97/201/9

v 0.135 0.1 0.917321
vt 5.31496 -36.115
f 99/203/9 90/23/9 98/202/9

v 0.130176 0.1 0.919319
vt 5.12505 -36.1936
f 100/204/9 90/23/9 99/203/9

v 0.125 0.1 0.92
vt 4.92126 -36.2205
f 101/205/9 90/23/9 100/204/9

v 0.119824 0.1 0.919319
vt 4.71747 -36.1936
f 102/206/9 90/23/9 101/205/9

v 0.11611 0.1 0.91778
vt 4.57126 -36.1331
f 103/207/9 90/23/9 102/206/9

v 0.115 0.1 0.917321
vt 4.52756 -36.115
f 104/208/9 90/23/9 103/207/9

v -0.105 0.1 0.9
vt -4.13386 -35.4331
f 105/209/9 90/23/9 104/208/9

v -0.105681 0.1 0.905176
vt -4.16069 -35.6369
f 106/210/9 90/23/9 105/209/9

v -0.107679 0.1 0.91
vt -4.23935 -35.8268
f 107/211/9 90/23/9 106/210/9

v -0.110858 0.1 0.914142
vt -4.36448 -35.9898
f 108/212/9 90/23/9 107/211/9

v -0.115 0.1 0.917321
vt -4.52756 -36.115
f 109/213/9 90/23/9 108/212/9

v -0.119824 0.1 0.919319
vt -4.71747 -36.1936
f 110/214/9 90/23/9 109/213/9

v -0.125 0.1 0.92
vt -4.92126 -36.2205
f 111/215/9 90/23/9 110/214/9

v -0.130176 0.1 0.919319
vt -5.12505 -36.1936
f 112/216/9 90/23/9 111/215/9

f 112/216/9 31/44/9 90/23/9

v -0.13389 0.1 0.91778
vt -5.27126 -36.1331
f 113/217/9 31/44/9 112/216/9

v -0.135 0.1 0.917321
vt -5.31496 -36.115
f 114/218/9 31/44/9 113/217/9

v -0.139142 0.1 0.914142
vt -5.47804 -35.9898
f 115/219/9 31/44/9 114/218/9

v -0.142321 0.1 0.91
vt -5.60317 -35.8268
f 116/220/9 31/44/9 115/219/9

v -0.144319 0.1 0.905176
vt -5.68183 -35.6369
f 117/221/9 31/44/9 116/220/9

f 30/43/9 31/44/9 117/221/9

usemtl Color_I16
vt 34.5904 3.93701
vn -0.965926 1.90931e-016 0.258819
v -0.145 0.12 0.9
vt 34.3848 4.72441
vn -1 2.62182e-016 -3.07946e-016
vt 34.3848 3.93701
f 117/222/47 118/223/48 30/224/48

v -0.144319 0.12 0.905176
vt 34.5904 4.72441
f 118/223/48 117/222/47 119/225/47

vt 30.9554 3.93701
vn -0.866025 1.06668e-016 0.5
vt 30.7498 4.72441
vt 30.7498 3.93701
f 116/226/49 119/227/47 117/228/47

v -0.142321 0.12 0.91
vt 30.9554 4.72441
f 119/227/47 116/226/49 120/229/49

vt 25.2178 3.93701
vn -0.707107 1.51355e-017 0.707107
vt 25.0123 4.72441
vt 25.0123 3.93701
f 115/230/50 120/231/49 116/232/49

v -0.139142 0.12 0.914142
vt 25.2178 4.72441
f 120/231/49 115/230/50 121/233/50

vt 17.5632 3.93701
v -0.135 0.12 0.917321
vt 17.7688 4.72441
vn -0.5 -7.74282e-017 0.866025
vt 17.5632 4.72441
f 115/234/50 122/235/51 121/236/50

vt 17.7688 3.93701
f 122/235/51 115/234/50 114/237/51

vt 8.91022 3.93701
v -0.13389 0.12 0.91778
vt 8.95752 4.72441
vn -0.382683 -1.22116e-016 0.92388
vt 8.91022 4.72441
f 114/238/51 123/239/52 122/240/51

vt 8.95752 3.93701
f 123/239/52 114/238/51 113/241/52

vt 9.11577 3.93701
vn -0.258819 -1.64715e-016 0.965926
f 112/242/53 123/239/52 113/241/52

v -0.130176 0.12 0.919319
vt 9.11577 4.72441
f 123/239/52 112/242/53 124/243/53

vt -0.35699 3.93701
v -0.125 0.12 0.92
vt -0.151437 4.72441
vn -5.87897e-016 -2.40777e-016 1
vt -0.35699 4.72441
f 112/244/53 125/245/54 124/246/53

vt -0.151437 3.93701
f 125/245/54 112/244/53 111/247/54

vt -9.60688 3.93701
v -0.119824 0.12 0.919319
vt -9.40133 4.72441
vn 0.258819 -3.00431e-016 0.965926
vt -9.60688 4.72441
f 111/248/54 126/249/55 125/250/54

vt -9.40133 3.93701
f 126/249/55 111/248/54 110/251/55

vt -18.2091 3.93701
v -0.115 0.12 0.917321
vt -18.0035 4.72441
vn 0.5 -3.3961e-016 0.866025
vt -18.2091 4.72441
f 110/252/55 127/253/56 126/254/55

vt -18.0035 3.93701
f 127/253/56 110/252/55 109/255/56

vt -25.5774 3.93701
v -0.110858 0.12 0.914142
vt -25.3718 4.72441
vn 0.707107 -3.55646e-016 0.707107
vt -25.5774 4.72441
f 109/256/56 128/257/57 127/258/56

vt -25.3718 3.93701
f 128/257/57 109/256/56 108/259/57

vt -31.004 3.93701
vn 0.866025 -3.47445e-016 0.5
vt -31.2096 4.72441
vt -31.2096 3.93701
f 107/260/58 128/261/57 108/262/57

v -0.107679 0.12 0.91
vt -31.004 4.72441
f 128/261/57 107/260/58 129/263/58

vt -34.5164 3.93701
vn 0.965926 -3.15566e-016 0.258819
vt -34.722 4.72441
vt -34.722 3.93701
f 106/264/59 129/265/58 107/266/58

v -0.105681 0.12 0.905176
vt -34.5164 4.72441
f 129/265/58 106/264/59 130/267/59

vt -35.6695 3.93701
vn 1 -2.62182e-016 2.93948e-016
vt -35.8751 4.72441
vt -35.8751 3.93701
f 105/268/60 130/269/59 106/270/59

v -0.105 0.12 0.9
vt -35.6695 4.72441
f 130/269/59 105/268/60 131/271/60

v -0.105681 0.1 0.894824
vt -34.3848 3.93701
vn 0.965926 -1.90931e-016 -0.258819
vt -34.5904 4.72441
vt -34.5904 3.93701
f 132/272/61 131/273/60 105/274/60

v -0.105681 0.12 0.894824
vt -34.3848 4.72441
f 131/273/60 132/272/61 133/275/61

v -0.107679 0.1 0.89
vt -30.7498 3.93701
vn 0.866025 -1.06668e-016 -0.5
vt -30.9554 4.72441
vt -30.9554 3.93701
f 134/276/62 133/277/61 132/278/61

v -0.107679 0.12 0.89
vt -30.7498 4.72441
f 133/277/61 134/276/62 135/279/62

v -0.110858 0.1 0.885858
vt -25.0123 3.93701
vn 0.707107 -1.51355e-017 -0.707107
vt -25.2178 4.72441
vt -25.2178 3.93701
f 136/280/63 135/281/62 134/282/62

v -0.110858 0.12 0.885858
vt -25.0123 4.72441
f 135/281/62 136/280/63 137/283/63

vt -17.7688 3.93701
v -0.115 0.12 0.882679
vt -17.5632 4.72441
vn 0.5 7.74282e-017 -0.866025
vt -17.7688 4.72441
f 136/284/63 138/285/64 137/286/63

v -0.115 0.1 0.882679
vt -17.5632 3.93701
f 138/285/64 136/284/63 139/287/64

usemtl Color_005
v -0.110858 0.1 -0.235858
vt -4.36448 9.28574
vt -4.52756 -34.7512
vt -4.36448 -34.8763
f 140/288/9 139/289/9 136/290/9

v -0.115 0.1 -0.232679
vt -4.52756 9.16061
f 141/291/9 139/289/9 140/288/9

v -0.11611 0.1 0.88222
vt -4.57126 -34.7331
f 141/291/9 142/292/9 139/289/9

v -0.119824 0.1 0.880681
vt -4.71747 -34.6725
f 141/291/9 143/293/9 142/292/9

v -0.119824 0.1 -0.230681
vt -4.71747 9.08195
f 144/294/9 143/293/9 141/291/9

v -0.125 0.1 0.88
vt -4.92126 -34.6457
f 144/294/9 145/295/9 143/293/9

v -0.125 0.1 -0.23
vt -4.92126 9.05512
f 146/296/9 145/295/9 144/294/9

v -0.130176 0.1 0.880681
vt -5.12505 -34.6725
f 146/296/9 147/297/9 145/295/9

v -0.130176 0.1 -0.230681
vt -5.12505 9.08195
f 148/298/9 147/297/9 146/296/9

v -0.13389 0.1 -0.23222
vt -5.27126 9.14251
f 149/299/9 147/297/9 148/298/9

v -0.135 0.1 0.882679
vt -5.31496 -34.7512
f 149/299/9 150/300/9 147/297/9

v -0.135 0.1 -0.232679
vt -5.31496 9.16061
f 151/301/9 150/300/9 149/299/9

v -0.139142 0.1 0.885858
vt -5.47804 -34.8763
f 151/301/9 152/302/9 150/300/9

v -0.139142 0.1 -0.235858
vt -5.47804 9.28574
f 153/303/9 152/302/9 151/301/9

v -0.142321 0.1 0.89
vt -5.60317 -35.0394
f 153/303/9 154/304/9 152/302/9

v -0.142321 0.1 -0.24
vt -5.60317 9.44882
f 155/305/9 154/304/9 153/303/9

v -0.144319 0.1 0.894824
vt -5.68183 -35.2293
f 155/305/9 156/306/9 154/304/9

v -0.144319 0.1 -0.244824
vt -5.68183 9.63873
f 157/307/9 156/306/9 155/305/9

f 157/307/9 30/43/9 156/306/9

f 30/43/9 157/307/9 29/42/9

usemtl Color_I16
vt -10.2979 3.93701
vn -0.965926 -1.39507e-016 0.258819
v -0.145 0.12 -0.25
vt -10.5034 4.72441
vn -1 -1.76699e-016 -2.93948e-016
vt -10.5034 3.93701
f 157/308/65 158/309/66 29/310/66

v -0.144319 0.12 -0.244824
vt -10.2979 4.72441
f 158/309/66 157/308/65 159/311/65

vt -10.8738 3.93701
vn -0.866025 -9.2808e-017 0.5
vt -11.0794 4.72441
vt -11.0794 3.93701
f 155/312/67 159/313/65 157/314/65

v -0.142321 0.12 -0.24
vt -10.8738 4.72441
f 159/313/65 155/312/67 160/315/67

vt -10.7017 3.93701
vn -0.707107 -3.97843e-017 0.707107
vt -10.9072 4.72441
vt -10.9072 3.93701
f 153/316/68 160/317/67 155/318/67

v -0.139142 0.12 -0.235858
vt -10.7017 4.72441
f 160/317/67 153/316/68 161/319/68

vt -9.99882 3.93701
v -0.135 0.12 -0.232679
vt -9.79327 4.72441
vn -0.5 1.59506e-017 0.866025
vt -9.99882 4.72441
f 153/320/68 162/321/69 161/322/68

vt -9.79327 3.93701
f 162/321/69 153/320/68 151/323/69

vt -8.416 3.93701
v -0.13389 0.12 -0.23222
vt -8.3687 4.72441
vn -0.382683 4.3648e-017 0.92388
vt -8.416 4.72441
f 151/324/69 163/325/70 162/326/69

vt -8.3687 3.93701
f 163/325/70 151/324/69 149/327/70

vt -8.21044 3.93701
vn -0.258819 7.05985e-017 0.965926
f 148/328/71 163/325/70 149/327/70

v -0.130176 0.12 -0.230681
vt -8.21044 4.72441
f 163/325/70 148/328/71 164/329/71

vt -6.26664 3.93701
v -0.125 0.12 -0.23
vt -6.06109 4.72441
vn 3.69535e-015 1.20435e-016 1
vt -6.26664 4.72441
f 148/330/71 165/331/72 164/332/71

vt -6.06109 3.93701
f 165/331/72 148/330/71 146/333/72

vt -3.69723 3.93701
v -0.119824 0.12 -0.230681
vt -3.49167 4.72441
vn 0.258819 1.62065e-016 0.965926
vt -3.69723 4.72441
f 146/334/72 166/335/73 165/336/72

vt -3.49167 3.93701
f 166/335/73 146/334/72 144/337/73

vt -0.882859 3.93701
v -0.115 0.12 -0.232679
vt -0.677305 4.72441
vn 0.5 1.92649e-016 0.866025
vt -0.882859 4.72441
f 144/338/73 167/339/74 166/340/73

vt -0.677305 3.93701
f 167/339/74 144/338/73 141/341/74

vt 1.98467 3.93701
v -0.110858 0.12 -0.235858
vt 2.19022 4.72441
vn 0.707107 2.10106e-016 0.707107
vt 1.98467 4.72441
f 141/342/74 168/343/75 167/344/74

vt 2.19022 3.93701
f 168/343/75 141/342/74 140/345/75

v -0.107679 0.1 -0.24
vt 4.9155 3.93701
vn 0.866025 2.13243e-016 0.5
vt 4.70995 4.72441
vt 4.70995 3.93701
f 169/346/76 168/347/75 140/348/75

v -0.107679 0.12 -0.24
vt 4.9155 4.72441
f 168/347/75 169/346/76 170/349/76

v -0.105681 0.1 -0.244824
vt 7.31279 3.93701
vn 0.965926 2.01849e-016 0.258819
vt 7.10724 4.72441
vt 7.10724 3.93701
f 171/350/77 170/351/76 169/352/76

v -0.105681 0.12 -0.244824
vt 7.31279 4.72441
f 170/351/76 171/350/77 172/353/77

v -0.105 0.1 -0.25
vt 9.21874 3.93701
vn 1 1.76699e-016 3.07946e-016
vt 9.01319 4.72441
vt 9.01319 3.93701
f 173/354/78 172/355/77 171/356/77

v -0.105 0.12 -0.25
vt 9.21874 4.72441
f 172/355/77 173/354/78 174/357/78

v -0.105681 0.1 -0.255176
vt 10.5034 3.93701
vn 0.965926 1.39507e-016 -0.258819
vt 10.2979 4.72441
vt 10.2979 3.93701
f 175/358/79 174/359/78 173/360/78

v -0.105681 0.12 -0.255176
vt 10.5034 4.72441
f 174/359/78 175/358/79 176/361/79

v -0.107679 0.1 -0.26
vt 11.0794 3.93701
vn 0.866025 9.2808e-017 -0.5
vt 10.8738 4.72441
vt 10.8738 3.93701
f 177/362/80 176/363/79 175/364/79

v -0.107679 0.12 -0.26
vt 11.0794 4.72441
f 176/363/79 177/362/80 178/365/80

v -0.110858 0.1 -0.264142
vt 10.9072 3.93701
vn 0.707107 3.97843e-017 -0.707107
vt 10.7017 4.72441
vt 10.7017 3.93701
f 179/366/81 178/367/80 177/368/80

v -0.110858 0.12 -0.264142
vt 10.9072 4.72441
f 178/367/80 179/366/81 180/369/81

vt 9.79327 3.93701
v -0.115 0.12 -0.267321
vt 9.99882 4.72441
vn 0.5 -1.59506e-017 -0.866025
vt 9.79327 4.72441
f 179/370/81 181/371/82 180/372/81

v -0.115 0.1 -0.267321
vt 9.99882 3.93701
f 181/371/82 179/370/81 182/373/82

usemtl Color_005
vt -4.52756 10.5244
vt -4.36448 10.3993
f 25/4/9 182/374/9 179/375/9

v -0.11611 0.1 -0.26778
vt -4.57126 10.5425
f 25/4/9 183/376/9 182/374/9

v -0.119824 0.1 -0.269319
vt -4.71747 10.6031
f 25/4/9 184/377/9 183/376/9

v -0.125 0.1 -0.27
vt -4.92126 10.6299
f 25/4/9 185/378/9 184/377/9

v -0.130176 0.1 -0.269319
vt -5.12505 10.6031
f 25/4/9 186/379/9 185/378/9

v -0.135 0.1 -0.267321
vt -5.31496 10.5244
f 25/4/9 187/380/9 186/379/9

f 25/4/9 26/39/9 187/380/9

usemtl Color_I16
v -0.139142 0.12 -0.264142
vt -1.98467 4.72441
vn -0.707107 -2.10106e-016 -0.707107
vt -2.19022 3.93701
vn -0.5 -1.92649e-016 -0.866025
vt -1.98467 3.93701
f 188/381/83 187/382/84 26/383/83

v -0.135 0.12 -0.267321
vt -2.19022 4.72441
f 187/382/84 188/381/83 189/384/84

usemtl FrontColor
vn -8.10056e-016 1 -8.10056e-016
v -0.125 0.12 -0.25
vt -4.92126 9.84252
f 188/39/85 190/385/85 189/380/85

v -0.142321 0.12 -0.26
f 191/40/85 190/385/85 188/39/85

v -0.144319 0.12 -0.255176
f 192/41/85 190/385/85 191/40/85

f 190/385/85 192/41/85 158/42/85

usemtl Color_I16
vt -9.21874 4.72441
vn -0.965926 -2.01849e-016 -0.258819
vt -9.01319 3.93701
vt -9.01319 4.72441
f 192/386/86 29/387/66 158/388/66

vt -9.21874 3.93701
f 29/387/66 192/386/86 28/389/86

vt -7.31279 4.72441
vn -0.866025 -2.13243e-016 -0.5
vt -7.10724 3.93701
vt -7.10724 4.72441
f 191/390/87 28/391/86 192/392/86

vt -7.31279 3.93701
f 28/391/86 191/390/87 27/393/87

vt -4.9155 4.72441
vt -4.70995 3.93701
vt -4.70995 4.72441
f 188/394/83 27/395/87 191/396/87

vt -4.9155 3.93701
f 27/395/87 188/394/83 26/397/83

usemtl FrontColor
vn -2.89837e-016 1 -3.94532e-016
f 159/307/88 190/385/88 158/42/88

f 190/385/88 159/307/88 160/305/88

f 190/385/88 160/305/88 161/303/88

f 190/385/88 161/303/88 162/301/88

f 190/385/88 162/301/88 163/299/88

f 190/385/88 163/299/88 164/298/88

f 190/385/88 164/298/88 165/296/88

vn 0 1 -0
f 166/294/89 190/385/89 165/296/89

vt -4.13386 9.84252
f 190/385/89 166/294/89 174/398/89

f 174/398/89 166/294/89 167/291/89

f 174/398/89 167/291/89 168/288/89

vt -4.23935 9.44882
f 174/398/89 168/288/89 170/399/89

vt -4.16069 9.63873
f 174/398/89 170/399/89 172/400/89

vn -4.09754e-016 1 -2.18693e-016
v -0.125 0.12 -0.27
f 174/398/90 193/378/90 190/385/90

v -0.119824 0.12 -0.269319
f 193/378/90 174/398/90 194/377/90

v -0.11611 0.12 -0.26778
f 194/377/90 174/398/90 195/376/90

f 195/376/90 174/398/90 181/374/90

f 181/374/90 174/398/90 180/375/90

vt -4.23935 10.2362
f 180/375/90 174/398/90 178/401/90

vt -4.16069 10.0463
f 178/401/90 174/398/90 176/402/90

usemtl Color_I16
vt 8.21044 3.93701
vt 8.25774 4.72441
vn 0.382683 -4.3648e-017 -0.92388
vt 8.21044 4.72441
f 182/403/82 195/404/91 181/405/82

vt 8.25774 3.93701
f 195/404/91 182/403/82 183/406/91

vt 8.416 3.93701
vn 0.258819 -7.05985e-017 -0.965926
f 184/407/92 195/404/91 183/406/91

vt 8.416 4.72441
f 195/404/91 184/407/92 194/408/92

vt 6.06109 3.93701
vt 6.26664 4.72441
vn 5.87897e-016 -1.20435e-016 -1
vt 6.06109 4.72441
f 184/409/92 193/410/93 194/411/92

vt 6.26664 3.93701
f 193/410/93 184/409/92 185/412/93

vt 3.49167 3.93701
v -0.130176 0.12 -0.269319
vt 3.69723 4.72441
vn -0.258819 -1.62065e-016 -0.965926
vt 3.49167 4.72441
f 185/413/93 196/414/94 193/415/93

vt 3.69723 3.93701
f 196/414/94 185/413/93 186/416/94

vt 0.677305 3.93701
vt 0.882859 4.72441
vt 0.677305 4.72441
f 186/417/94 189/418/84 196/419/94

vt 0.882859 3.93701
f 189/418/84 186/417/94 187/420/84

usemtl FrontColor
f 189/380/85 190/385/85 196/379/85

f 196/379/85 190/385/85 193/378/85

usemtl Color_005
f 25/4/9 179/375/9 177/401/9

f 25/4/9 177/401/9 175/402/9

f 25/4/9 175/402/9 173/398/9

f 25/4/9 173/398/9 105/209/9

vt -4.16069 -35.2293
f 173/398/9 132/421/9 105/209/9

f 171/400/9 132/421/9 173/398/9

vt -4.23935 -35.0394
f 171/400/9 134/422/9 132/421/9

f 169/399/9 134/422/9 171/400/9

f 169/399/9 136/290/9 134/422/9

f 140/288/9 136/290/9 169/399/9

v 0.105681 0.1 -0.255176
vt 4.16069 10.0463
f 25/4/9 105/209/9 197/423/9

v 0.105 0.1 -0.25
vt 4.13386 9.84252
f 197/423/9 105/209/9 198/424/9

v 0.105 0.1 0.9
vt 4.13386 -35.4331
f 105/209/9 199/425/9 198/424/9

v 0.105681 0.1 0.905176
vt 4.16069 -35.6369
f 105/209/9 200/426/9 199/425/9

v 0.107679 0.1 0.91
vt 4.23935 -35.8268
f 105/209/9 201/427/9 200/426/9

v 0.110858 0.1 0.914142
vt 4.36448 -35.9898
f 105/209/9 202/428/9 201/427/9

f 105/209/9 104/208/9 202/428/9

usemtl Color_I16
v 0.115 0.12 0.917321
vt 25.5774 4.72441
vt 25.3718 3.93701
vt 25.5774 3.93701
f 203/429/51 202/430/50 104/431/51

v 0.110858 0.12 0.914142
vt 25.3718 4.72441
f 202/430/50 203/429/51 204/432/50

usemtl FrontColor
v 0.125 0.12 0.9
vt 4.92126 -35.4331
vn 4.95237e-016 1 3.39035e-016
f 205/433/95 204/428/95 203/208/95

v 0.107679 0.12 0.91
f 205/433/95 206/427/95 204/428/95

v 0.105681 0.12 0.905176
f 205/433/95 207/426/95 206/427/95

v 0.105 0.12 0.9
f 207/426/95 205/433/95 208/425/95

vn 8.54832e-017 1 1.20342e-016
v 0.105681 0.12 0.894824
vt 4.16069 -35.2293
f 205/433/96 209/434/96 208/425/96

v 0.107679 0.12 0.89
vt 4.23935 -35.0394
f 209/434/96 205/433/96 210/435/96

v 0.110858 0.12 0.885858
vt 4.36448 -34.8763
f 210/435/96 205/433/96 211/436/96

v 0.115 0.12 0.882679
vt 4.52756 -34.7512
f 211/436/96 205/433/96 212/437/96

v 0.119824 0.12 0.880681
vt 4.71747 -34.6725
f 212/437/96 205/433/96 213/438/96

v 0.125 0.12 0.88
vt 4.92126 -34.6457
f 213/438/96 205/433/96 214/439/96

v 0.145 0.12 0.9
vn 3.7532e-016 1 5.14874e-016
f 215/199/97 214/439/97 205/433/97

v 0.130176 0.12 0.880681
vt 5.12505 -34.6725
f 214/439/97 215/199/97 216/440/97

v 0.13389 0.12 0.88222
vt 5.27126 -34.7331
f 216/440/97 215/199/97 217/441/97

v 0.135 0.12 0.882679
vt 5.31496 -34.7512
f 217/441/97 215/199/97 218/442/97

v 0.139142 0.12 0.885858
vt 5.47804 -34.8763
f 218/442/97 215/199/97 219/443/97

v 0.142321 0.12 0.89
vt 5.60317 -35.0394
f 219/443/97 215/199/97 220/444/97

v 0.144319 0.12 0.894824
vt 5.68183 -35.2293
f 220/444/97 215/199/97 221/445/97

usemtl Color_I16
v 0.144319 0.1 0.894824
f 215/269/60 222/268/61 221/271/61

f 222/268/61 215/269/60 95/270/60

v 0.144319 0.12 0.905176
f 223/273/59 95/272/60 215/275/60

f 95/272/60 223/273/59 96/274/59

v 0.142321 0.12 0.91
f 224/277/58 96/276/59 223/279/59

f 96/276/59 224/277/58 97/278/58

v 0.139142 0.12 0.914142
f 225/281/57 97/280/58 224/283/58

f 97/280/58 225/281/57 98/282/57

f 225/285/57 99/284/56 98/287/57

v 0.135 0.12 0.917321
f 99/284/56 225/285/57 226/286/56

usemtl FrontColor
vn 8.95539e-016 1 9.30398e-016
f 215/199/98 226/203/98 225/202/98

v 0.130176 0.12 0.919319
f 215/199/98 227/204/98 226/203/98

f 205/433/98 227/204/98 215/199/98

v 0.125 0.12 0.92
f 227/204/98 205/433/98 228/205/98

v 0.119824 0.12 0.919319
f 205/433/95 229/206/95 228/205/95

v 0.11611 0.12 0.91778
f 205/433/95 230/207/95 229/206/95

f 205/433/95 203/208/95 230/207/95

usemtl Color_I16
vt 18.0035 3.93701
vt 18.0508 4.72441
vt 18.0035 4.72441
f 104/446/51 230/447/52 203/448/51

vt 18.0508 3.93701
f 230/447/52 104/446/51 103/449/52

vt 18.2091 3.93701
f 102/450/53 230/447/52 103/449/52

vt 18.2091 4.72441
f 230/447/52 102/450/53 229/451/53

vt 9.40133 3.93701
vt 9.60688 4.72441
vt 9.40133 4.72441
f 102/452/53 228/453/54 229/454/53

vt 9.60688 3.93701
f 228/453/54 102/452/53 101/455/54

vt 0.151437 3.93701
vt 0.35699 4.72441
vt 0.151437 4.72441
f 101/456/54 227/457/55 228/458/54

vt 0.35699 3.93701
f 227/457/55 101/456/54 100/459/55

vt -9.11577 3.93701
vt -8.91022 4.72441
vt -9.11577 4.72441
f 100/460/55 226/461/56 227/462/55

vt -8.91022 3.93701
f 226/461/56 100/460/55 99/463/56

usemtl FrontColor
f 215/199/98 225/202/98 224/201/98

f 215/199/98 224/201/98 223/200/98

usemtl Color_005
v 0.145 0.1 -0.25
vt 5.70866 9.84252
f 231/464/9 222/445/9 95/199/9

v 0.144319 0.1 -0.244824
vt 5.68183 9.63873
f 232/465/9 222/445/9 231/464/9

v 0.142321 0.1 0.89
f 232/465/9 233/444/9 222/445/9

v 0.142321 0.1 -0.24
vt 5.60317 9.44882
f 234/466/9 233/444/9 232/465/9

v 0.139142 0.1 0.885858
f 234/466/9 235/443/9 233/444/9

v 0.139142 0.1 -0.235858
vt 5.47804 9.28574
f 236/467/9 235/443/9 234/466/9

v 0.135 0.1 0.882679
f 236/467/9 237/442/9 235/443/9

v 0.135 0.1 -0.232679
vt 5.31496 9.16061
f 238/468/9 237/442/9 236/467/9

v 0.13389 0.1 0.88222
f 238/468/9 239/441/9 237/442/9

v 0.130176 0.1 0.880681
f 238/468/9 240/440/9 239/441/9

v 0.130176 0.1 -0.230681
vt 5.12505 9.08195
f 241/469/9 240/440/9 238/468/9

v 0.125 0.1 0.88
f 241/469/9 242/439/9 240/440/9

v 0.125 0.1 -0.23
vt 4.92126 9.05512
f 243/470/9 242/439/9 241/469/9

v 0.119824 0.1 0.880681
f 243/470/9 244/438/9 242/439/9

v 0.119824 0.1 -0.230681
vt 4.71747 9.08195
f 245/471/9 244/438/9 243/470/9

v 0.11611 0.1 -0.23222
vt 4.57126 9.14251
f 246/472/9 244/438/9 245/471/9

v 0.115 0.1 0.882679
f 246/472/9 247/437/9 244/438/9

v 0.115 0.1 -0.232679
vt 4.52756 9.16061
f 248/473/9 247/437/9 246/472/9

v 0.110858 0.1 0.885858
f 248/473/9 249/436/9 247/437/9

v 0.110858 0.1 -0.235858
vt 4.36448 9.28574
f 250/474/9 249/436/9 248/473/9

v 0.107679 0.1 0.89
f 250/474/9 251/435/9 249/436/9

v 0.107679 0.1 -0.24
vt 4.23935 9.44882
f 252/475/9 251/435/9 250/474/9

v 0.105681 0.1 0.894824
f 252/475/9 253/434/9 251/435/9

v 0.105681 0.1 -0.244824
vt 4.16069 9.63873
f 254/476/9 253/434/9 252/475/9

f 254/476/9 199/425/9 253/434/9

f 199/425/9 254/476/9 198/424/9

usemtl Color_I16
v 0.105 0.12 -0.25
f 254/387/65 255/386/66 198/389/66

v 0.105681 0.12 -0.244824
f 255/386/66 254/387/65 256/388/65

f 252/391/67 256/390/65 254/393/65

v 0.107679 0.12 -0.24
f 256/390/65 252/391/67 257/392/67

f 250/395/68 257/394/67 252/397/67

v 0.110858 0.12 -0.235858
f 257/394/67 250/395/68 258/396/68

v 0.115 0.12 -0.232679
f 250/382/68 259/381/69 258/384/68

f 259/381/69 250/382/68 248/383/69

v 0.11611 0.12 -0.23222
vt 0.724602 4.72441
f 248/417/69 260/477/70 259/419/69

vt 0.724602 3.93701
f 260/477/70 248/417/69 246/478/70

f 245/420/71 260/477/70 246/478/70

v 0.119824 0.12 -0.230681
f 260/477/70 245/420/71 261/418/71

v 0.125 0.12 -0.23
f 245/413/71 262/414/72 261/415/71

f 262/414/72 245/413/71 243/416/72

v 0.130176 0.12 -0.230681
f 243/409/72 263/410/73 262/411/72

f 263/410/73 243/409/72 241/412/73

v 0.135 0.12 -0.232679
f 241/403/73 264/408/74 263/405/73

f 264/408/74 241/403/73 238/407/74

v 0.139142 0.12 -0.235858
f 238/370/74 265/371/75 264/372/74

f 265/371/75 238/370/74 236/373/75

f 234/366/76 265/367/75 236/368/75

v 0.142321 0.12 -0.24
f 265/367/75 234/366/76 266/369/76

f 232/362/77 266/363/76 234/364/76

v 0.144319 0.12 -0.244824
f 266/363/76 232/362/77 267/365/77

f 231/358/78 267/359/77 232/360/77

v 0.145 0.12 -0.25
f 267/359/77 231/358/78 268/361/78

v 0.144319 0.1 -0.255176
f 269/354/79 268/355/78 231/356/78

v 0.144319 0.12 -0.255176
f 268/355/78 269/354/79 270/357/79

v 0.142321 0.1 -0.26
f 271/350/80 270/351/79 269/352/79

v 0.142321 0.12 -0.26
f 270/351/79 271/350/80 272/353/80

v 0.139142 0.1 -0.264142
f 273/346/81 272/347/80 271/348/80

v 0.139142 0.12 -0.264142
f 272/347/80 273/346/81 274/349/81

v 0.135 0.12 -0.267321
f 273/342/81 275/343/82 274/344/81

v 0.135 0.1 -0.267321
f 275/343/82 273/342/81 276/345/82

usemtl Color_005
vt 5.31496 10.5244
vt 5.47804 10.3993
f 25/4/9 276/479/9 273/480/9

v 0.13389 0.1 -0.26778
vt 5.27126 10.5425
f 25/4/9 277/481/9 276/479/9

v 0.130176 0.1 -0.269319
vt 5.12505 10.6031
f 25/4/9 278/482/9 277/481/9

v 0.125 0.1 -0.27
vt 4.92126 10.6299
f 25/4/9 279/483/9 278/482/9

v 0.119824 0.1 -0.269319
vt 4.71747 10.6031
f 25/4/9 280/484/9 279/483/9

v 0.115 0.1 -0.267321
vt 4.52756 10.5244
f 25/4/9 281/485/9 280/484/9

v 0.110858 0.1 -0.264142
vt 4.36448 10.3993
f 25/4/9 282/486/9 281/485/9

v 0.107679 0.1 -0.26
vt 4.23935 10.2362
f 25/4/9 283/487/9 282/486/9

f 25/4/9 197/423/9 283/487/9

usemtl Color_I16
v 0.107679 0.12 -0.26
f 197/312/86 284/313/87 283/314/87

v 0.105681 0.12 -0.255176
f 284/313/87 197/312/86 285/315/86

f 198/308/66 285/309/86 197/310/86

f 285/309/86 198/308/66 255/311/66

usemtl FrontColor
v 0.125 0.12 -0.25
vt 4.92126 9.84252
f 286/488/85 285/423/85 255/424/85

f 285/423/85 286/488/85 284/487/85

v 0.110858 0.12 -0.264142
f 284/487/85 286/488/85 287/486/85

v 0.115 0.12 -0.267321
f 287/486/85 286/488/85 288/485/85

v 0.119824 0.12 -0.269319
f 288/485/85 286/488/85 289/484/85

v 0.125 0.12 -0.27
f 289/484/85 286/488/85 290/483/85

f 268/464/90 290/483/90 286/488/90

v 0.130176 0.12 -0.269319
f 290/483/90 268/464/90 291/482/90

v 0.13389 0.12 -0.26778
f 291/482/90 268/464/90 292/481/90

f 292/481/90 268/464/90 275/479/90

f 275/479/90 268/464/90 274/480/90

vt 5.60317 10.2362
f 274/480/90 268/464/90 272/489/90

vt 5.68183 10.0463
f 272/489/90 268/464/90 270/490/90

usemtl Color_I16
vt -0.835562 4.72441
f 276/338/82 292/491/91 275/340/82

vt -0.835562 3.93701
f 292/491/91 276/338/82 277/492/91

f 278/341/92 292/491/91 277/492/91

f 292/491/91 278/341/92 291/339/92

f 278/334/92 290/335/93 291/336/92

f 290/335/93 278/334/92 279/337/93

f 279/330/93 289/331/94 290/332/93

f 289/331/94 279/330/93 280/333/94

f 280/324/94 288/329/84 289/326/94

f 288/329/84 280/324/94 281/328/84

f 281/320/84 287/321/83 288/322/84

f 287/321/83 281/320/84 282/323/83

f 283/316/87 287/317/83 282/318/83

f 287/317/83 283/316/87 284/319/87

usemtl FrontColor
f 286/488/89 263/469/89 268/464/89

f 263/469/89 286/488/89 262/470/89

f 286/488/88 261/471/88 262/470/88

f 286/488/88 260/472/88 261/471/88

f 286/488/88 259/473/88 260/472/88

f 286/488/88 258/474/88 259/473/88

f 286/488/88 257/475/88 258/474/88

f 286/488/88 256/476/88 257/475/88

f 256/476/88 286/488/88 255/424/88

f 268/464/89 263/469/89 264/468/89

f 268/464/89 264/468/89 265/467/89

f 268/464/89 265/467/89 266/466/89

f 268/464/89 266/466/89 267/465/89

usemtl Color_005
f 25/4/9 273/480/9 271/489/9

f 25/4/9 271/489/9 269/490/9

f 25/4/9 269/490/9 231/464/9

f 25/4/9 231/464/9 95/199/9

usemtl Color_I16
vn -0.965926 3.15566e-016 -0.258819
f 199/222/48 209/223/99 253/224/99

f 209/223/99 199/222/48 208/225/48

vt 35.8751 3.93701
vt 35.6695 4.72441
vt 35.6695 3.93701
f 200/493/47 208/494/48 199/495/48

vt 35.8751 4.72441
f 208/494/48 200/493/47 207/496/47

vt 34.722 3.93701
vt 34.5164 4.72441
vt 34.5164 3.93701
f 201/497/49 207/498/47 200/499/47

vt 34.722 4.72441
f 207/498/47 201/497/49 206/500/49

vt 31.2096 3.93701
vt 31.004 4.72441
vt 31.004 3.93701
f 202/501/50 206/502/49 201/503/49

vt 31.2096 4.72441
f 206/502/49 202/501/50 204/504/50

vn -0.866025 3.47445e-016 -0.5
f 210/227/100 253/226/99 209/229/99

f 253/226/99 210/227/100 251/228/100

vn -0.707107 3.55646e-016 -0.707107
f 211/231/101 251/230/100 210/233/100

f 251/230/100 211/231/101 249/232/101

vn -0.5 3.3961e-016 -0.866025
f 211/235/101 247/234/102 249/237/101

f 247/234/102 211/235/101 212/236/102

vn -0.258819 3.00431e-016 -0.965926
f 212/243/102 244/238/103 247/242/102

f 244/238/103 212/243/102 213/240/103

vn -3.69535e-015 2.40777e-016 -1
f 213/245/103 242/244/104 244/247/103

f 242/244/104 213/245/103 214/246/104

vn 0.258819 1.64715e-016 -0.965926
f 214/249/104 240/248/105 242/251/104

f 240/248/105 214/249/104 216/250/105

vt -18.1618 4.72441
vn 0.382683 1.22116e-016 -0.92388
f 217/505/106 240/255/105 216/253/105

vt -18.1618 3.93701
f 240/255/105 217/505/106 239/506/106

f 217/505/106 237/252/64 239/506/106

f 237/252/64 217/505/106 218/254/64

f 218/257/64 235/256/63 237/259/64

f 235/256/63 218/257/64 219/258/63

f 220/261/62 235/260/63 219/263/63

f 235/260/63 220/261/62 233/262/62

f 221/265/61 233/264/62 220/267/62

f 233/264/62 221/265/61 222/266/61

v -0.144319 0.12 0.894824
f 30/493/48 293/494/99 156/495/99

f 293/494/99 30/493/48 118/496/48

usemtl FrontColor
v -0.125 0.12 0.9
vt -4.92126 -35.4331
f 294/507/96 293/306/96 118/43/96

v -0.142321 0.12 0.89
f 293/306/96 294/507/96 295/304/96

v -0.139142 0.12 0.885858
f 295/304/96 294/507/96 296/302/96

v -0.135 0.12 0.882679
f 296/302/96 294/507/96 297/300/96

v -0.130176 0.12 0.880681
f 297/300/96 294/507/96 298/297/96

v -0.125 0.12 0.88
f 298/297/96 294/507/96 299/295/96

f 131/209/97 299/295/97 294/507/97

v -0.119824 0.12 0.880681
f 299/295/97 131/209/97 300/293/97

v -0.11611 0.12 0.88222
f 300/293/97 131/209/97 301/292/97

f 301/292/97 131/209/97 138/289/97

f 138/289/97 131/209/97 137/290/97

f 137/290/97 131/209/97 135/422/97

f 135/422/97 131/209/97 133/421/97

usemtl Color_I16
vt -9.06848 4.72441
f 139/460/64 301/508/106 138/462/64

vt -9.06848 3.93701
f 301/508/106 139/460/64 142/509/106

f 143/463/105 301/508/106 142/509/106

f 301/508/106 143/463/105 300/461/105

f 143/456/105 299/457/104 300/458/105

f 299/457/104 143/456/105 145/459/104

f 145/452/104 298/453/103 299/454/104

f 298/453/103 145/452/104 147/455/103

f 147/446/103 297/451/102 298/448/103

f 297/451/102 147/446/103 150/450/102

f 150/430/102 296/429/101 297/432/102

f 296/429/101 150/430/102 152/431/101

f 154/501/100 296/502/101 152/503/101

f 296/502/101 154/501/100 295/504/100

f 156/497/99 295/498/100 154/499/100

f 295/498/100 156/497/99 293/500/99

usemtl FrontColor
f 294/507/98 126/214/98 131/209/98

f 126/214/98 294/507/98 125/215/98

f 294/507/95 124/216/95 125/215/95

f 294/507/95 123/217/95 124/216/95

f 294/507/95 122/218/95 123/217/95

f 294/507/95 121/219/95 122/218/95

f 294/507/95 120/220/95 121/219/95

f 294/507/95 119/221/95 120/220/95

f 119/221/95 294/507/95 118/43/95

f 131/209/98 126/214/98 127/213/98

f 131/209/98 127/213/98 128/212/98

f 131/209/98 128/212/98 129/211/98

f 131/209/98 129/211/98 130/210/98

usemtl Color_I16
vt -9.84252 -18.5307
vn 4.94463e-016 0.980581 -0.196116
v 0.15 1.69198e-017 -1
vt -5.90551 -38.6055
vt -5.90551 -18.5307
f 21/510/107 302/511/107 25/512/107

v 0.25 1.69198e-017 -1
vt -9.84252 -38.6055
f 302/511/107 21/510/107 303/513/107

usemtl Color_005
v 0.25 1.69198e-017 -0.5
vt 19.685 -1.66326e-015
vt 39.3701 -1.66326e-015
f 21/16/7 304/514/7 303/515/7

v 0.25 -0.1 -0.5
vt 19.685 -3.93701
f 21/16/7 305/516/7 304/514/7

f 21/16/7 22/14/7 305/516/7

v 0.25 -0.1 -1
vt 39.3701 -3.93701
f 306/517/7 305/516/7 22/14/7

vt -9.84252 39.3701
vn -2.29557e-017 -1 -6.2858e-017
v 0.310858 -0.1 -0.564142
vt -12.2385 22.2103
f 306/518/108 307/519/108 305/34/108

v 0.315 -0.1 -0.567321
vt -12.4016 22.3355
f 307/519/108 306/518/108 308/520/108

v 0.319824 -0.1 -0.569319
vt -12.5915 22.4141
f 308/520/108 306/518/108 309/521/108

v 1 -0.1 -0.83
vt -39.3701 32.6772
f 309/521/108 306/518/108 310/522/108

usemtl Color_I16
vt -0.895909 -3.93701
vn 0.221059 -3.65109e-017 -0.97526
v 1 1.69198e-017 -0.83
vt -31.1725 2.14745e-015
vt -31.1725 -3.93701
f 306/523/109 311/524/109 310/525/109

vt -0.895909 2.14745e-015
f 311/524/109 306/523/109 303/526/109

usemtl FrontColor
vn 1 -1.4515e-031 -9.92628e-016
vt 39.3701 6.66134e-016
f 304/84/110 306/517/110 303/527/110

f 306/517/110 304/84/110 305/516/110

usemtl Color_I16
vt 9.84252 -3.93701
vn -2.40637e-016 1.2247e-047 1
v 1 1.69198e-017 -0.5
f 305/528/111 312/527/111 304/17/111

v 1 -0.1 -0.5
f 312/527/111 305/528/111 313/517/111

usemtl Color_005
v 0.325 -0.1 -0.53
vt -12.7953 20.8661
vt -39.3701 19.685
f 305/34/108 314/529/108 313/530/108

v 0.319824 -0.1 -0.530681
vt -12.5915 20.893
f 314/529/108 305/34/108 315/531/108

v 0.315 -0.1 -0.532679
vt -12.4016 20.9716
f 315/531/108 305/34/108 316/532/108

v 0.310858 -0.1 -0.535858
vt -12.2385 21.0968
f 316/532/108 305/34/108 317/533/108

v 0.307679 -0.1 -0.54
vt -12.1134 21.2598
f 317/533/108 305/34/108 318/534/108

v 0.305681 -0.1 -0.544824
vt -12.0347 21.4497
f 318/534/108 305/34/108 319/535/108

v 0.305 -0.1 -0.55
vt -12.0079 21.6535
f 319/535/108 305/34/108 320/536/108

v 0.305681 -0.1 -0.555176
vt -12.0347 21.8573
f 305/34/108 321/537/108 320/536/108

v 0.307679 -0.1 -0.56
vt -12.1134 22.0472
f 305/34/108 322/538/108 321/537/108

f 305/34/108 307/519/108 322/538/108

usemtl Color_I16
vt -25.071 -3.93701
vn -0.707107 4.94792e-016 -0.707107
v 0.307679 -0.12 -0.56
vt -24.8654 -4.72441
vn -0.866025 3.79667e-016 -0.5
vt -24.8654 -3.93701
f 307/539/112 323/540/113 322/541/113

v 0.310858 -0.12 -0.564142
vt -25.071 -4.72441
f 323/540/113 307/539/112 324/542/112

vt -23.2302 -3.93701
v 0.315 -0.12 -0.567321
vt -23.4358 -4.72441
vn -0.5 5.76197e-016 -0.866025
vt -23.2302 -4.72441
f 307/543/112 325/544/114 324/545/112

vt -23.4358 -3.93701
f 325/544/114 307/543/112 308/546/114

vt -20.005 -3.93701
v 0.319824 -0.12 -0.569319
vt -20.2105 -4.72441
vn -0.258819 6.18336e-016 -0.965926
vt -20.005 -4.72441
f 308/547/114 326/548/115 325/549/114

vt -20.2105 -3.93701
f 326/548/115 308/547/114 309/550/115

vt -15.4094 -3.93701
v 0.325 -0.12 -0.57
vt -15.6149 -4.72441
vn 0 6.18336e-016 -1
vt -15.4094 -4.72441
f 309/551/115 327/552/116 326/553/115

v 0.325 -0.1 -0.57
vt -15.6149 -3.93701
f 327/552/116 309/551/115 328/554/116

usemtl Color_005
vt -12.7953 22.4409
f 309/521/108 310/522/108 328/555/108

v 0.330176 -0.1 -0.569319
vt -12.9991 22.4141
f 328/555/108 310/522/108 329/556/108

v 0.335 -0.1 -0.567321
vt -13.189 22.3355
f 329/556/108 310/522/108 330/557/108

v 0.339142 -0.1 -0.564142
vt -13.3521 22.2103
f 330/557/108 310/522/108 331/558/108

v 0.342321 -0.1 -0.56
vt -13.4772 22.0472
f 331/558/108 310/522/108 332/559/108

v 0.344319 -0.1 -0.555176
vt -13.5558 21.8573
f 332/559/108 310/522/108 333/560/108

v 0.345 -0.1 -0.55
vt -13.5827 21.6535
f 333/560/108 310/522/108 334/561/108

f 334/561/108 310/522/108 313/530/108

usemtl Color_I16
v 1 -0.09 -0.665
vt 26.1811 -3.54331
vn 1 -1.11337e-046 2.18761e-015
vt 32.6772 -3.93701
f 335/562/117 313/516/117 310/563/117

v 1 -0.088637 -0.654647
vt 25.7735 -3.48965
f 336/564/117 313/516/117 335/562/117

v 1 -0.084641 -0.645
vt 25.3937 -3.33232
f 337/565/117 313/516/117 336/564/117

f 313/516/117 337/565/117 312/84/117

v 1 -0.0782843 -0.636716
vt 25.0675 -3.08206
f 312/84/117 337/565/117 338/566/117

v 1.01 -0.084641 -0.645
vt 39.7638 -22.1748
vn 2.17282e-014 -0.866025 0.5
vt 39.3701 -21.7637
vn 3.58148e-014 -0.707107 0.707107
vt 39.3701 -22.1748
f 339/567/118 338/568/119 337/569/118

v 1.01 -0.0782843 -0.636716
vt 39.7638 -21.7637
f 338/568/119 339/567/118 340/570/119

usemtl FrontColor
v 1.01 -0.05 -0.665
vt 26.1811 -1.9685
vn 1 -3.97603e-015 2.83149e-014
f 341/571/120 340/566/120 339/565/120

v 1.01 -0.07 -0.630359
vt 24.8173 -2.75591
f 341/571/120 342/572/120 340/566/120

v 1.01 -0.061557 -0.626862
vt 24.6796 -2.42351
f 341/571/120 343/573/120 342/572/120

v 1.01 -0.0603528 -0.626363
vt 24.66 -2.37609
f 341/571/120 344/574/120 343/573/120

v 1.01 -0.05 -0.625
vt 24.6063 -1.9685
f 344/574/120 341/571/120 345/575/120

vn 1 3.07903e-015 2.60626e-014
v 1.01 -0.0396472 -0.626363
vt 24.66 -1.56091
f 341/571/121 346/576/121 345/575/121

v 1.01 -0.038443 -0.626862
vt 24.6796 -1.5135
f 346/576/121 341/571/121 347/577/121

v 1.01 -0.03 -0.630359
vt 24.8173 -1.1811
f 347/577/121 341/571/121 348/578/121

v 1.01 -0.0217157 -0.636716
vt 25.0675 -0.85495
f 348/578/121 341/571/121 349/579/121

v 1.01 -0.015359 -0.645
vt 25.3937 -0.604684
f 349/579/121 341/571/121 350/580/121

v 1.01 -0.011363 -0.654647
vt 25.7735 -0.447361
f 350/580/121 341/571/121 351/581/121

v 1.01 -0.01 -0.665
vt 26.1811 -0.393701
f 351/581/121 341/571/121 352/582/121

v 1.01 -0.05 -0.705
vt 27.7559 -1.9685
vn 1 1.9599e-014 -3.53831e-014
f 353/583/122 352/582/122 341/571/122

v 1.01 -0.011363 -0.675353
vt 26.5887 -0.447361
f 352/582/122 353/583/122 354/584/122

v 1.01 -0.015359 -0.685
vt 26.9685 -0.604684
f 354/584/122 353/583/122 355/585/122

v 1.01 -0.0217157 -0.693284
vt 27.2947 -0.85495
f 355/585/122 353/583/122 356/586/122

v 1.01 -0.03 -0.699641
vt 27.5449 -1.1811
f 356/586/122 353/583/122 357/587/122

v 1.01 -0.038443 -0.703138
vt 27.6826 -1.5135
f 357/587/122 353/583/122 358/588/122

v 1.01 -0.0396472 -0.703637
vt 27.7022 -1.56091
f 358/588/122 353/583/122 359/589/122

usemtl Color_I16
vt -39.7638 -5.57454
vn 8.12144e-014 -1.39975e-017 -1
v 1 -0.0396472 -0.703637
vt -39.3701 -5.16343
vn 8.68624e-014 0.258819 -0.965926
vt -39.7638 -5.16343
f 353/590/123 360/591/124 359/592/124

v 1 -0.05 -0.705
vt -39.3701 -5.57454
f 360/591/124 353/590/123 361/593/123

v 1.01 -0.0603528 -0.703637
vt -39.7638 1.2601
vn 8.68527e-014 -0.258819 -0.965926
vt -39.3701 1.67121
vt -39.7638 1.67121
f 362/594/125 361/595/123 353/596/123

v 1 -0.0603528 -0.703637
vt -39.3701 1.2601
f 361/595/123 362/594/125 363/597/125

v 1.01 -0.061557 -0.703138
vt -39.7638 8.35465
vn 9.16967e-014 -0.382683 -0.92388
vt -39.3701 8.40597
vt -39.7638 8.40597
f 364/598/126 363/599/125 362/600/125

v 1 -0.061557 -0.703138
vt -39.3701 8.35465
f 364/598/126 365/601/126 363/599/125

v 1.01 -0.07 -0.699641
vt -39.7638 7.99486
vn 8.59467e-014 -0.5 -0.866025
f 366/602/127 365/601/126 364/598/126

v 1 -0.07 -0.699641
vt -39.3701 7.99486
f 365/601/126 366/602/127 367/603/127

v 1.01 -0.0782843 -0.693284
vt -39.7638 14.1708
vn 4.93923e-014 -0.707107 -0.707107
vt -39.3701 14.5819
vt -39.7638 14.5819
f 368/604/128 367/605/127 366/606/127

v 1 -0.0782843 -0.693284
vt -39.3701 14.1708
f 367/605/127 368/604/128 369/607/128

vt -39.7638 19.7781
v 1 -0.084641 -0.685
vt -39.3701 19.367
vn 1.2293e-014 -0.866025 -0.5
vt -39.3701 19.7781
f 368/608/128 370/609/129 369/610/128

v 1.01 -0.084641 -0.685
vt -39.7638 19.367
f 370/609/129 368/608/128 371/611/129

usemtl FrontColor
vn 1 -1.9599e-014 -3.53831e-014
vt 26.9685 -3.33232
vt 27.2947 -3.08206
f 353/583/130 371/612/130 368/613/130

v 1.01 -0.088637 -0.675353
vt 26.5887 -3.48965
f 353/583/130 372/614/130 371/612/130

f 341/571/130 372/614/130 353/583/130

v 1.01 -0.09 -0.665
f 372/614/130 341/571/130 373/562/130

v 1.01 -0.088637 -0.654647
f 341/571/120 374/564/120 373/562/120

f 341/571/120 339/565/120 374/564/120

usemtl Color_I16
vt 39.3701 -24.7359
vt 39.7638 -25.1471
vn 1.74769e-014 -0.965926 0.258819
vt 39.7638 -24.7359
f 337/615/118 374/616/131 339/617/118

vt 39.3701 -25.1471
f 374/616/131 337/615/118 336/618/131

vt 39.3701 -26.4196
vn 4.1601e-015 -1 4.50721e-015
vt 39.7638 -26.0085
vt 39.3701 -26.0085
f 335/619/132 374/620/131 336/621/131

vt 39.7638 -26.4196
f 374/620/131 335/619/132 373/622/132

v 1 -0.088637 -0.675353
vt -39.3701 25.9057
vn 4.0895e-015 -0.965926 -0.258819
vt -39.7638 25.4946
vt -39.3701 25.4946
f 375/623/133 373/624/132 335/625/132

vt -39.7638 25.9057
f 373/624/132 375/623/133 372/626/133

vt -39.3701 23.2293
vt -39.7638 23.6404
vt -39.7638 23.2293
f 375/627/133 371/628/129 372/629/133

vt -39.3701 23.6404
f 371/628/129 375/627/133 370/630/129

f 375/614/117 310/563/117 370/612/117

f 335/562/117 310/563/117 375/614/117

f 370/612/117 310/563/117 369/613/117

vt 27.5449 -2.75591
f 369/613/117 310/563/117 367/631/117

vt 27.6826 -2.42351
f 367/631/117 310/563/117 365/632/117

vt 27.7022 -2.37609
f 365/632/117 310/563/117 363/633/117

f 363/633/117 310/563/117 361/583/117

vt 32.6772 6.66134e-016
f 311/634/117 361/583/117 310/563/117

f 311/634/117 360/589/117 361/583/117

v 1 -0.038443 -0.703138
f 311/634/117 376/588/117 360/589/117

v 1 -0.03 -0.699641
f 311/634/117 377/587/117 376/588/117

v 1 -0.0217157 -0.693284
f 311/634/117 378/586/117 377/587/117

v 1 -0.015359 -0.685
f 311/634/117 379/585/117 378/586/117

v 1 -0.011363 -0.675353
f 311/634/117 380/584/117 379/585/117

v 1 -0.01 -0.665
f 311/634/117 381/582/117 380/584/117

f 312/84/117 381/582/117 311/634/117

v 1 -0.011363 -0.654647
f 381/582/117 312/84/117 382/581/117

v 1 -0.015359 -0.645
f 382/581/117 312/84/117 383/580/117

v 1 -0.0217157 -0.636716
f 383/580/117 312/84/117 384/579/117

v 1 -0.03 -0.630359
f 384/579/117 312/84/117 385/578/117

v 1 -0.038443 -0.626862
f 385/578/117 312/84/117 386/577/117

v 1 -0.0396472 -0.626363
f 386/577/117 312/84/117 387/576/117

v 1 -0.05 -0.625
f 387/576/117 312/84/117 388/575/117

v 1 -0.0603528 -0.626363
f 312/84/117 389/574/117 388/575/117

v 1 -0.061557 -0.626862
f 312/84/117 390/573/117 389/574/117

v 1 -0.07 -0.630359
f 312/84/117 391/572/117 390/573/117

f 312/84/117 338/566/117 391/572/117

vt 39.3701 -17.7053
vt 39.7638 -17.2942
vn 9.05491e-014 -0.5 0.866025
vt 39.3701 -17.2942
f 338/635/119 342/636/134 391/637/134

vt 39.7638 -17.7053
f 342/636/134 338/635/119 340/638/119

vt 39.7638 -11.6835
vn 1.22264e-013 -0.382683 0.92388
vt 39.3701 -12.0433
vt 39.7638 -12.0433
f 343/639/135 391/640/134 342/641/134

vt 39.3701 -11.6835
f 391/640/134 343/639/135 390/642/135

vt 39.7638 -11.6322
vn 9.54986e-014 -0.258819 0.965926
f 390/642/135 343/639/135 344/643/136

vt 39.3701 -11.6322
f 390/642/135 344/643/136 389/644/136

vt 39.7638 -5.16343
vn 6.76779e-014 4.05929e-016 1
vt 39.3701 -5.57454
vt 39.7638 -5.57454
f 345/645/137 389/646/136 344/647/136

vt 39.3701 -5.16343
f 389/646/136 345/645/137 388/648/137

vt 39.7638 1.67121
vn 9.83186e-014 0.258819 0.965926
vt 39.3701 1.2601
vt 39.7638 1.2601
f 346/649/138 388/650/137 345/651/137

vt 39.3701 1.67121
f 388/650/137 346/649/138 387/652/138

vt 39.7638 8.04618
vn 1.27856e-013 0.382683 0.92388
vt 39.3701 7.99486
vt 39.7638 7.99486
f 347/653/139 387/654/138 346/655/138

vt 39.3701 8.04618
f 387/654/138 347/653/139 386/656/139

vt 39.7638 8.40597
vn 9.33615e-014 0.5 0.866025
f 386/656/139 347/653/139 348/657/140

vt 39.3701 8.40597
f 386/656/139 348/657/140 385/658/140

vt 39.7638 14.5819
vn 3.58162e-014 0.707107 0.707107
vt 39.3701 14.1708
vt 39.7638 14.1708
f 349/659/141 385/660/140 348/661/140

vt 39.3701 14.5819
f 385/660/140 349/659/141 384/662/141

vt 39.7638 19.7781
vn 1.99919e-014 0.866025 0.5
vt 39.3701 19.367
vt 39.7638 19.367
f 350/663/142 384/664/141 349/665/141

vt 39.3701 19.7781
f 384/664/141 350/663/142 383/666/142

vt 39.7638 23.2293
vt 39.3701 23.6404
vn 1.51364e-014 0.965926 0.258819
vt 39.3701 23.2293
f 350/667/142 382/668/143 383/669/142

vt 39.7638 23.6404
f 382/668/143 350/667/142 351/670/143

vt 39.7638 25.4946
vt 39.3701 25.9057
vn 3.56484e-015 1 3.94731e-015
vt 39.3701 25.4946
f 351/671/143 381/672/144 382/673/143

vt 39.7638 25.9057
f 381/672/144 351/671/143 352/674/144

vt -39.7638 -26.0085
vt -39.3701 -26.4196
vn 9.32516e-015 0.965926 -0.258819
vt -39.3701 -26.0085
f 352/675/144 380/676/145 381/677/144

vt -39.7638 -26.4196
f 380/676/145 352/675/144 354/678/145

vt -39.7638 -25.1471
vn 2.58574e-014 0.866025 -0.5
vt -39.3701 -24.7359
vt -39.7638 -24.7359
f 355/679/146 380/680/145 354/681/145

vt -39.3701 -25.1471
f 380/680/145 355/679/146 379/682/146

vt -39.7638 -22.1748
vn 5.773e-014 0.707107 -0.707107
vt -39.3701 -21.7637
vt -39.7638 -21.7637
f 356/683/147 379/684/146 355/685/146

vt -39.3701 -22.1748
f 379/684/146 356/683/147 378/686/147

vt -39.7638 -17.7053
vn 8.59684e-014 0.5 -0.866025
vt -39.3701 -17.2942
vt -39.7638 -17.2942
f 357/687/148 378/688/147 356/689/147

vt -39.3701 -17.7053
f 378/688/147 357/687/148 377/690/148

vt -39.7638 -11.992
vn 9.17219e-014 0.382683 -0.92388
vt -39.3701 -11.6322
vt -39.7638 -11.6322
f 358/691/149 377/692/148 357/693/148

vt -39.3701 -11.992
f 358/691/149 376/694/149 377/692/148

vt -39.7638 -12.0433
f 359/695/124 376/694/149 358/691/149

vt -39.3701 -12.0433
f 376/694/149 359/695/124 360/696/124

usemtl Color_005
vt 39.3701 32.6772
vt 39.3701 19.685
f 311/697/89 304/1/89 312/698/89

vt 9.84252 39.3701
f 304/1/89 311/697/89 303/699/89

usemtl FrontColor
f 353/583/130 368/613/130 366/631/130

f 353/583/130 366/631/130 364/632/130

f 353/583/130 364/632/130 362/633/130

usemtl Color_005
v 0.344319 -0.1 -0.544824
vt -13.5558 21.4497
f 313/530/108 392/700/108 334/561/108

v 0.342321 -0.1 -0.54
vt -13.4772 21.2598
f 313/530/108 393/701/108 392/700/108

v 0.339142 -0.1 -0.535858
vt -13.3521 21.0968
f 313/530/108 394/702/108 393/701/108

v 0.335 -0.1 -0.532679
vt -13.189 20.9716
f 313/530/108 395/703/108 394/702/108

v 0.330176 -0.1 -0.530681
vt -12.9991 20.893
f 313/530/108 396/704/108 395/703/108

f 313/530/108 314/529/108 396/704/108

usemtl Color_I16
v 0.325 -0.12 -0.53
vt 15.4094 -4.72441
vn 0 -6.18336e-016 1
vt 15.6149 -3.93701
vn 0.258819 -6.18336e-016 0.965926
vt 15.4094 -3.93701
f 397/705/150 396/706/151 314/707/150

v 0.330176 -0.12 -0.530681
vt 15.6149 -4.72441
f 396/706/151 397/705/150 398/708/151

usemtl FrontColor
vn -1.63668e-016 -1 -1.34214e-015
v 0.345 -0.12 -0.55
f 397/529/152 399/561/152 398/704/152

v 0.325 -0.12 -0.55
vt -12.7953 21.6535
f 399/561/152 397/529/152 400/709/152

v 0.319824 -0.12 -0.530681
vn -1.82479e-016 -1 -1.24867e-015
f 401/531/153 400/709/153 397/529/153

v 0.315 -0.12 -0.532679
f 402/532/153 400/709/153 401/531/153

v 0.310858 -0.12 -0.535858
f 403/533/153 400/709/153 402/532/153

v 0.307679 -0.12 -0.54
f 404/534/153 400/709/153 403/533/153

v 0.305681 -0.12 -0.544824
f 405/535/153 400/709/153 404/534/153

v 0.305 -0.12 -0.55
f 400/709/153 405/535/153 406/536/153

usemtl Color_I16
vt -19.6954 -4.72441
vn -0.965926 -8.14054e-017 0.258819
vt -19.901 -3.93701
vn -1 8.14054e-017 -0
vt -19.901 -4.72441
f 405/710/154 320/711/155 406/712/155

vt -19.6954 -3.93701
f 320/711/155 405/710/154 319/713/154

vt -15.0059 -4.72441
vn -0.866025 -2.38669e-016 0.5
vt -15.2115 -3.93701
vt -15.2115 -4.72441
f 404/714/156 319/715/154 405/716/154

vt -15.0059 -3.93701
f 319/715/154 404/714/156 318/717/156

vt -9.28686 -4.72441
vn -0.707107 -3.79667e-016 0.707107
vt -9.49242 -3.93701
vt -9.49242 -4.72441
f 403/718/157 318/719/156 404/720/156

vt -9.28686 -3.93701
f 318/719/156 403/718/157 317/721/157

vt -3.13344 -4.72441
vt -2.92789 -3.93701
vn -0.5 -4.94792e-016 0.866025
vt -3.13344 -3.93701
f 403/722/157 316/723/158 317/724/157

vt -2.92789 -4.72441
f 316/723/158 403/722/157 402/725/158

vt 3.43206 -4.72441
vt 3.63762 -3.93701
vn -0.258819 -5.76197e-016 0.965926
vt 3.43206 -3.93701
f 402/726/158 315/727/159 316/728/158

vt 3.63762 -4.72441
f 315/727/159 402/726/158 401/729/159

vt 9.75668 -4.72441
vt 9.96223 -3.93701
vt 9.75668 -3.93701
f 401/730/159 314/731/150 315/732/159

vt 9.96223 -4.72441
f 314/731/150 401/730/159 397/733/150

vt -23.2412 -3.93701
vn -0.965926 2.38669e-016 -0.258819
vt -23.0356 -4.72441
vt -23.0356 -3.93701
f 321/734/160 406/735/155 320/736/155

v 0.305681 -0.12 -0.555176
vt -23.2412 -4.72441
f 406/735/155 321/734/160 407/737/160

vt -25.0046 -3.93701
vt -24.799 -4.72441
vt -24.799 -3.93701
f 322/738/113 407/739/160 321/740/160

vt -25.0046 -4.72441
f 407/739/160 322/738/113 323/741/113

usemtl FrontColor
f 400/709/5 407/537/5 323/538/5

f 407/537/5 400/709/5 406/536/5

f 400/709/5 323/538/5 324/519/5

f 400/709/5 324/519/5 325/520/5

f 400/709/5 325/520/5 326/521/5

f 400/709/5 326/521/5 327/555/5

v 0.330176 -0.12 -0.569319
f 408/556/5 400/709/5 327/555/5

f 400/709/5 408/556/5 399/561/5

v 0.335 -0.12 -0.567321
f 399/561/5 408/556/5 409/557/5

usemtl Color_I16
vt -3.43206 -3.93701
vn 0.258819 5.76197e-016 -0.965926
vt -3.63762 -4.72441
vn 0.5 4.94792e-016 -0.866025
vt -3.43206 -4.72441
f 329/742/161 409/743/162 408/744/161

vt -3.63762 -3.93701
f 409/743/162 329/742/161 330/745/162

vt 3.13344 -3.93701
v 0.339142 -0.12 -0.564142
vt 2.92789 -4.72441
vn 0.707107 3.79667e-016 -0.707107
vt 3.13344 -4.72441
f 330/746/162 410/747/163 409/748/162

vt 2.92789 -3.93701
f 410/747/163 330/746/162 331/749/163

vt 9.28686 -3.93701
vn 0.866025 2.38669e-016 -0.5
vt 9.49242 -4.72441
vt 9.49242 -3.93701
f 332/750/164 410/751/163 331/752/163

v 0.342321 -0.12 -0.56
vt 9.28686 -4.72441
f 410/751/163 332/750/164 411/753/164

vt 15.0059 -3.93701
vn 0.965926 8.14054e-017 -0.258819
vt 15.2115 -4.72441
vt 15.2115 -3.93701
f 333/754/165 411/755/164 332/756/164

v 0.344319 -0.12 -0.555176
vt 15.0059 -4.72441
f 411/755/164 333/754/165 412/757/165

vt 19.6954 -3.93701
vn 1 -8.14054e-017 4.28325e-015
vt 19.901 -4.72441
vt 19.901 -3.93701
f 334/758/166 412/759/165 333/760/165

vt 19.6954 -4.72441
f 412/759/165 334/758/166 399/761/166

vt 23.0356 -3.93701
vn 0.965926 -2.38669e-016 0.258819
vt 23.2412 -4.72441
vt 23.2412 -3.93701
f 392/762/167 399/763/166 334/764/166

v 0.344319 -0.12 -0.544824
vt 23.0356 -4.72441
f 399/763/166 392/762/167 413/765/167

vt 24.799 -3.93701
vn 0.866025 -3.79667e-016 0.5
vt 25.0046 -4.72441
vt 25.0046 -3.93701
f 393/766/168 413/767/167 392/768/167

v 0.342321 -0.12 -0.54
vt 24.799 -4.72441
f 413/767/167 393/766/168 414/769/168

vt 24.8654 -3.93701
vn 0.707107 -4.94792e-016 0.707107
vt 25.071 -4.72441
vt 25.071 -3.93701
f 394/770/169 414/771/168 393/772/168

v 0.339142 -0.12 -0.535858
vt 24.8654 -4.72441
f 414/771/168 394/770/169 415/773/169

vt 23.4358 -3.93701
v 0.335 -0.12 -0.532679
vt 23.2302 -4.72441
vn 0.5 -5.76197e-016 0.866025
vt 23.4358 -4.72441
f 394/774/169 416/775/170 415/776/169

vt 23.2302 -3.93701
f 416/775/170 394/774/169 395/777/170

vt 20.2105 -3.93701
vt 20.005 -4.72441
vt 20.2105 -4.72441
f 395/778/170 398/779/151 416/780/170

vt 20.005 -3.93701
f 398/779/151 395/778/170 396/781/151

usemtl FrontColor
f 398/704/152 399/561/152 416/703/152

f 416/703/152 399/561/152 415/702/152

f 415/702/152 399/561/152 414/701/152

f 414/701/152 399/561/152 413/700/152

f 399/561/5 411/559/5 412/560/5

f 399/561/5 410/558/5 411/559/5

f 399/561/5 409/557/5 410/558/5

usemtl Color_I16
vt -9.96223 -4.72441
vt -9.75668 -3.93701
vt -9.96223 -3.93701
f 408/782/161 328/783/116 329/784/161

vt -9.75668 -4.72441
f 328/783/116 408/782/161 327/785/116

vt -9.84252 -3.93701
vn 9.02389e-015 -3.05365e-031 -1
vt -5.90551 6.66134e-016
f 306/786/171 302/787/171 303/197/171

v 0.15 -0.1 -1
vt -5.90551 -3.93701
f 302/787/171 306/786/171 417/788/171

vt -9.84252 16.773
vn 7.45354e-016 -0.967823 -0.251634
vt -5.90551 37.1126
vt -9.84252 37.1126
f 22/789/172 417/790/172 306/791/172

vt -5.90551 16.773
f 417/790/172 22/789/172 23/792/172

usemtl Color_005
vn -1 -1.41392e-033 -9.02389e-017
vt -39.3701 6.66134e-016
f 23/9/173 302/793/173 417/11/173

f 302/793/173 23/9/173 25/13/173

usemtl Color_I16
vt -34.4619 3.93701
vn 1 0 -0
v 0.8 0.09 0.665
vt -26.1811 3.54331
f 91/794/174 418/795/174 94/13/174

v 0.8 0.088637 0.675353
vt -26.5887 3.48965
f 418/795/174 91/794/174 419/796/174

v 0.8 0.084641 0.685
vt -26.9685 3.33232
f 419/796/174 91/794/174 420/797/174

v 0.8 0.0782843 0.693284
vt -27.2947 3.08206
f 420/797/174 91/794/174 421/798/174

v 0.8 0.07 0.699641
vt -27.5449 2.75591
f 421/798/174 91/794/174 422/799/174

v 0.8 0.0603528 0.703637
vt -27.7022 2.37609
f 422/799/174 91/794/174 423/800/174

v 0.8 0.05 0.705
vt -27.7559 1.9685
f 423/800/174 91/794/174 424/801/174

v 0.8 0.0396472 0.703637
vt -27.7022 1.56091
f 91/794/174 425/802/174 424/801/174

v 0.8 0.03 0.699641
vt -27.5449 1.1811
f 91/794/174 426/803/174 425/802/174

v 0.8 0.0217157 0.693284
vt -27.2947 0.85495
f 91/794/174 427/804/174 426/803/174

v 0.8 0.015359 0.685
vt -26.9685 0.604684
f 91/794/174 428/805/174 427/804/174

vt -34.4619 6.66134e-016
f 92/806/174 428/805/174 91/794/174

v 0.8 0.011363 0.675353
vt -26.5887 0.447361
f 428/805/174 92/806/174 429/807/174

v 0.8 0.01 0.665
vt -26.1811 0.393701
f 429/807/174 92/806/174 430/808/174

vt -19.685 6.66134e-016
f 430/808/174 92/806/174 93/809/174

v 0.8 0.011363 0.654647
vt -25.7735 0.447361
f 430/808/174 93/809/174 431/810/174

v 0.8 0.015359 0.645
vt -25.3937 0.604684
f 431/810/174 93/809/174 432/811/174

v 0.8 0.0217157 0.636716
vt -25.0675 0.85495
f 432/811/174 93/809/174 433/812/174

v 0.8 0.03 0.630359
vt -24.8173 1.1811
f 433/812/174 93/809/174 434/813/174

v 0.8 0.038443 0.626862
vt -24.6796 1.5135
f 434/813/174 93/809/174 435/814/174

v 0.8 0.0396472 0.626363
vt -24.66 1.56091
f 435/814/174 93/809/174 436/815/174

v 0.8 0.05 0.625
vt -24.6063 1.9685
f 436/815/174 93/809/174 437/816/174

f 94/13/174 437/816/174 93/809/174

v 0.8 0.0603528 0.626363
vt -24.66 2.37609
f 94/13/174 438/817/174 437/816/174

v 0.8 0.061557 0.626862
vt -24.6796 2.42351
f 94/13/174 439/818/174 438/817/174

v 0.8 0.07 0.630359
vt -24.8173 2.75591
f 94/13/174 440/819/174 439/818/174

v 0.8 0.0782843 0.636716
vt -25.0675 3.08206
f 94/13/174 441/820/174 440/819/174

v 0.8 0.084641 0.645
vt -25.3937 3.33232
f 94/13/174 442/821/174 441/820/174

v 0.8 0.088637 0.654647
vt -25.7735 3.48965
f 94/13/174 443/822/174 442/821/174

f 94/13/174 418/795/174 443/822/174

v 0.81 0.09 0.665
vn 2.9341e-016 1 1.32557e-014
vn 2.30066e-015 0.965926 -0.258819
f 444/148/175 443/147/176 418/150/175

v 0.81 0.088637 0.654647
f 443/147/176 444/148/175 445/149/176

usemtl FrontColor
vn 1 -5.39475e-015 2.16732e-014
v 0.81 0.05 0.625
f 444/795/177 446/816/177 445/822/177

v 0.81 0.05 0.665
vt -26.1811 1.9685
f 446/816/177 444/795/177 447/823/177

v 0.81 0.088637 0.675353
vn 1 -7.05362e-015 -7.34487e-015
f 448/796/178 447/823/178 444/795/178

v 0.81 0.084641 0.685
f 449/797/178 447/823/178 448/796/178

v 0.81 0.0782843 0.693284
f 450/798/178 447/823/178 449/797/178

v 0.81 0.07 0.699641
f 451/799/178 447/823/178 450/798/178

v 0.81 0.061557 0.703138
vt -27.6826 2.42351
f 452/824/178 447/823/178 451/799/178

v 0.81 0.0603528 0.703637
f 453/800/178 447/823/178 452/824/178

v 0.81 0.05 0.705
f 447/823/178 453/800/178 454/801/178

usemtl Color_I16
vn -3.47113e-014 0.258819 0.965926
vn -3.15815e-014 -3.35941e-016 1
f 453/107/179 424/108/180 454/109/180

f 424/108/180 453/107/179 423/110/179

vt 31.8898 -8.35465
vn -2.70909e-014 0.382683 0.92388
f 452/825/181 423/129/179 453/130/179

v 0.8 0.061557 0.703138
vt 31.4961 -8.35465
f 423/129/179 452/825/181 455/826/181

vn 2.4092e-014 0.5 0.866025
f 451/126/182 455/826/181 452/825/181

f 455/826/181 451/126/182 422/127/182

vn 3.11094e-014 0.707107 0.707107
f 450/132/183 422/131/182 451/134/182

f 422/131/182 450/132/183 421/133/183

vn -1.53153e-014 0.866025 0.5
f 449/136/184 421/135/183 450/138/183

f 421/135/183 449/136/184 420/137/184

vn -1.24467e-014 0.965926 0.258819
f 449/140/184 419/139/185 420/142/184

f 419/139/185 449/140/184 448/141/185

f 444/145/175 419/146/185 448/144/185

f 419/146/185 444/145/175 418/143/175

f 422/799/174 423/800/174 455/824/174

vn -3.47084e-014 -0.258819 0.965926
f 425/112/186 454/111/180 424/114/180

v 0.81 0.0396472 0.703637
f 454/111/180 425/112/186 456/113/186

v 0.8 0.038443 0.703138
vt 31.4961 11.992
vn -1.87467e-014 -0.382683 0.92388
f 457/827/187 456/119/186 425/120/186

v 0.81 0.038443 0.703138
vt 31.8898 11.992
f 456/119/186 457/827/187 458/828/187

vn 3.97302e-014 -0.5 0.866025
f 426/116/188 458/828/187 457/827/187

v 0.81 0.03 0.699641
f 458/828/187 426/116/188 459/117/188

vn 3.83314e-014 -0.707107 0.707107
f 427/122/189 459/121/188 426/124/188

v 0.81 0.0217157 0.693284
f 459/121/188 427/122/189 460/123/189

v 0.81 0.015359 0.685
vn -1.53213e-014 -0.866025 0.5
f 427/73/189 461/74/190 460/75/189

f 461/74/190 427/73/189 428/76/190

vn -1.24504e-014 -0.965926 0.258819
f 429/69/191 461/70/190 428/71/190

v 0.81 0.011363 0.675353
f 461/70/190 429/69/191 462/72/191

v 0.81 0.01 0.665
vn 2.95668e-016 -1 1.43755e-014
f 429/67/191 463/68/192 462/66/191

f 463/68/192 429/67/191 430/65/192

vn 3.16194e-015 -0.965926 -0.258819
f 431/64/193 463/63/192 430/61/192

v 0.81 0.011363 0.654647
f 463/63/192 431/64/193 464/62/193

v 0.81 0.015359 0.645
vn 4.31353e-014 -0.866025 -0.5
f 431/57/193 465/58/194 464/59/193

f 465/58/194 431/57/193 432/60/194

v 0.81 0.0217157 0.636716
vn 8.392e-014 -0.707107 -0.707107
f 432/55/194 466/56/195 465/54/194

f 466/56/195 432/55/194 433/53/195

vn 8.29685e-014 -0.5 -0.866025
f 434/100/196 466/101/195 433/102/195

v 0.81 0.03 0.630359
f 466/101/195 434/100/196 467/103/196

vt -31.4961 -8.04618
vn 6.25219e-014 -0.382683 -0.92388
f 435/829/197 467/178/196 434/179/196

v 0.81 0.038443 0.626862
vt -31.8898 -8.04618
f 467/178/196 435/829/197 468/830/197

vn 1.84619e-014 -0.258819 -0.965926
f 436/181/198 468/830/197 435/829/197

v 0.81 0.0396472 0.626363
f 468/830/197 436/181/198 469/182/198

vn -1.35324e-014 -3.07946e-016 -1
f 437/173/199 469/174/198 436/175/198

f 469/174/198 437/173/199 446/176/199

vn 1.84603e-014 0.258819 -0.965926
f 438/169/200 446/170/199 437/171/199

v 0.81 0.0603528 0.626363
f 446/170/199 438/169/200 470/172/200

vt -31.4961 11.6835
vn 6.25232e-014 0.382683 -0.92388
f 439/831/201 470/164/200 438/165/200

v 0.81 0.061557 0.626862
vt -31.8898 11.6835
f 470/164/200 439/831/201 471/832/201

vn 8.29595e-014 0.5 -0.866025
f 440/167/202 471/832/201 439/831/201

v 0.81 0.07 0.630359
f 471/832/201 440/167/202 472/168/202

vn 8.25452e-014 0.707107 -0.707107
f 441/159/203 472/160/202 440/161/202

v 0.81 0.0782843 0.636716
f 472/160/202 441/159/203 473/162/203

vn 4.09083e-014 0.866025 -0.5
f 442/158/204 473/157/203 441/155/203

v 0.81 0.084641 0.645
f 473/157/203 442/158/204 474/156/204

f 443/151/176 474/152/204 442/153/204

f 474/152/204 443/151/176 445/154/176

usemtl FrontColor
f 445/822/177 446/816/177 474/821/177

f 474/821/177 446/816/177 473/820/177

f 473/820/177 446/816/177 472/819/177

f 472/819/177 446/816/177 471/818/177

f 471/818/177 446/816/177 470/817/177

vn 1 5.39475e-015 2.16732e-014
f 446/816/205 468/814/205 469/815/205

f 446/816/205 467/813/205 468/814/205

f 446/816/205 466/812/205 467/813/205

f 446/816/205 465/811/205 466/812/205

f 446/816/205 464/810/205 465/811/205

f 447/823/205 464/810/205 446/816/205

f 464/810/205 447/823/205 463/808/205

vn 1 9.0143e-015 -4.05067e-015
f 447/823/206 462/807/206 463/808/206

f 447/823/206 461/805/206 462/807/206

f 447/823/206 460/804/206 461/805/206

f 447/823/206 459/803/206 460/804/206

vt -27.6826 1.5135
f 447/823/206 458/833/206 459/803/206

f 447/823/206 456/802/206 458/833/206

f 456/802/206 447/823/206 454/801/206

usemtl Color_I16
f 425/802/174 426/803/174 457/833/174

v -0.15 1.69198e-017 -1
vt 5.90551 -38.6055
vn -2.5285e-016 0.980581 -0.196116
vt 9.84252 -18.5307
vt 5.90551 -18.5307
f 475/834/207 9/835/207 24/836/207

v -0.25 1.69198e-017 -1
vt 9.84252 -38.6055
f 9/835/207 475/834/207 476/837/207

vt 5.90551 -3.93701
vn 1.26334e-014 1.01788e-031 -1
vt 5.90551 6.66134e-016
f 5/838/208 476/17/208 475/839/208

f 476/17/208 5/838/208 6/528/208

vt 0.895909 -3.93701
vn -0.221059 -5.58841e-017 -0.97526
v -1 1.69198e-017 -0.83
vt 31.1725 2.93346e-015
vt 0.895909 2.93346e-015
f 6/840/209 477/841/209 476/842/209

v -1 -0.1 -0.83
vt 31.1725 -3.93701
f 477/841/209 6/840/209 478/843/209

usemtl Color_005
v -0.344319 -0.1 -0.555176
vt 13.5558 21.8573
f 479/844/5 478/697/5 6/699/5

v -0.345 -0.1 -0.55
vt 13.5827 21.6535
f 478/697/5 479/844/5 480/845/5

usemtl Color_I16
vn -0.965926 0 -0.258819
v -0.345 -0.12 -0.55
vn -1 0 -0
f 479/711/210 481/710/211 480/713/211

v -0.344319 -0.12 -0.555176
f 481/710/211 479/711/210 482/712/210

v -0.342321 -0.1 -0.56
vn -0.866025 0 -0.5
f 483/715/212 482/714/210 479/717/210

v -0.342321 -0.12 -0.56
f 482/714/210 483/715/212 484/716/212

v -0.339142 -0.1 -0.564142
vn -0.707107 0 -0.707107
f 485/719/213 484/718/212 483/721/212

v -0.339142 -0.12 -0.564142
f 484/718/212 485/719/213 486/720/213

v -0.335 -0.12 -0.567321
vn -0.5 0 -0.866025
f 485/723/213 487/722/214 486/725/213

v -0.335 -0.1 -0.567321
f 487/722/214 485/723/213 488/724/214

usemtl Color_005
vt 13.3521 22.2103
vt 13.189 22.3355
f 485/846/5 6/699/5 488/847/5

vt 13.4772 22.0472
f 483/848/5 6/699/5 485/846/5

f 479/844/5 6/699/5 483/848/5

v -0.330176 -0.1 -0.569319
vt 12.9991 22.4141
f 488/847/5 6/699/5 489/849/5

v -0.325 -0.1 -0.57
vt 12.7953 22.4409
f 489/849/5 6/699/5 490/850/5

v -0.319824 -0.1 -0.569319
vt 12.5915 22.4141
f 490/850/5 6/699/5 491/851/5

v -0.315 -0.1 -0.567321
vt 12.4016 22.3355
f 491/851/5 6/699/5 492/852/5

v -0.310858 -0.1 -0.564142
vt 12.2385 22.2103
f 492/852/5 6/699/5 493/853/5

v -0.307679 -0.1 -0.56
vt 12.1134 22.0472
f 493/853/5 6/699/5 494/854/5

v -0.305681 -0.1 -0.555176
vt 12.0347 21.8573
f 494/854/5 6/699/5 495/855/5

v -0.305 -0.1 -0.55
vt 12.0079 21.6535
f 495/855/5 6/699/5 496/856/5

f 7/1/5 496/856/5 6/699/5

v -0.305681 -0.1 -0.544824
vt 12.0347 21.4497
f 7/1/5 497/857/5 496/856/5

v -0.307679 -0.1 -0.54
vt 12.1134 21.2598
f 7/1/5 498/858/5 497/857/5

v -0.310858 -0.1 -0.535858
vt 12.2385 21.0968
f 7/1/5 499/859/5 498/858/5

v -0.315 -0.1 -0.532679
vt 12.4016 20.9716
f 7/1/5 500/860/5 499/859/5

v -0.319824 -0.1 -0.530681
vt 12.5915 20.893
f 7/1/5 501/861/5 500/860/5

v -0.325 -0.1 -0.53
vt 12.7953 20.8661
f 7/1/5 502/862/5 501/861/5

v -0.330176 -0.1 -0.530681
vt 12.9991 20.893
f 7/1/5 503/863/5 502/862/5

v -1 -0.1 -0.5
f 504/698/5 503/863/5 7/1/5

v -0.335 -0.1 -0.532679
vt 13.189 20.9716
f 503/863/5 504/698/5 505/864/5

f 505/864/5 504/698/5 478/697/5

usemtl Color_I16
vn -1 0 -2.18761e-015
v -1 -0.09 -0.665
vt -26.1811 -3.54331
vt -32.6772 -3.93701
f 504/10/215 506/865/215 478/866/215

v -1 -0.088637 -0.654647
vt -25.7735 -3.48965
f 506/865/215 504/10/215 507/867/215

v -1 -0.084641 -0.645
vt -25.3937 -3.33232
f 507/867/215 504/10/215 508/868/215

v -1 -0.0782843 -0.636716
vt -25.0675 -3.08206
f 508/868/215 504/10/215 509/869/215

v -1 -0.07 -0.630359
vt -24.8173 -2.75591
f 509/869/215 504/10/215 510/870/215

v -1 -0.0603528 -0.626363
vt -24.66 -2.37609
f 510/870/215 504/10/215 511/871/215

v -1 -0.05 -0.625
vt -24.6063 -1.9685
f 511/871/215 504/10/215 512/872/215

v -1 -0.0396472 -0.626363
vt -24.66 -1.56091
f 504/10/215 513/873/215 512/872/215

v -1 -0.03 -0.630359
vt -24.8173 -1.1811
f 504/10/215 514/874/215 513/873/215

v -1 -0.0217157 -0.636716
vt -25.0675 -0.85495
f 504/10/215 515/875/215 514/874/215

v -1 -0.015359 -0.645
vt -25.3937 -0.604684
f 504/10/215 516/876/215 515/875/215

v -1 1.69198e-017 -0.5
f 517/809/215 516/876/215 504/10/215

v -1 -0.011363 -0.654647
vt -25.7735 -0.447361
f 516/876/215 517/809/215 518/877/215

v -1 -0.01 -0.665
vt -26.1811 -0.393701
f 518/877/215 517/809/215 519/878/215

vt -32.6772 6.66134e-016
f 519/878/215 517/809/215 477/879/215

usemtl Color_005
f 8/34/89 477/522/89 517/530/89

f 477/522/89 8/34/89 476/518/89

usemtl FrontColor
f 476/793/211 7/10/211 8/809/211

f 7/10/211 476/793/211 6/11/211

usemtl Color_I16
vn -9.62549e-016 0 1
f 8/197/216 504/11/216 7/786/216

f 504/11/216 8/197/216 517/793/216

usemtl Color_005
vt -39.3701 3.04663e-016
f 476/880/3 8/12/3 9/13/3

usemtl Color_I16
v -1 -0.011363 -0.675353
vt -26.5887 -0.447361
f 519/878/215 477/879/215 520/881/215

v -1 -0.015359 -0.685
vt -26.9685 -0.604684
f 520/881/215 477/879/215 521/882/215

v -1 -0.0217157 -0.693284
vt -27.2947 -0.85495
f 521/882/215 477/879/215 522/883/215

v -1 -0.03 -0.699641
vt -27.5449 -1.1811
f 522/883/215 477/879/215 523/884/215

v -1 -0.038443 -0.703138
vt -27.6826 -1.5135
f 523/884/215 477/879/215 524/885/215

v -1 -0.0396472 -0.703637
vt -27.7022 -1.56091
f 524/885/215 477/879/215 525/886/215

v -1 -0.05 -0.705
vt -27.7559 -1.9685
f 525/886/215 477/879/215 526/887/215

f 478/866/215 526/887/215 477/879/215

v -1 -0.0603528 -0.703637
vt -27.7022 -2.37609
f 478/866/215 527/888/215 526/887/215

v -1 -0.07 -0.699641
vt -27.5449 -2.75591
f 478/866/215 528/889/215 527/888/215

v -1 -0.0782843 -0.693284
vt -27.2947 -3.08206
f 478/866/215 529/890/215 528/889/215

v -1 -0.084641 -0.685
vt -26.9685 -3.33232
f 478/866/215 530/891/215 529/890/215

v -1 -0.088637 -0.675353
vt -26.5887 -3.48965
f 478/866/215 531/892/215 530/891/215

f 478/866/215 506/865/215 531/892/215

v -1.01 -0.09 -0.665
vn -4.16722e-015 -1 1.1198e-015
vn -1.29622e-014 -0.965926 -0.258819
f 532/671/217 531/672/218 506/673/217

v -1.01 -0.088637 -0.675353
f 531/672/218 532/671/217 533/674/218

usemtl FrontColor
vn -1 1.73629e-014 -1.49633e-014
v -1.01 -0.05 -0.705
f 532/865/219 534/887/219 533/892/219

v -1.01 -0.05 -0.665
vt -26.1811 -1.9685
f 534/887/219 532/865/219 535/893/219

v -1.01 -0.088637 -0.654647
vn -1 6.72389e-015 -1.00826e-014
f 536/867/220 535/893/220 532/865/220

v -1.01 -0.084641 -0.645
f 537/868/220 535/893/220 536/867/220

v -1.01 -0.0782843 -0.636716
f 538/869/220 535/893/220 537/868/220

v -1.01 -0.07 -0.630359
f 539/870/220 535/893/220 538/869/220

v -1.01 -0.061557 -0.626862
vt -24.6796 -2.42351
f 540/894/220 535/893/220 539/870/220

v -1.01 -0.0603528 -0.626363
f 541/871/220 535/893/220 540/894/220

v -1.01 -0.05 -0.625
f 535/893/220 541/871/220 542/872/220

usemtl Color_I16
vn 4.67673e-014 -0.258819 0.965926
vn 7.67034e-014 -2.79951e-017 1
f 541/590/221 512/591/222 542/592/222

f 512/591/222 541/590/221 511/593/221

vt -39.7638 -11.6835
vn 1.66814e-014 -0.382683 0.92388
f 540/895/223 511/692/221 541/693/221

v -1 -0.061557 -0.626862
vt -39.3701 -11.6835
f 540/895/223 543/896/223 511/692/221

vn -2.41716e-015 -0.5 0.866025
f 539/695/224 543/896/223 540/895/223

f 543/896/223 539/695/224 510/696/224

vn -1.49902e-014 -0.707107 0.707107
f 538/687/225 510/688/224 539/689/224

f 510/688/224 538/687/225 509/690/225

vn -8.51478e-015 -0.866025 0.5
f 537/683/226 509/684/225 538/685/225

f 509/684/225 537/683/226 508/686/226

vn 9.42423e-017 -0.965926 0.258819
f 537/681/226 507/682/227 508/680/226

f 507/682/227 537/681/226 536/679/227

f 532/678/217 507/677/227 536/675/227

f 507/677/227 532/678/217 506/676/217

f 510/870/215 511/871/215 543/894/215

vn 1.94333e-014 0.258819 0.965926
f 513/595/228 542/594/222 512/597/222

v -1.01 -0.0396472 -0.626363
f 542/594/222 513/595/228 544/596/228

vn -2.97544e-014 0.5 0.866025
f 514/599/229 544/602/228 513/603/228

v -1.01 -0.03 -0.630359
f 544/602/228 514/599/229 545/600/229

vn -1.49854e-014 0.707107 0.707107
f 515/605/230 545/604/229 514/607/229

v -1.01 -0.0217157 -0.636716
f 545/604/229 515/605/230 546/606/230

v -1.01 -0.015359 -0.645
vn -8.50103e-015 0.866025 0.5
f 515/609/230 547/608/231 546/611/230

f 547/608/231 515/609/230 516/610/231

vn 9.71891e-017 0.965926 0.258819
f 518/630/232 547/629/231 516/627/231

v -1.01 -0.011363 -0.654647
f 547/629/231 518/630/232 548/628/232

v -1.01 -0.01 -0.665
vn -3.27207e-015 1 2.93948e-016
f 518/625/232 549/626/233 548/624/232

f 549/626/233 518/625/232 519/623/233

vn -1.29424e-014 0.965926 -0.258819
f 520/619/234 549/620/233 519/621/233

v -1.01 -0.011363 -0.675353
f 549/620/233 520/619/234 550/622/234

v -1.01 -0.015359 -0.685
vn -2.87729e-014 0.866025 -0.5
f 520/615/234 551/616/235 550/617/234

f 551/616/235 520/615/234 521/618/235

v -1.01 -0.0217157 -0.693284
vn -1.8141e-014 0.707107 -0.707107
f 521/568/235 552/567/236 551/570/235

f 552/567/236 521/568/235 522/569/236

vn 5.58653e-014 0.5 -0.866025
f 523/635/237 552/636/236 522/637/236

v -1.01 -0.03 -0.699641
f 552/636/236 523/635/237 553/638/237

vt 39.3701 -11.992
vn 1.00041e-013 0.382683 -0.92388
f 524/897/238 553/643/237 523/644/237

v -1.01 -0.038443 -0.703138
vt 39.7638 -11.992
f 524/897/238 554/898/238 553/643/237

vn 6.3992e-014 0.258819 -0.965926
f 525/640/239 554/898/238 524/897/238

v -1.01 -0.0396472 -0.703637
f 554/898/238 525/640/239 555/641/239

vn 2.70763e-014 3.77934e-016 -1
f 526/646/240 555/645/239 525/648/239

f 555/645/239 526/646/240 534/647/240

vn 8.71079e-014 -0.258819 -0.965926
f 527/650/241 534/649/240 526/652/240

v -1.01 -0.0603528 -0.703637
f 534/649/240 527/650/241 556/651/241

vn 8.44053e-014 -0.5 -0.866025
f 528/654/242 556/657/241 527/658/241

v -1.01 -0.07 -0.699641
f 556/657/241 528/654/242 557/655/242

vn -7.17167e-015 -0.707107 -0.707107
f 529/660/243 557/659/242 528/662/242

v -1.01 -0.0782843 -0.693284
f 557/659/242 529/660/243 558/661/243

vn -2.23518e-014 -0.866025 -0.5
f 530/664/244 558/663/243 529/666/243

v -1.01 -0.084641 -0.685
f 558/663/243 530/664/244 559/665/244

f 531/669/218 559/670/244 530/668/244

f 559/670/244 531/669/218 533/667/218

usemtl FrontColor
f 533/892/219 534/887/219 559/891/219

f 559/891/219 534/887/219 558/890/219

f 558/890/219 534/887/219 557/889/219

f 557/889/219 534/887/219 556/888/219

vn -1 -1.4818e-014 -1.68674e-014
f 534/887/245 554/885/245 555/886/245

f 534/887/245 553/884/245 554/885/245

f 534/887/245 552/883/245 553/884/245

f 534/887/245 551/882/245 552/883/245

f 534/887/245 550/881/245 551/882/245

f 535/893/245 550/881/245 534/887/245

f 550/881/245 535/893/245 549/878/245

vn -1 -5.51423e-015 -1.4272e-014
f 535/893/246 548/877/246 549/878/246

f 535/893/246 547/876/246 548/877/246

f 535/893/246 546/875/246 547/876/246

f 535/893/246 545/874/246 546/875/246

f 535/893/246 544/873/246 545/874/246

f 544/873/246 535/893/246 542/872/246

usemtl Color_005
v -0.339142 -0.1 -0.535858
vt 13.3521 21.0968
f 505/864/5 478/697/5 560/899/5

v -0.342321 -0.1 -0.54
vt 13.4772 21.2598
f 560/899/5 478/697/5 561/900/5

v -0.344319 -0.1 -0.544824
vt 13.5558 21.4497
f 561/900/5 478/697/5 562/901/5

f 562/901/5 478/697/5 480/845/5

usemtl Color_I16
v -0.344319 -0.12 -0.544824
vn -0.965926 0 0.258819
f 480/734/211 563/735/247 562/736/247

f 563/735/247 480/734/211 481/737/211

usemtl FrontColor
v -0.325 -0.12 -0.55
vt 12.7953 21.6535
f 564/902/5 563/901/5 481/845/5

v -0.342321 -0.12 -0.54
f 563/901/5 564/902/5 565/900/5

v -0.339142 -0.12 -0.535858
f 565/900/5 564/902/5 566/899/5

v -0.335 -0.12 -0.532679
f 566/899/5 564/902/5 567/864/5

v -0.330176 -0.12 -0.530681
f 567/864/5 564/902/5 568/863/5

v -0.325 -0.12 -0.53
f 568/863/5 564/902/5 569/862/5

v -0.305 -0.12 -0.55
f 570/856/5 569/862/5 564/902/5

v -0.319824 -0.12 -0.530681
f 569/862/5 570/856/5 571/861/5

v -0.315 -0.12 -0.532679
f 571/861/5 570/856/5 572/860/5

v -0.310858 -0.12 -0.535858
f 572/860/5 570/856/5 573/859/5

v -0.307679 -0.12 -0.54
f 573/859/5 570/856/5 574/858/5

v -0.305681 -0.12 -0.544824
f 574/858/5 570/856/5 575/857/5

usemtl Color_I16
vn 1 0 4.28325e-015
vn 0.965926 0 0.258819
f 570/759/248 497/758/249 575/761/249

f 497/758/249 570/759/248 496/760/248

v -0.305681 -0.12 -0.555176
vn 0.965926 0 -0.258819
f 576/763/250 496/762/248 570/765/248

f 496/762/248 576/763/250 495/764/250

v -0.307679 -0.12 -0.56
vn 0.866025 0 -0.5
f 577/767/251 495/766/250 576/769/250

f 495/766/250 577/767/251 494/768/251

v -0.310858 -0.12 -0.564142
vn 0.707107 0 -0.707107
f 578/771/252 494/770/251 577/773/251

f 494/770/251 578/771/252 493/772/252

vn 0.5 0 -0.866025
f 578/775/252 492/774/253 493/777/252

v -0.315 -0.12 -0.567321
f 492/774/253 578/775/252 579/776/253

usemtl FrontColor
f 570/856/5 579/852/5 578/853/5

v -0.319824 -0.12 -0.569319
f 570/856/5 580/851/5 579/852/5

f 564/902/5 580/851/5 570/856/5

v -0.325 -0.12 -0.57
f 580/851/5 564/902/5 581/850/5

v -0.330176 -0.12 -0.569319
f 564/902/5 582/849/5 581/850/5

f 564/902/5 487/847/5 582/849/5

f 564/902/5 486/846/5 487/847/5

f 564/902/5 484/848/5 486/846/5

f 564/902/5 482/844/5 484/848/5

f 482/844/5 564/902/5 481/845/5

usemtl Color_I16
vn -0.258819 0 -0.965926
f 488/727/214 582/726/254 487/729/214

f 582/726/254 488/727/214 489/728/254

vn -5.59902e-016 0 -1
f 489/731/254 581/730/255 582/733/254

f 581/730/255 489/731/254 490/732/255

vn 0.258819 0 -0.965926
f 490/706/255 580/705/256 581/708/255

f 580/705/256 490/706/255 491/707/256

f 491/778/256 579/779/253 580/780/256

f 579/779/253 491/778/256 492/781/253

usemtl FrontColor
f 570/856/5 578/853/5 577/854/5

f 570/856/5 577/854/5 576/855/5

usemtl Color_I16
vn 0.866025 0 0.5
f 498/754/257 575/755/249 497/756/249

f 575/755/249 498/754/257 574/757/257

vn 0.707107 0 0.707107
f 499/750/258 574/751/257 498/752/257

f 574/751/257 499/750/258 573/753/258

vn 0.5 0 0.866025
f 499/746/258 572/747/259 573/748/258

f 572/747/259 499/746/258 500/749/259

vn 0.258819 0 0.965926
f 500/742/259 571/743/260 572/744/259

f 571/743/260 500/742/259 501/745/260

vn 0 0 1
f 501/783/260 569/782/261 571/785/260

f 569/782/261 501/783/260 502/784/261

vn -0.258819 0 0.965926
f 502/551/261 568/552/262 569/553/261

f 568/552/262 502/551/261 503/554/262

vn -0.5 0 0.866025
f 503/547/262 567/548/263 568/549/262

f 567/548/263 503/547/262 505/550/263

vn -0.707107 0 0.707107
f 505/543/263 566/544/264 567/545/263

f 566/544/264 505/543/263 560/546/264

vn -0.866025 0 0.5
f 561/539/265 566/540/264 560/541/264

f 566/540/264 561/539/265 565/542/265

f 562/738/247 565/739/265 561/740/265

f 565/739/265 562/738/247 563/741/247

usemtl Color_005
vn 1 -2.94094e-031 9.02389e-016
f 475/527/266 4/14/266 5/517/266

f 4/14/266 475/527/266 24/16/266

g Mesh2 Model

usemtl Color_I16
v 0.315 3.12639e-017 -0.532679
vt -2.92789 9.40138e-016
v 0.310858 0.02 -0.535858
vt -3.13344 0.787402
v 0.310858 3.08907e-017 -0.535858
vt -3.13344 9.25445e-016
f 583/903/69 584/904/68 585/905/68

v 0.315 0.02 -0.532679
vt -2.92789 0.787402
f 584/904/68 583/903/69 586/906/69

v 0.31611 3.13521e-017 -0.53222
vt 3.47936 2.28718e-015
vt 3.43206 0.787402
vt 3.43206 2.2837e-015
f 587/907/70 586/908/69 583/909/69

v 0.31611 0.02 -0.53222
vt 3.47936 0.787402
f 586/908/69 587/907/70 588/910/70

v 0.319824 4.29271e-017 -0.530681
vt 3.63762 2.74288e-015
f 589/911/71 588/910/70 587/907/70

v 0.319824 0.02 -0.530681
vt 3.63762 0.787402
f 588/910/70 589/911/71 590/912/71

v 0.325 4.32943e-017 -0.53
vt 9.96223 3.85847e-015
vt 9.75668 0.787402
vt 9.75668 3.84401e-015
f 591/913/72 590/914/71 589/915/71

v 0.325 0.02 -0.53
vt 9.96223 0.787402
f 590/914/71 591/913/72 592/916/72

v 0.330176 4.36205e-017 -0.530681
vt 15.6149 4.42674e-015
vt 15.4094 0.787402
vt 15.4094 4.4139e-015
f 593/917/73 592/918/72 591/919/72

v 0.330176 0.02 -0.530681
vt 15.6149 0.787402
f 592/918/72 593/917/73 594/920/73

v 0.335 4.38834e-017 -0.532679
vt 20.2105 4.2908e-015
vt 20.005 0.787402
vt 20.005 4.28045e-015
f 595/921/74 594/922/73 593/923/73

v 0.335 0.02 -0.532679
vt 20.2105 0.787402
f 594/922/73 595/921/74 596/924/74

v 0.339142 4.4065e-017 -0.535858
vt 23.4358 3.48346e-015
vt 23.2302 0.787402
vt 23.2302 3.47631e-015
f 597/925/75 596/926/74 595/927/74

v 0.339142 0.02 -0.535858
vt 23.4358 0.787402
f 596/926/74 597/925/75 598/928/75

v 0.342321 4.41531e-017 -0.54
vt 25.071 2.21869e-015
vt 24.8654 0.787402
vt 24.8654 2.21522e-015
f 599/929/76 598/930/75 597/931/75

v 0.342321 0.02 -0.54
vt 25.071 0.787402
f 598/930/75 599/929/76 600/932/76

v 0.344319 4.41416e-017 -0.544824
vt 25.0046 8.34463e-016
vt 24.799 0.787402
vt 24.799 8.34917e-016
f 601/933/77 600/934/76 599/935/76

v 0.344319 0.02 -0.544824
vt 25.0046 0.787402
f 600/934/76 601/933/77 602/936/77

v 0.345 4.40313e-017 -0.55
vt 23.2412 -2.9776e-016
vt 23.0356 0.787402
vt 23.0356 -2.93416e-016
f 603/937/78 602/938/77 601/939/77

v 0.345 0.02 -0.55
vt 23.2412 0.787402
f 602/938/77 603/937/78 604/940/78

v 0.344319 4.38296e-017 -0.555176
vt 19.901 -8.72594e-016
vt 19.6954 0.787402
vt 19.6954 -8.64657e-016
f 605/941/79 604/942/78 603/943/78

v 0.344319 0.02 -0.555176
vt 19.901 0.787402
f 604/942/78 605/941/79 606/944/79

v 0.342321 3.22706e-017 -0.56
vt 15.2115 -1.17679e-015
vt 15.0059 0.787402
vt 15.0059 -7.21705e-016
f 607/945/80 606/946/79 605/947/79

v 0.342321 0.02 -0.56
vt 15.2115 0.787402
f 606/946/79 607/945/80 608/948/80

v 0.339142 3.19329e-017 -0.564142
vt 9.49242 -3.55237e-016
vt 9.28686 0.787402
vt 9.28686 -3.41942e-016
f 609/949/81 608/950/80 607/951/80

v 0.339142 0.02 -0.564142
vt 9.49242 0.787402
f 608/950/80 609/949/81 610/952/81

vt 2.92789 9.47709e-016
v 0.335 0.02 -0.567321
vt 3.13344 0.787402
vt 2.92789 0.787402
f 609/953/81 611/954/82 610/955/81

v 0.335 3.15597e-017 -0.567321
vt 3.13344 9.33016e-016
f 611/954/82 609/953/81 612/956/82

vt -3.63762 2.3635e-015
v 0.33389 0.02 -0.56778
vt -3.59032 0.787402
vt -3.63762 0.787402
f 612/957/82 613/958/91 611/959/82

v 0.33389 3.14715e-017 -0.56778
vt -3.59032 2.36002e-015
f 613/958/91 612/957/82 614/960/91

v 0.330176 4.24563e-017 -0.569319
vt -3.43206 2.7925e-015
f 615/961/92 613/958/91 614/960/91

v 0.330176 0.02 -0.569319
vt -3.43206 0.787402
f 613/958/91 615/961/92 616/962/92

vt -9.96223 3.9759e-015
v 0.325 0.02 -0.57
vt -9.75668 0.787402
vt -9.96223 0.787402
f 615/963/92 617/964/93 616/965/92

v 0.325 4.20891e-017 -0.57
vt -9.75668 3.96144e-015
f 617/964/93 615/963/92 618/966/93

vt -15.6149 4.58889e-015
v 0.319824 0.02 -0.569319
vt -15.4094 0.787402
vt -15.6149 0.787402
f 618/967/93 619/968/94 617/969/93

v 0.319824 4.17629e-017 -0.569319
vt -15.4094 4.57605e-015
f 619/968/94 618/967/93 620/970/94

vt -20.2105 4.48662e-015
v 0.315 0.02 -0.567321
vt -20.005 0.787402
vt -20.2105 0.787402
f 620/971/94 621/972/84 619/973/94

v 0.315 4.15e-017 -0.567321
vt -20.005 4.47627e-015
f 621/972/84 620/971/94 622/974/84

vt -23.4358 3.6996e-015
v 0.310858 0.02 -0.564142
vt -23.2302 0.787402
vt -23.4358 0.787402
f 622/975/84 623/976/83 621/977/84

v 0.310858 4.13183e-017 -0.564142
vt -23.2302 3.69245e-015
f 623/976/83 622/975/84 624/978/83

v 0.307679 4.12303e-017 -0.56
vt -24.8654 2.43696e-015
vt -25.071 0.787402
vt -25.071 2.44043e-015
f 625/979/87 623/980/83 624/981/83

v 0.307679 0.02 -0.56
vt -24.8654 0.787402
f 623/980/83 625/979/87 626/982/87

v 0.305681 4.12418e-017 -0.555176
vt -24.799 1.04714e-015
vt -25.0046 0.787402
vt -25.0046 1.04669e-015
f 627/983/86 626/984/87 625/985/87

v 0.305681 0.02 -0.555176
vt -24.799 0.787402
f 626/984/87 627/983/86 628/986/86

v 0.305 4.13521e-017 -0.55
vt -23.0356 -1.05169e-016
vt -23.2412 0.787402
vt -23.2412 -1.09513e-016
f 629/987/66 628/988/86 627/989/86

v 0.305 0.02 -0.55
vt -23.0356 0.787402
f 628/988/86 629/987/66 630/990/66

v 0.305681 4.15537e-017 -0.544824
vt -19.6954 -7.13216e-016
vt -19.901 0.787402
vt -19.901 -7.21154e-016
f 631/991/65 630/992/66 629/993/66

v 0.305681 0.02 -0.544824
vt -19.6954 0.787402
f 630/992/66 631/991/65 632/994/65

v 0.307679 3.0553e-017 -0.54
vt -15.0059 -1.06148e-015
vt -15.2115 0.787402
vt -15.2115 -6.28383e-016
f 633/995/67 632/996/65 631/997/65

v 0.307679 0.02 -0.54
vt -15.0059 0.787402
f 632/996/65 633/995/67 634/998/67

vt -9.28686 -2.91865e-016
vt -9.49242 0.787402
vt -9.49242 -3.0516e-016
f 585/999/68 634/1000/67 633/1001/67

vt -9.28686 0.787402
f 634/1000/67 585/999/68 584/1002/68

usemtl FrontColor
v 0.325 0.02 -0.55
f 635/902/88 634/858/88 584/859/88

f 635/902/88 632/857/88 634/858/88

f 632/857/88 635/902/88 630/856/88

f 635/902/85 628/855/85 630/856/85

f 628/855/85 635/902/85 626/854/85

f 626/854/85 635/902/85 623/853/85

f 623/853/85 635/902/85 621/852/85

f 621/852/85 635/902/85 619/851/85

f 619/851/85 635/902/85 617/850/85

f 635/902/90 616/849/90 617/850/90

f 616/849/90 635/902/90 604/845/90

f 635/902/89 594/863/89 604/845/89

f 594/863/89 635/902/89 592/862/89

f 635/902/88 590/861/88 592/862/88

vt 12.4453 20.9535
f 635/902/88 588/1003/88 590/861/88

f 635/902/88 586/860/88 588/1003/88

f 635/902/88 584/859/88 586/860/88

f 604/845/89 594/863/89 596/864/89

f 604/845/89 596/864/89 598/899/89

f 604/845/89 598/899/89 600/900/89

f 604/845/89 600/900/89 602/901/89

vt 13.1453 22.3536
f 616/849/90 604/845/90 613/1004/90

f 613/1004/90 604/845/90 611/847/90

f 611/847/90 604/845/90 610/846/90

f 610/846/90 604/845/90 608/848/90

f 608/848/90 604/845/90 606/844/90

g Mesh3 Model

usemtl Color_I16
v -0.339142 0.02 -0.564142
v -0.342321 4.12303e-017 -0.56
vt -9.28686 6.77153e-015
v -0.342321 0.02 -0.56
f 636/1000/83 637/1005/87 638/1002/87

v -0.339142 4.13183e-017 -0.564142
vt -9.49242 6.775e-015
f 637/1005/87 636/1000/83 639/1006/83

v -0.335 4.15e-017 -0.567321
vt -3.13344 6.86384e-015
vt -2.92789 6.85669e-015
f 636/906/83 640/1007/84 639/1008/83

v -0.335 0.02 -0.567321
f 640/1007/84 636/906/83 641/904/84

usemtl FrontColor
v -0.325 0.02 -0.55
f 636/558/85 642/709/85 641/557/85

f 638/559/85 642/709/85 636/558/85

v -0.344319 0.02 -0.555176
f 643/560/85 642/709/85 638/559/85

v -0.345 0.02 -0.55
f 642/709/85 643/560/85 644/561/85

usemtl Color_I16
v -0.345 4.13521e-017 -0.55
vt -19.6954 4.73845e-015
f 643/992/86 645/1009/66 644/994/66

v -0.344319 4.12418e-017 -0.555176
vt -19.901 4.73411e-015
f 645/1009/66 643/992/86 646/1010/86

vt -15.0059 5.99641e-015
f 638/996/87 646/1011/86 643/998/86

vt -15.2115 5.99596e-015
f 646/1011/86 638/996/87 637/1012/87

v -0.344319 4.15537e-017 -0.544824
vt -23.0356 3.33272e-015
vt -23.2412 3.32479e-015
f 647/1013/65 644/988/66 645/1014/66

v -0.344319 0.02 -0.544824
f 644/988/66 647/1013/65 648/990/65

v -0.342321 3.0553e-017 -0.54
vt -24.799 1.70848e-015
vt -25.0046 2.14158e-015
f 649/1015/67 648/984/65 647/1016/65

v -0.342321 0.02 -0.54
f 648/984/65 649/1015/67 650/986/67

v -0.339142 3.08907e-017 -0.535858
vt -24.8654 1.06572e-015
vt -25.071 1.05242e-015
f 651/1017/68 650/980/67 649/1018/67

v -0.339142 0.02 -0.535858
f 650/980/67 651/1017/68 652/982/68

v -0.335 3.12639e-017 -0.532679
vt -23.2302 1.12739e-015
vt -23.4358 1.11269e-015
f 653/1019/69 652/977/68 651/1020/68

v -0.335 0.02 -0.532679
f 652/977/68 653/1019/69 654/976/69

v -0.33389 3.13521e-017 -0.53222
vt -20.1632 1.85973e-015
vt -20.2105 1.85626e-015
f 655/1021/70 654/973/69 653/1022/69

v -0.33389 0.02 -0.53222
vt -20.1632 0.787402
f 654/973/69 655/1021/70 656/1023/70

v -0.330176 4.29271e-017 -0.530681
vt -20.005 2.31543e-015
f 657/1024/71 656/1023/70 655/1021/70

v -0.330176 0.02 -0.530681
f 656/1023/70 657/1024/71 658/972/71

v -0.325 4.32943e-017 -0.53
vt -15.4094 3.53667e-015
vt -15.6149 3.52221e-015
f 659/1025/72 658/969/71 657/1026/71

v -0.325 0.02 -0.53
f 658/969/71 659/1025/72 660/968/72

v -0.319824 4.36205e-017 -0.530681
vt -9.75668 4.90262e-015
vt -9.96223 4.88978e-015
f 661/1027/73 660/965/72 659/1028/72

v -0.319824 0.02 -0.530681
f 660/965/72 661/1027/73 662/964/73

v -0.315 4.38834e-017 -0.532679
vt -3.43206 6.04266e-015
vt -3.63762 6.03231e-015
f 663/1029/74 662/959/73 661/1030/73

v -0.315 0.02 -0.532679
f 662/959/73 663/1029/74 664/962/74

v -0.310858 4.4065e-017 -0.535858
vt 3.13344 6.6477e-015
vt 2.92789 6.64054e-015
f 665/1031/75 664/955/74 663/1032/74

v -0.310858 0.02 -0.535858
f 664/955/74 665/1031/75 666/954/75

v -0.307679 4.41531e-017 -0.54
vt 9.49242 6.55326e-015
vt 9.28686 6.54979e-015
f 667/1033/76 666/950/75 665/1034/75

v -0.307679 0.02 -0.54
f 666/950/75 667/1033/76 668/952/76

v -0.305681 4.41416e-017 -0.544824
vt 15.2115 5.78373e-015
vt 15.0059 5.78418e-015
f 669/1035/77 668/946/76 667/1036/76

v -0.305681 0.02 -0.544824
f 668/946/76 669/1035/77 670/948/77

v -0.305 4.40313e-017 -0.55
vt 19.901 4.54586e-015
vt 19.6954 4.55021e-015
f 671/1037/78 670/942/77 669/1038/77

v -0.305 0.02 -0.55
f 670/942/77 671/1037/78 672/944/78

v -0.305681 4.38296e-017 -0.555176
vt 23.2412 3.17335e-015
vt 23.0356 3.18128e-015
f 673/1039/79 672/938/78 671/1040/78

v -0.305681 0.02 -0.555176
f 672/938/78 673/1039/79 674/940/79

v -0.307679 3.22706e-017 -0.56
vt 25.0046 1.59318e-015
vt 24.799 2.04826e-015
f 675/1041/80 674/934/79 673/1042/79

v -0.307679 0.02 -0.56
f 674/934/79 675/1041/80 676/936/80

v -0.310858 3.19329e-017 -0.564142
vt 25.071 1.00234e-015
vt 24.8654 1.01564e-015
f 677/1043/81 676/930/80 675/1044/80

v -0.310858 0.02 -0.564142
f 676/930/80 677/1043/81 678/932/81

vt 23.2302 1.13496e-015
v -0.315 0.02 -0.567321
f 677/1045/81 679/928/82 678/926/81

v -0.315 3.15597e-017 -0.567321
vt 23.4358 1.12026e-015
f 679/928/82 677/1045/81 680/1046/82

vt 20.005 1.93605e-015
v -0.31611 0.02 -0.56778
vt 20.0523 0.787402
f 680/1047/82 681/1048/91 679/922/82

v -0.31611 3.14715e-017 -0.56778
vt 20.0523 1.93258e-015
f 681/1048/91 680/1047/82 682/1049/91

v -0.319824 4.24563e-017 -0.569319
vt 20.2105 2.36505e-015
f 683/1050/92 681/1048/91 682/1049/91

v -0.319824 0.02 -0.569319
f 681/1048/91 683/1050/92 684/924/92

vt 15.4094 3.6541e-015
v -0.325 0.02 -0.57
f 683/1051/92 685/920/93 684/918/92

v -0.325 4.20891e-017 -0.57
vt 15.6149 3.63964e-015
f 685/920/93 683/1051/92 686/1052/93

vt 9.75668 5.06477e-015
v -0.330176 0.02 -0.569319
f 686/1053/93 687/916/94 685/914/93

v -0.330176 4.17629e-017 -0.569319
vt 9.96223 5.05193e-015
f 687/916/94 686/1053/93 688/1054/94

vt 3.43206 6.23848e-015
f 688/1055/94 641/912/84 687/908/94

vt 3.63762 6.22813e-015
f 641/912/84 688/1055/94 640/1056/84

usemtl FrontColor
f 641/557/85 642/709/85 687/556/85

f 687/556/85 642/709/85 685/555/85

f 642/709/90 684/521/90 685/555/90

f 684/521/90 642/709/90 672/536/90

f 642/709/89 662/531/89 672/536/89

f 662/531/89 642/709/89 660/529/89

f 642/709/88 658/704/88 660/529/88

vt -13.1453 20.9535
f 642/709/88 656/1057/88 658/704/88

f 642/709/88 654/703/88 656/1057/88

f 642/709/88 652/702/88 654/703/88

f 642/709/88 650/701/88 652/702/88

f 642/709/88 648/700/88 650/701/88

f 648/700/88 642/709/88 644/561/88

f 672/536/89 662/531/89 664/532/89

f 672/536/89 664/532/89 666/533/89

f 672/536/89 666/533/89 668/534/89

f 672/536/89 668/534/89 670/535/89

vt -12.4453 22.3536
f 684/521/90 672/536/90 681/1058/90

f 681/1058/90 672/536/90 679/520/90

f 679/520/90 672/536/90 678/519/90

f 678/519/90 672/536/90 676/538/90

f 676/538/90 672/536/90 674/537/90

