# Alias OBJ Model File
# Exported from SketchUp, (c) 2000-2012 Trimble Navigation Limited
# File units = meters

mtllib thruster_medium_blue.mtl

g Mesh1 Thruster_1_1 Model

usemtl Color_007
v 2.92256e-016 -0.125 0.21875
vt -6.88976 -3.93701
vn -1 -6.69786e-017 1.77636e-016
v 4.34176e-016 -0.0625 0.34375
vt -10.8268 -1.9685
v 2.88482e-016 -0.125 -0.21875
vt 6.88976 -3.93701
f 1/1/1 2/2/1 3/3/1

usemtl Color_I16
vt -7.10543e-015 4.40171
vn 1.79069e-016 -0.894427 0.447214
v 0.1875 -0.125 0.21875
vt -5.90551 4.40171
vt -1.06581e-014 8.80342
f 1/4/2 4/5/2 2/6/2

usemtl Color_007
vt 6.88976 5.90551
vn -7.17416e-017 -1 -2.50728e-017
vt 6.88976 7.65157e-015
v 0.1875 -0.125 -0.34375
vt -10.8268 5.90551
f 4/7/3 1/8/3 5/9/3

vt -6.88976 1.12043e-014
f 3/10/3 5/9/3 1/8/3

v 0.09375 -0.125 -0.34375
vt -10.8268 2.95276
f 6/11/3 5/9/3 3/10/3

vt 2.95276 -3.93701
vn -2.66454e-016 -3.01322e-017 -1
v 0.09375 0.125 -0.34375
vt 2.95276 3.93701
vt 5.90551 -3.93701
f 6/12/4 7/13/4 5/14/4

vt 10.4331 -3.93701
vn -0.8 -7.16622e-017 -0.6
vt 5.51181 -3.93701
vt 10.4331 3.93701
f 6/15/5 3/16/5 7/17/5

v 2.71737e-016 0.125 -0.21875
vt 5.51181 3.93701
f 8/18/5 7/17/5 3/16/5

vt 10.8268 2.95276
vn -6.69786e-017 1 -3.01322e-017
vt 6.88976 1.06581e-014
v 0.1875 0.125 -0.34375
vt 10.8268 5.90551
f 7/19/6 8/20/6 9/21/6

v 2.75512e-016 0.125 0.21875
vt -6.88976 7.10543e-015
f 8/20/6 10/22/6 9/21/6

vt -6.88976 3.93701
vt 6.88976 3.93701
v 3.13005e-016 0.0625 0.34375
vt -10.8268 1.9685
f 10/23/1 8/24/1 11/25/1

f 11/25/1 8/24/1 2/2/1

f 8/24/1 3/3/1 2/2/1

usemtl Color_I16
vt -1.06581e-014 -1.9685
vn 2.66454e-016 3.01322e-017 1
v 0.0125 0.05 0.34375
vt -0.393701 1.5748
vt -7.10543e-015 1.9685
f 2/26/7 12/27/7 11/28/7

v 0.0125 -0.05 0.34375
vt -0.393701 -1.5748
f 12/27/7 2/26/7 13/29/7

v 0.1875 -0.0625 0.34375
vt -5.90551 -1.9685
f 14/30/7 13/29/7 2/26/7

v 0.175 -0.05 0.34375
vt -5.51181 -1.5748
f 15/31/7 13/29/7 14/30/7

usemtl Color_007
vt -10.8268 5.51181
vn -2.05808e-016 1 -3.01322e-017
v 0.175 -0.05 0.09375
vt -2.95276 5.51181
vt -10.8268 0.393701
f 15/32/8 16/33/8 13/34/8

vt -2.95276 -1.5748
vt -10.8268 -1.5748
v 0.175 0.05 0.09375
vt -2.95276 1.5748
f 16/35/1 15/36/1 17/37/1

v 0.175 0.05 0.34375
vt -10.8268 1.5748
f 18/38/1 17/37/1 15/36/1

vt 10.8268 5.51181
vn 6.69786e-017 -1 3.01322e-017
vt 10.8268 0.393701
vt 2.95276 5.51181
f 18/39/9 12/40/9 17/41/9

usemtl Color_I16
vt -5.51181 1.5748
v 0.0625 0.0625 0.34375
vt -1.9685 1.9685
f 18/42/7 19/43/7 12/27/7

v 0.1875 0.0625 0.34375
vt -5.90551 1.9685
f 20/44/7 19/43/7 18/42/7

vt -1.9685 -8.80342
vn 5.92542e-017 0.894427 0.447214
vt -5.90551 -8.80342
v 0.1875 0.125 0.21875
vt -5.90551 -4.40171
f 19/45/10 20/46/10 21/47/10

vt 7.04273 -5.28205
vn 0.666667 0.666667 0.333333
v 0.25 0.0625 0.21875
vt 2.64103 -5.28205
vt 3.52137 -2.64103
f 20/48/11 22/49/11 21/50/11

vt 2.64103 1.9685
vn 0.894427 7.3383e-017 0.447214
vt 7.04273 1.9685
v 0.25 -0.0625 0.21875
vt 2.64103 -1.9685
f 22/51/12 20/52/12 23/53/12

vt 7.04273 -1.9685
f 14/54/12 23/53/12 20/52/12

vt 7.04273 5.28205
vn 0.666667 -0.666667 0.333333
vt 3.52137 2.64103
vt 2.64103 5.28205
f 14/55/13 4/56/13 23/57/13

vt -5.90551 8.80342
f 14/58/2 2/6/2 4/5/2

usemtl Color_007
vt 6.88976 4.17583
vn 0.707107 -0.707107 -1.0174e-016
vt 6.88976 1.39194
v 0.25 -0.0625 -0.34375
vt -10.8268 4.17583
f 23/59/14 4/60/14 24/61/14

vt -10.8268 1.39194
f 5/62/14 24/61/14 4/60/14

vt 7.87402 -1.9685
vt 5.90551 3.93701
f 24/63/4 5/14/4 9/64/4

f 9/64/4 5/14/4 7/13/4

v 0.25 0.0625 -0.34375
vt 7.87402 1.9685
f 25/65/4 24/63/4 9/64/4

vn 1 6.69786e-017 -1.77636e-016
vt 6.88976 1.9685
f 25/25/15 22/66/15 24/2/15

vt 6.88976 -4.17583
vn 0.707107 0.707107 -1.49475e-016
vt -10.8268 -4.17583
vt 6.88976 -1.39194
f 22/67/16 25/68/16 21/69/16

vt -10.8268 -1.39194
f 9/70/16 21/69/16 25/68/16

vt -6.88976 5.90551
f 21/71/6 9/21/6 10/22/6

usemtl Color_I16
vt -7.10543e-015 -4.40171
f 21/47/10 10/72/10 19/45/10

vt -7.10543e-015 -8.80342
f 11/73/10 19/45/10 10/72/10

f 19/43/7 11/28/7 12/27/7

usemtl Color_007
vt 6.88976 -1.9685
f 23/74/15 24/2/15 22/66/15

usemtl Color_I16
f 20/44/7 15/31/7 14/30/7

f 15/31/7 20/44/7 18/42/7

usemtl Color_007
v 0.0125 0.05 0.09375
vt 2.95276 0.393701
f 26/75/9 17/41/9 12/40/9

usemtl Color_009
v 0.0125 -0.05 0.09375
f 26/27/7 27/29/7 17/42/7

usemtl Color_007
vt 2.95276 1.5748
vt 10.8268 1.5748
vt 2.95276 -1.5748
f 26/76/15 12/77/15 27/78/15

vt 10.8268 -1.5748
f 13/79/15 27/78/15 12/77/15

vt -2.95276 0.393701
f 27/80/8 13/34/8 16/33/8

usemtl Color_009
f 16/31/7 17/42/7 27/29/7

