# Alias OBJ Model File
# Exported from SketchUp, (c) 2000-2012 Trimble Navigation Limited
# File units = meters

mtllib turret_particle.mtl

g Mesh1 Model

usemtl Color_007
v 0.025 0.02 -0.005
vt -0.984252 -2.16493e-015
vn -4.37778e-016 0.970143 -0.242536
v -0.025 0.015 -0.025
vt 0.984252 -0.811635
v -0.025 0.02 -0.005
vt 0.984252 -5.82867e-015
f 1/1/1 2/2/1 3/3/1

v 0.025 0.015 -0.025
vt -0.984252 -0.811635
f 2/2/1 1/1/1 4/4/1

vt 0.19685 0.787402
vn 1 0 -0
v 0.025 0 -0.025
vt 0.984252 0
vt 0.984252 0.590551
f 1/5/2 5/6/2 4/7/2

v 0.025 0.02 0.005
vt -0.19685 0.787402
f 6/8/2 5/6/2 1/5/2

v 0.025 0.015 0.025
vt -0.984252 0.590551
f 7/9/2 5/6/2 6/8/2

v 0.025 0 0.025
vt -0.984252 0
f 5/6/2 7/9/2 8/10/2

vn 0 0 1
v -0.025 0 0.025
f 7/7/3 9/10/3 8/6/3

v -0.025 0.015 0.025
f 9/10/3 7/7/3 10/9/3

vt 0.984252 2.19269e-015
vn -2.18889e-016 0.970143 0.242536
f 6/11/4 10/4/4 7/2/4

v -0.025 0.02 0.005
vt -0.984252 2.77556e-016
f 10/4/4 6/11/4 11/12/4

vt 0.984252 -0.19685
vn -4.51195e-016 1 -2.01986e-030
vt -0.984252 0.19685
vt -0.984252 -0.19685
f 6/13/5 3/14/5 11/15/5

vt 0.984252 0.19685
f 3/14/5 6/13/5 1/16/5

v -0.025 -2.25597e-017 -0.025
vt -0.984252 8.19857e-016
vn -1 -1.73536e-015 -1.94633e-015
f 12/17/6 11/5/6 3/8/6

vt 0.984252 1.70804e-015
f 9/18/6 11/5/6 12/17/6

f 11/5/6 9/18/6 10/7/6

vt 0.984252 0.984252
vn 2.25597e-016 -1 2.25597e-016
vt -0.984252 -0.984252
vt 0.984252 -0.984252
f 12/19/7 8/20/7 9/21/7

vt -0.984252 0.984252
f 8/20/7 12/19/7 5/22/7

vt 0.984252 -8.88178e-016
vn 0 0 -1
v -0.02 0.005 -0.025
vt 0.787402 0.19685
f 12/23/8 13/24/8 5/10/8

f 13/24/8 12/23/8 2/7/8

f 12/17/6 3/8/6 2/9/6

v -0.02 0.01 -0.025
vt 0.787402 0.393701
f 13/24/8 2/7/8 14/25/8

v -0.01 0.01 -0.025
vt 0.393701 0.393701
f 14/25/8 2/7/8 15/26/8

v 0.01 0.01 -0.025
vt -0.393701 0.393701
f 15/26/8 2/7/8 16/27/8

v 0.02 0.01 -0.025
vt -0.787402 0.393701
f 16/27/8 2/7/8 17/28/8

f 4/9/8 17/28/8 2/7/8

v 0.02 0.005 -0.025
vt -0.787402 0.19685
f 4/9/8 18/29/8 17/28/8

f 5/10/8 18/29/8 4/9/8

v -0.01 0.005 -0.025
vt 0.393701 0.19685
f 18/29/8 5/10/8 19/30/8

f 19/30/8 5/10/8 13/24/8

v -0.02 0.005 -0.055
vt 0.787402 2.16535
vn -2.75677e-032 -1 -7.51991e-016
vt 0.393701 0.984252
vt 0.787402 0.984252
f 20/31/9 19/32/9 13/33/9

v -0.01 0.005 -0.055
vt 0.393701 2.16535
f 19/32/9 20/31/9 21/34/9

usemtl Color_009
v -0.015 0.0075 -0.055
vt 0.590551 0.295276
f 22/35/8 21/30/8 20/24/8

v -0.01 0.01 -0.055
f 23/26/8 21/30/8 22/35/8

usemtl Color_007
vt 0.984252 0.393701
vn 1 1.10271e-031 7.51991e-016
vt 2.16535 0.19685
vt 2.16535 0.393701
f 15/36/10 21/37/10 23/38/10

f 21/37/10 15/36/10 19/16/10

v 0.01 0.005 -0.025
vt -0.393701 0.19685
f 15/26/8 24/39/8 19/30/8

f 24/39/8 15/26/8 16/27/8

v 0.01 0.01 -0.055
vt -2.16535 0.393701
vn -1 2.20541e-031 -1.50398e-015
vt -0.984252 0.393701
f 25/40/11 24/14/11 16/41/11

v 0.01 0.005 -0.055
vt -2.16535 0.19685
f 24/14/11 25/40/11 26/42/11

usemtl Color_009
v 0.015 0.0075 -0.055
vt -0.590551 0.295276
f 25/27/8 27/43/8 26/39/8

v 0.02 0.01 -0.055
f 28/28/8 27/43/8 25/27/8

v 0.02 0.005 -0.055
f 28/28/8 29/29/8 27/43/8

usemtl Color_007
f 17/36/2 29/37/2 28/38/2

f 29/37/2 17/36/2 18/16/2

vt -0.787402 0.984252
vn 2.75677e-032 -1 7.51991e-016
vt -0.393701 2.16535
vt -0.787402 2.16535
f 18/44/12 26/45/12 29/46/12

vt -0.393701 0.984252
f 26/45/12 18/44/12 24/47/12

f 18/29/8 19/30/8 24/39/8

usemtl Color_009
f 27/43/8 29/29/8 26/39/8

usemtl Color_007
vn -1.12799e-015 1 -3.75996e-016
f 25/34/13 17/33/13 28/31/13

f 17/33/13 25/34/13 16/32/13

v -0.02 0.01 -0.055
vn 2.75677e-032 1 7.51991e-016
f 30/46/14 15/47/14 23/45/14

f 15/47/14 30/46/14 14/44/14

vn -1 -1.10271e-031 -7.51991e-016
f 30/40/15 13/14/15 14/41/15

f 13/14/15 30/40/15 20/42/15

usemtl Color_009
f 30/25/8 22/35/8 20/24/8

f 23/26/8 22/35/8 30/25/8

