#
## Alias OBJ Material File
# Exported from SketchUp, (c) 2000-2012 Trimble Navigation Limited

newmtl Color_007
Ka 0.000000 0.000000 0.000000
Kd 0.227451 0.227451 0.227451
Ks 0.330000 0.330000 0.330000

newmtl Color_009
Ka 0.000000 0.000000 0.000000
Kd 0.000000 0.000000 0.000000
Ks 0.330000 0.330000 0.330000

