<?xml version="1.0" encoding="UTF-8"?>
<session version="1.0">
<refactoring accessors="true" comment="Delete 4 elements from project &apos;Code Day Project&apos;&#x0D;&#x0A;- Original project: &apos;Code Day Project&apos;&#x0D;&#x0A;- Original elements:&#x0D;&#x0A;     aspect.example.GUITest.java&#x0D;&#x0A;     aspect.example.HeightMapTest.java&#x0D;&#x0A;     aspect.example.ParticleTest.java&#x0D;&#x0A;     aspect.example.RaycastTest.java" description="Delete elements" element1="/src&lt;aspect.example{ParticleTest.java" element2="/src&lt;aspect.example{GUITest.java" element3="/src&lt;aspect.example{HeightMapTest.java" element4="/src&lt;aspect.example{RaycastTest.java" elements="4" flags="589830" id="org.eclipse.jdt.ui.delete" resources="0" stamp="1432418367636" subPackages="false" version="1.0"/>
</session>