<?xml version="1.0" encoding="UTF-8"?>
<session version="1.0">
<refactoring accessors="true" comment="Delete 9 elements from project &apos;Aspect Test Project&apos;&#x0D;&#x0A;- Original project: &apos;Aspect Test Project&apos;&#x0D;&#x0A;- Original elements:&#x0D;&#x0A;     hs_err_pid10616.log&#x0D;&#x0A;     hs_err_pid13720.log&#x0D;&#x0A;     hs_err_pid14100.log&#x0D;&#x0A;     hs_err_pid15144.log&#x0D;&#x0A;     hs_err_pid15256.log&#x0D;&#x0A;     hs_err_pid16164.log&#x0D;&#x0A;     hs_err_pid16200.log&#x0D;&#x0A;     hs_err_pid4352.log&#x0D;&#x0A;     hs_err_pid6960.log" description="Delete elements" element1="hs_err_pid15256.log" element2="hs_err_pid6960.log" element3="hs_err_pid16200.log" element4="hs_err_pid13720.log" element5="hs_err_pid4352.log" element6="hs_err_pid10616.log" element7="hs_err_pid16164.log" element8="hs_err_pid14100.log" element9="hs_err_pid15144.log" elements="0" flags="589830" id="org.eclipse.jdt.ui.delete" resources="9" stamp="1460346583910" subPackages="false" version="1.0"/>
</session>