# Blender v2.74 (sub 0) OBJ File: 'destroyer.blend'
# www.blender.org
mtllib destroyer.mtl
o Cube.001_Cube.003
v -6.000001 1.250000 5.499999
v -6.000001 1.450000 5.499999
v -6.097547 1.250000 5.490392
v -6.097547 1.450000 5.490392
v -6.191343 1.250000 5.461939
v -6.191343 1.450000 5.461939
v -6.277786 1.250000 5.415734
v -6.277786 1.450000 5.415734
v -6.353555 1.250000 5.353552
v -6.353555 1.450000 5.353552
v -6.415736 1.250000 5.277784
v -6.415736 1.450000 5.277784
v -6.461941 1.250000 5.191340
v -6.461941 1.450000 5.191340
v -6.490394 1.250000 5.097544
v -6.490394 1.450000 5.097544
v -6.500001 1.250000 4.999999
v -6.500001 1.450000 4.999999
v -6.490394 1.250000 4.902454
v -6.490394 1.450000 4.902454
v -6.461941 1.250000 4.808658
v -6.461941 1.450000 4.808658
v -6.415735 1.250000 4.722214
v -6.415735 1.450000 4.722214
v -6.353554 1.250000 4.646445
v -6.353554 1.450000 4.646445
v -6.277786 1.250000 4.584264
v -6.277786 1.450000 4.584264
v -6.191342 1.250000 4.538059
v -6.191342 1.450000 4.538059
v -6.097546 1.250000 4.509606
v -6.097546 1.450000 4.509606
v -6.000000 1.250000 4.499999
v -6.000000 1.450000 4.499999
v -5.902455 1.250000 4.509606
v -5.902455 1.450000 4.509606
v -5.808659 1.250000 4.538059
v -5.808659 1.450000 4.538059
v -5.722216 1.250000 4.584264
v -5.722216 1.450000 4.584264
v -5.646448 1.250000 4.646446
v -5.646448 1.450000 4.646446
v -5.584265 1.250000 4.722214
v -5.584265 1.450000 4.722214
v -5.538061 1.250000 4.808658
v -5.538061 1.450000 4.808658
v -5.509609 1.250000 4.902454
v -5.509609 1.450000 4.902454
v -5.500001 1.250000 5.000000
v -5.500001 1.450000 5.000000
v -5.509609 1.250000 5.097545
v -5.509609 1.450000 5.097545
v -5.538062 1.250000 5.191341
v -5.538062 1.450000 5.191341
v -5.584267 1.250000 5.277785
v -5.584267 1.450000 5.277785
v -5.646449 1.250000 5.353553
v -5.646449 1.450000 5.353553
v -5.722217 1.250000 5.415734
v -5.722217 1.450000 5.415734
v -5.808660 1.250000 5.461939
v -5.808660 1.450000 5.461939
v -5.902457 1.250000 5.490392
v -5.902457 1.450000 5.490392
v -3.000001 1.250000 5.500000
v -3.000001 1.450000 5.500000
v -3.097546 1.250000 5.490392
v -3.097546 1.450000 5.490392
v -3.191343 1.250000 5.461939
v -3.191343 1.450000 5.461939
v -3.277786 1.250000 5.415734
v -3.277786 1.450000 5.415734
v -3.353554 1.250000 5.353553
v -3.353554 1.450000 5.353553
v -3.415736 1.250000 5.277785
v -3.415736 1.450000 5.277785
v -3.461941 1.250000 5.191341
v -3.461941 1.450000 5.191341
v -3.490394 1.250000 5.097544
v -3.490394 1.450000 5.097544
v -3.500001 1.250000 5.000000
v -3.500001 1.450000 5.000000
v -3.490394 1.250000 4.902454
v -3.490394 1.450000 4.902454
v -3.461941 1.250000 4.808658
v -3.461941 1.450000 4.808658
v -3.415736 1.250000 4.722214
v -3.415736 1.450000 4.722214
v -3.353554 1.250000 4.646446
v -3.353554 1.450000 4.646446
v -3.277786 1.250000 4.584265
v -3.277786 1.450000 4.584265
v -3.191343 1.250000 4.538060
v -3.191343 1.450000 4.538060
v -3.097546 1.250000 4.509607
v -3.097546 1.450000 4.509607
v -3.000001 1.250000 4.500000
v -3.000001 1.450000 4.500000
v -2.902456 1.250000 4.509607
v -2.902456 1.450000 4.509607
v -2.808659 1.250000 4.538060
v -2.808659 1.450000 4.538060
v -2.722215 1.250000 4.584265
v -2.722215 1.450000 4.584265
v -2.646447 1.250000 4.646446
v -2.646447 1.450000 4.646446
v -2.584266 1.250000 4.722214
v -2.584266 1.450000 4.722214
v -2.538061 1.250000 4.808658
v -2.538061 1.450000 4.808658
v -2.509608 1.250000 4.902455
v -2.509608 1.450000 4.902455
v -2.500001 1.250000 5.000000
v -2.500001 1.450000 5.000000
v -2.509609 1.250000 5.097545
v -2.509609 1.450000 5.097545
v -2.538061 1.250000 5.191342
v -2.538061 1.450000 5.191342
v -2.584266 1.250000 5.277785
v -2.584266 1.450000 5.277785
v -2.646448 1.250000 5.353553
v -2.646448 1.450000 5.353553
v -2.722216 1.250000 5.415735
v -2.722216 1.450000 5.415735
v -2.808660 1.250000 5.461940
v -2.808660 1.450000 5.461940
v -2.902456 1.250000 5.490392
v -2.902456 1.450000 5.490392
v -1.874999 -1.250000 -3.750000
v -1.874999 1.250000 -3.750000
v -1.875001 -1.250000 3.750000
v -1.875001 0.312500 7.500000
v -1.875000 0.312500 1.250000
v -1.875001 0.312500 7.500000
v -8.375000 1.250000 2.749999
v -8.375000 0.312500 2.749999
v -8.375001 1.250000 6.249999
v -8.375001 0.312500 6.249999
v -1.875001 1.250000 7.500000
v -0.937499 1.250000 -3.750000
v -0.937499 -1.250000 -3.750000
v -1.874999 0.468750 -7.500000
v -1.874999 -0.468750 -7.500000
v -0.937499 0.468750 -7.500000
v -0.937499 -0.468750 -7.500000
v -1.874999 0.468750 -3.750000
v -1.874999 -0.468750 -3.750000
v -6.500000 -1.968750 -3.750001
v -6.500000 -1.031250 -3.750001
v -6.499999 -1.968750 -6.750001
v -6.499999 -1.031250 -6.750001
v -1.875000 1.250000 1.250000
v -3.375000 1.250000 2.750000
v -3.375000 0.312500 2.750000
v -6.000001 1.250000 5.499999
v -6.097547 1.250000 5.490392
v -6.097547 1.450000 5.490392
v -6.000001 1.450000 5.499999
v -6.191343 1.250000 5.461939
v -6.191343 1.450000 5.461939
v -6.277786 1.250000 5.415734
v -6.277786 1.450000 5.415734
v -6.353555 1.250000 5.353552
v -6.353555 1.450000 5.353552
v -6.415736 1.250000 5.277784
v -6.415736 1.450000 5.277784
v -6.461941 1.250000 5.191340
v -6.461941 1.450000 5.191340
v -6.490394 1.250000 5.097544
v -6.490394 1.450000 5.097544
v -6.500001 1.250000 4.999999
v -6.500001 1.450000 4.999999
v -6.490394 1.250000 4.902454
v -6.490394 1.450000 4.902454
v -6.461941 1.250000 4.808658
v -6.461941 1.450000 4.808658
v -6.415735 1.250000 4.722214
v -6.415735 1.450000 4.722214
v -6.353554 1.250000 4.646445
v -6.353554 1.450000 4.646445
v -6.277786 1.250000 4.584264
v -6.277786 1.450000 4.584264
v -6.191342 1.250000 4.538059
v -6.191342 1.450000 4.538059
v -6.097546 1.250000 4.509606
v -6.097546 1.450000 4.509606
v -6.000000 1.250000 4.499999
v -6.000000 1.450000 4.499999
v -5.902455 1.250000 4.509606
v -5.902455 1.450000 4.509606
v -5.808659 1.250000 4.538059
v -5.808659 1.450000 4.538059
v -5.722216 1.250000 4.584264
v -5.722216 1.450000 4.584264
v -5.646448 1.250000 4.646446
v -5.646448 1.450000 4.646446
v -5.584265 1.250000 4.722214
v -5.584265 1.450000 4.722214
v -5.538061 1.250000 4.808658
v -5.538061 1.450000 4.808658
v -5.509609 1.250000 4.902454
v -5.509609 1.450000 4.902454
v -5.500001 1.250000 5.000000
v -5.500001 1.450000 5.000000
v -5.509609 1.250000 5.097545
v -5.509609 1.450000 5.097545
v -5.538062 1.250000 5.191341
v -5.538062 1.450000 5.191341
v -5.584267 1.250000 5.277785
v -5.584267 1.450000 5.277785
v -5.646449 1.250000 5.353553
v -5.646449 1.450000 5.353553
v -5.722217 1.250000 5.415734
v -5.722217 1.450000 5.415734
v -5.808660 1.250000 5.461939
v -5.808660 1.450000 5.461939
v -5.902457 1.250000 5.490392
v -5.902457 1.450000 5.490392
v -3.000001 1.250000 5.500000
v -3.097546 1.250000 5.490392
v -3.097546 1.450000 5.490392
v -3.000001 1.450000 5.500000
v -3.191343 1.250000 5.461939
v -3.191343 1.450000 5.461939
v -3.277786 1.250000 5.415734
v -3.277786 1.450000 5.415734
v -3.353554 1.250000 5.353553
v -3.353554 1.450000 5.353553
v -3.415736 1.250000 5.277785
v -3.415736 1.450000 5.277785
v -3.461941 1.250000 5.191341
v -3.461941 1.450000 5.191341
v -3.490394 1.250000 5.097544
v -3.490394 1.450000 5.097544
v -3.500001 1.250000 5.000000
v -3.500001 1.450000 5.000000
v -3.490394 1.250000 4.902454
v -3.490394 1.450000 4.902454
v -3.461941 1.250000 4.808658
v -3.461941 1.450000 4.808658
v -3.415736 1.250000 4.722214
v -3.415736 1.450000 4.722214
v -3.353554 1.250000 4.646446
v -3.353554 1.450000 4.646446
v -3.277786 1.250000 4.584265
v -3.277786 1.450000 4.584265
v -3.191343 1.250000 4.538060
v -3.191343 1.450000 4.538060
v -3.097546 1.250000 4.509607
v -3.097546 1.450000 4.509607
v -3.000001 1.250000 4.500000
v -3.000001 1.450000 4.500000
v -2.902456 1.250000 4.509607
v -2.902456 1.450000 4.509607
v -2.808659 1.250000 4.538060
v -2.808659 1.450000 4.538060
v -2.722215 1.250000 4.584265
v -2.722215 1.450000 4.584265
v -2.646447 1.250000 4.646446
v -2.646447 1.450000 4.646446
v -2.584266 1.250000 4.722214
v -2.584266 1.450000 4.722214
v -2.538061 1.250000 4.808658
v -2.538061 1.450000 4.808658
v -2.509608 1.250000 4.902455
v -2.509608 1.450000 4.902455
v -2.500001 1.250000 5.000000
v -2.500001 1.450000 5.000000
v -2.509609 1.250000 5.097545
v -2.509609 1.450000 5.097545
v -2.538061 1.250000 5.191342
v -2.538061 1.450000 5.191342
v -2.584266 1.250000 5.277785
v -2.584266 1.450000 5.277785
v -2.646448 1.250000 5.353553
v -2.646448 1.450000 5.353553
v -2.722216 1.250000 5.415735
v -2.722216 1.450000 5.415735
v -2.808660 1.250000 5.461940
v -2.808660 1.450000 5.461940
v -2.902456 1.250000 5.490392
v -2.902456 1.450000 5.490392
v -1.874999 -0.468750 -3.750000
v -1.874999 -0.468750 -3.750000
v -1.874999 0.468750 -3.750000
v -1.874999 0.468750 -3.750000
v -1.874999 -1.250000 -3.750000
v -1.875001 -1.250000 3.750000
v -1.875001 -1.250000 3.750000
v -1.875001 0.312500 7.500000
v -1.875001 0.312500 7.500000
v -1.875001 0.312500 7.500000
v -3.375000 1.250000 2.750000
v -3.375000 1.250000 2.750000
v -3.375000 0.312500 2.750000
v -3.375000 0.312500 2.750000
v -1.875000 0.312500 1.250000
v -1.875000 0.312500 1.250000
v -8.375000 1.250000 2.749999
v -8.375000 1.250000 2.749999
v -8.375000 0.312500 2.749999
v -8.375000 0.312500 2.749999
v -1.875000 1.250000 1.250000
v -1.875000 1.250000 1.250000
v -1.875001 1.250000 7.500000
v -8.375001 1.250000 6.249999
v -8.375001 1.250000 6.249999
v -8.375001 0.312500 6.249999
v -8.375001 0.312500 6.249999
v -0.937499 1.250000 -3.750000
v -0.937499 1.250000 -3.750000
v -0.937499 -1.250000 -3.750000
v -0.937499 -1.250000 -3.750000
v -0.937499 -0.468750 -7.500000
v -0.937499 -0.468750 -7.500000
v -1.874999 -0.468750 -7.500000
v -1.874999 -0.468750 -7.500000
v -1.874999 -0.468750 -7.500000
v -1.874999 0.468750 -7.500000
v -1.874999 0.468750 -7.500000
v -1.874999 0.468750 -7.500000
v -0.937499 0.468750 -7.500000
v -0.937499 0.468750 -7.500000
v -1.874999 1.250000 -3.750000
v -6.500000 -1.968750 -3.750001
v -6.500000 -1.968750 -3.750001
v -6.500000 -1.031250 -3.750001
v -6.500000 -1.031250 -3.750001
v -6.499999 -1.968750 -6.750001
v -6.499999 -1.968750 -6.750001
v -6.499999 -1.031250 -6.750001
v -6.499999 -1.031250 -6.750001
v 5.999999 1.250000 5.500001
v 5.999999 1.450000 5.500001
v 6.097545 1.250000 5.490394
v 6.097545 1.450000 5.490394
v 6.191341 1.250000 5.461941
v 6.191341 1.450000 5.461941
v 6.277784 1.250000 5.415736
v 6.277784 1.450000 5.415736
v 6.353553 1.250000 5.353554
v 6.353553 1.450000 5.353554
v 6.415734 1.250000 5.277786
v 6.415734 1.450000 5.277786
v 6.461939 1.250000 5.191342
v 6.461939 1.450000 5.191342
v 6.490392 1.250000 5.097546
v 6.490392 1.450000 5.097546
v 6.500000 1.250000 5.000001
v 6.500000 1.450000 5.000001
v 6.490392 1.250000 4.902456
v 6.490392 1.450000 4.902456
v 6.461939 1.250000 4.808660
v 6.461939 1.450000 4.808660
v 6.415734 1.250000 4.722216
v 6.415734 1.450000 4.722216
v 6.353553 1.250000 4.646447
v 6.353553 1.450000 4.646447
v 6.277785 1.250000 4.584266
v 6.277785 1.450000 4.584266
v 6.191341 1.250000 4.538061
v 6.191341 1.450000 4.538061
v 6.097545 1.250000 4.509608
v 6.097545 1.450000 4.509608
v 6.000000 1.250000 4.500001
v 6.000000 1.450000 4.500001
v 5.902454 1.250000 4.509608
v 5.902454 1.450000 4.509608
v 5.808658 1.250000 4.538061
v 5.808658 1.450000 4.538061
v 5.722215 1.250000 4.584266
v 5.722215 1.450000 4.584266
v 5.646447 1.250000 4.646448
v 5.646447 1.450000 4.646448
v 5.584264 1.250000 4.722216
v 5.584264 1.450000 4.722216
v 5.538059 1.250000 4.808660
v 5.538059 1.450000 4.808660
v 5.509607 1.250000 4.902456
v 5.509607 1.450000 4.902456
v 5.499999 1.250000 5.000001
v 5.499999 1.450000 5.000001
v 5.509607 1.250000 5.097547
v 5.509607 1.450000 5.097547
v 5.538060 1.250000 5.191343
v 5.538060 1.450000 5.191343
v 5.584265 1.250000 5.277787
v 5.584265 1.450000 5.277787
v 5.646447 1.250000 5.353555
v 5.646447 1.450000 5.353555
v 5.722215 1.250000 5.415736
v 5.722215 1.450000 5.415736
v 5.808658 1.250000 5.461941
v 5.808658 1.450000 5.461941
v 5.902455 1.250000 5.490394
v 5.902455 1.450000 5.490394
v 2.999999 1.250000 5.500000
v 2.999999 1.450000 5.500000
v 3.097544 1.250000 5.490393
v 3.097544 1.450000 5.490393
v 3.191341 1.250000 5.461940
v 3.191341 1.450000 5.461940
v 3.277785 1.250000 5.415735
v 3.277785 1.450000 5.415735
v 3.353553 1.250000 5.353554
v 3.353553 1.450000 5.353554
v 3.415734 1.250000 5.277786
v 3.415734 1.450000 5.277786
v 3.461939 1.250000 5.191342
v 3.461939 1.450000 5.191342
v 3.490392 1.250000 5.097545
v 3.490392 1.450000 5.097545
v 3.500000 1.250000 5.000000
v 3.500000 1.450000 5.000000
v 3.490392 1.250000 4.902455
v 3.490392 1.450000 4.902455
v 3.461939 1.250000 4.808659
v 3.461939 1.450000 4.808659
v 3.415734 1.250000 4.722215
v 3.415734 1.450000 4.722215
v 3.353553 1.250000 4.646447
v 3.353553 1.450000 4.646447
v 3.277785 1.250000 4.584266
v 3.277785 1.450000 4.584266
v 3.191341 1.250000 4.538061
v 3.191341 1.450000 4.538061
v 3.097544 1.250000 4.509608
v 3.097544 1.450000 4.509608
v 2.999999 1.250000 4.500000
v 2.999999 1.450000 4.500000
v 2.902454 1.250000 4.509608
v 2.902454 1.450000 4.509608
v 2.808657 1.250000 4.538061
v 2.808657 1.450000 4.538061
v 2.722214 1.250000 4.584266
v 2.722214 1.450000 4.584266
v 2.646446 1.250000 4.646447
v 2.646446 1.450000 4.646447
v 2.584265 1.250000 4.722215
v 2.584265 1.450000 4.722215
v 2.538059 1.250000 4.808659
v 2.538059 1.450000 4.808659
v 2.509607 1.250000 4.902456
v 2.509607 1.450000 4.902456
v 2.500000 1.250000 5.000001
v 2.500000 1.450000 5.000001
v 2.509607 1.250000 5.097546
v 2.509607 1.450000 5.097546
v 2.538060 1.250000 5.191343
v 2.538060 1.450000 5.191343
v 2.584265 1.250000 5.277786
v 2.584265 1.450000 5.277786
v 2.646446 1.250000 5.353554
v 2.646446 1.450000 5.353554
v 2.722215 1.250000 5.415736
v 2.722215 1.450000 5.415736
v 2.808658 1.250000 5.461941
v 2.808658 1.450000 5.461941
v 2.902455 1.250000 5.490393
v 2.902455 1.450000 5.490393
v 0.000001 -1.250000 -3.750000
v 0.000001 1.250000 -3.750000
v -0.000001 -1.250000 3.750000
v 1.875001 -1.250000 -3.750000
v 1.875001 1.250000 -3.750000
v 1.874999 -1.250000 3.750000
v -0.000001 1.250000 7.500000
v -0.000001 0.312500 7.500000
v 1.874999 0.312500 7.500000
v 1.875000 0.312500 1.250000
v 1.874999 0.312500 7.500000
v 8.375000 1.250000 2.750001
v 8.375000 0.312500 2.750001
v 8.374999 1.250000 6.250001
v 8.374999 0.312500 6.250001
v 1.874999 1.250000 7.500000
v 0.937501 1.250000 -3.750000
v 0.937501 -1.250000 -3.750000
v 1.875001 0.468750 -7.500000
v 1.875001 -0.468750 -7.500000
v 0.937501 0.468750 -7.500000
v 0.937501 -0.468750 -7.500000
v 1.875001 0.468750 -3.750000
v 1.875001 -0.468750 -3.750000
v 6.500000 -1.968750 -3.749999
v 6.500000 -1.031250 -3.749999
v 6.500001 -1.968750 -6.749999
v 6.500001 -1.031250 -6.749999
v 1.875000 1.250000 1.250000
v 3.375000 1.250000 2.750000
v 3.375000 0.312500 2.750000
v 5.999999 1.250000 5.500001
v 6.097545 1.250000 5.490394
v 6.097545 1.450000 5.490394
v 5.999999 1.450000 5.500001
v 6.191341 1.250000 5.461941
v 6.191341 1.450000 5.461941
v 6.277784 1.250000 5.415736
v 6.277784 1.450000 5.415736
v 6.353553 1.250000 5.353554
v 6.353553 1.450000 5.353554
v 6.415734 1.250000 5.277786
v 6.415734 1.450000 5.277786
v 6.461939 1.250000 5.191342
v 6.461939 1.450000 5.191342
v 6.490392 1.250000 5.097546
v 6.490392 1.450000 5.097546
v 6.500000 1.250000 5.000001
v 6.500000 1.450000 5.000001
v 6.490392 1.250000 4.902456
v 6.490392 1.450000 4.902456
v 6.461939 1.250000 4.808660
v 6.461939 1.450000 4.808660
v 6.415734 1.250000 4.722216
v 6.415734 1.450000 4.722216
v 6.353553 1.250000 4.646447
v 6.353553 1.450000 4.646447
v 6.277785 1.250000 4.584266
v 6.277785 1.450000 4.584266
v 6.191341 1.250000 4.538061
v 6.191341 1.450000 4.538061
v 6.097545 1.250000 4.509608
v 6.097545 1.450000 4.509608
v 6.000000 1.250000 4.500001
v 6.000000 1.450000 4.500001
v 5.902454 1.250000 4.509608
v 5.902454 1.450000 4.509608
v 5.808658 1.250000 4.538061
v 5.808658 1.450000 4.538061
v 5.722215 1.250000 4.584266
v 5.722215 1.450000 4.584266
v 5.646447 1.250000 4.646448
v 5.646447 1.450000 4.646448
v 5.584264 1.250000 4.722216
v 5.584264 1.450000 4.722216
v 5.538059 1.250000 4.808660
v 5.538059 1.450000 4.808660
v 5.509607 1.250000 4.902456
v 5.509607 1.450000 4.902456
v 5.499999 1.250000 5.000001
v 5.499999 1.450000 5.000001
v 5.509607 1.250000 5.097547
v 5.509607 1.450000 5.097547
v 5.538060 1.250000 5.191343
v 5.538060 1.450000 5.191343
v 5.584265 1.250000 5.277787
v 5.584265 1.450000 5.277787
v 5.646447 1.250000 5.353555
v 5.646447 1.450000 5.353555
v 5.722215 1.250000 5.415736
v 5.722215 1.450000 5.415736
v 5.808658 1.250000 5.461941
v 5.808658 1.450000 5.461941
v 5.902455 1.250000 5.490394
v 5.902455 1.450000 5.490394
v 2.999999 1.250000 5.500000
v 3.097544 1.250000 5.490393
v 3.097544 1.450000 5.490393
v 2.999999 1.450000 5.500000
v 3.191341 1.250000 5.461940
v 3.191341 1.450000 5.461940
v 3.277785 1.250000 5.415735
v 3.277785 1.450000 5.415735
v 3.353553 1.250000 5.353554
v 3.353553 1.450000 5.353554
v 3.415734 1.250000 5.277786
v 3.415734 1.450000 5.277786
v 3.461939 1.250000 5.191342
v 3.461939 1.450000 5.191342
v 3.490392 1.250000 5.097545
v 3.490392 1.450000 5.097545
v 3.500000 1.250000 5.000000
v 3.500000 1.450000 5.000000
v 3.490392 1.250000 4.902455
v 3.490392 1.450000 4.902455
v 3.461939 1.250000 4.808659
v 3.461939 1.450000 4.808659
v 3.415734 1.250000 4.722215
v 3.415734 1.450000 4.722215
v 3.353553 1.250000 4.646447
v 3.353553 1.450000 4.646447
v 3.277785 1.250000 4.584266
v 3.277785 1.450000 4.584266
v 3.191341 1.250000 4.538061
v 3.191341 1.450000 4.538061
v 3.097544 1.250000 4.509608
v 3.097544 1.450000 4.509608
v 2.999999 1.250000 4.500000
v 2.999999 1.450000 4.500000
v 2.902454 1.250000 4.509608
v 2.902454 1.450000 4.509608
v 2.808657 1.250000 4.538061
v 2.808657 1.450000 4.538061
v 2.722214 1.250000 4.584266
v 2.722214 1.450000 4.584266
v 2.646446 1.250000 4.646447
v 2.646446 1.450000 4.646447
v 2.584265 1.250000 4.722215
v 2.584265 1.450000 4.722215
v 2.538059 1.250000 4.808659
v 2.538059 1.450000 4.808659
v 2.509607 1.250000 4.902456
v 2.509607 1.450000 4.902456
v 2.500000 1.250000 5.000001
v 2.500000 1.450000 5.000001
v 2.509607 1.250000 5.097546
v 2.509607 1.450000 5.097546
v 2.538060 1.250000 5.191343
v 2.538060 1.450000 5.191343
v 2.584265 1.250000 5.277786
v 2.584265 1.450000 5.277786
v 2.646446 1.250000 5.353554
v 2.646446 1.450000 5.353554
v 2.722215 1.250000 5.415736
v 2.722215 1.450000 5.415736
v 2.808658 1.250000 5.461941
v 2.808658 1.450000 5.461941
v 2.902455 1.250000 5.490393
v 2.902455 1.450000 5.490393
v 1.875001 -0.468750 -3.750000
v 1.875001 -0.468750 -3.750000
v 1.875001 0.468750 -3.750000
v 1.875001 0.468750 -3.750000
v 1.875001 -1.250000 -3.750000
v 1.874999 -1.250000 3.750000
v 1.874999 -1.250000 3.750000
v -0.000001 0.312500 7.500000
v 1.874999 0.312500 7.500000
v 1.874999 0.312500 7.500000
v 1.874999 0.312500 7.500000
v 3.375000 1.250000 2.750000
v 3.375000 1.250000 2.750000
v 3.375000 0.312500 2.750000
v 3.375000 0.312500 2.750000
v 1.875000 0.312500 1.250000
v 1.875000 0.312500 1.250000
v 8.375000 1.250000 2.750001
v 8.375000 1.250000 2.750001
v 8.375000 0.312500 2.750001
v 8.375000 0.312500 2.750001
v 1.875000 1.250000 1.250000
v 1.875000 1.250000 1.250000
v 1.874999 1.250000 7.500000
v 8.374999 1.250000 6.250001
v 8.374999 1.250000 6.250001
v 8.374999 0.312500 6.250001
v 8.374999 0.312500 6.250001
v -0.000001 1.250000 7.500000
v 0.937501 1.250000 -3.750000
v 0.937501 1.250000 -3.750000
v 0.000001 1.250000 -3.750000
v 0.000001 -1.250000 -3.750000
v 0.937501 -1.250000 -3.750000
v 0.937501 -1.250000 -3.750000
v 0.937501 -0.468750 -7.500000
v 0.937501 -0.468750 -7.500000
v 1.875001 -0.468750 -7.500000
v 1.875001 -0.468750 -7.500000
v 1.875001 -0.468750 -7.500000
v 1.875001 0.468750 -7.500000
v 1.875001 0.468750 -7.500000
v 1.875001 0.468750 -7.500000
v 0.937501 0.468750 -7.500000
v 0.937501 0.468750 -7.500000
v 1.875001 1.250000 -3.750000
v 6.500000 -1.968750 -3.749999
v 6.500000 -1.968750 -3.749999
v 6.500000 -1.031250 -3.749999
v 6.500000 -1.031250 -3.749999
v 6.500001 -1.968750 -6.749999
v 6.500001 -1.968750 -6.749999
v 6.500001 -1.031250 -6.749999
v 6.500001 -1.031250 -6.749999
vn -0.308500 0.951200 -0.000000
vn 0.000000 -1.000000 0.000000
vn 0.000000 -0.923100 0.384600
vn 0.000000 0.000000 -1.000000
vn 1.000000 0.000000 0.000000
vn 0.308500 -0.951200 0.000000
vn 0.000000 1.000000 -0.000000
vn -1.000000 0.000000 -0.000000
vn 0.308500 0.951200 0.000000
vn -0.308500 -0.951200 -0.000000
vn -0.188800 0.000000 0.982000
vn 0.000000 0.000000 1.000000
vn -0.707100 0.000000 -0.707100
vn 0.000000 0.979000 -0.204000
vn 0.000000 -0.979000 -0.204000
vn -0.160100 0.000000 -0.987100
vn 0.188800 0.000000 0.982000
vn 0.707100 0.000000 -0.707100
vn 0.160100 0.000000 -0.987100
vn -0.195100 0.000000 0.980800
vn -0.382700 0.000000 0.923900
vn -0.555600 0.000000 0.831400
vn -0.707100 0.000000 0.707100
vn -0.831400 0.000000 0.555600
vn -0.923900 0.000000 0.382700
vn -0.980800 0.000000 0.195100
vn -0.980800 0.000000 -0.195100
vn -0.923900 0.000000 -0.382700
vn -0.831400 0.000000 -0.555600
vn -0.555600 0.000000 -0.831400
vn -0.382700 0.000000 -0.923900
vn -0.195100 0.000000 -0.980800
vn 0.195100 0.000000 -0.980800
vn 0.382700 0.000000 -0.923900
vn 0.555600 0.000000 -0.831400
vn 0.831400 0.000000 -0.555600
vn 0.923900 0.000000 -0.382700
vn 0.980800 0.000000 -0.195100
vn 0.980800 0.000000 0.195100
vn 0.923900 0.000000 0.382700
vn 0.831400 0.000000 0.555600
vn 0.707100 0.000000 0.707100
vn 0.555600 0.000000 0.831400
vn 0.382700 0.000000 0.923900
vn 0.195100 0.000000 0.980800
usemtl Body
s off
f 285//1 320//1 331//1
f 290//2 308//2 295//2
f 463//3 468//3 134//3
f 651//4 652//4 141//4
f 312//2 463//2 131//2
f 314//5 322//5 311//5
f 283//6 325//6 329//6
f 467//7 462//7 303//7
f 284//8 287//8 298//8
f 622//9 668//9 672//9
f 633//2 639//2 646//2
f 471//3 468//3 463//3
f 478//4 652//4 651//4
f 463//2 653//2 466//2
f 650//8 663//8 655//8
f 670//10 666//10 620//10
f 467//7 643//7 632//7
f 621//5 636//5 624//5
f 327//1 285//1 331//1
f 308//2 301//2 295//2
f 295//2 133//2 290//2
f 131//3 463//3 134//3
f 140//4 651//4 141//4
f 463//2 312//2 461//2
f 312//2 131//2 129//2
f 313//5 314//5 311//5
f 317//6 283//6 329//6
f 294//7 305//7 467//7
f 294//7 300//7 307//7
f 310//7 130//7 303//7
f 294//7 307//7 305//7
f 462//7 310//7 303//7
f 303//7 294//7 467//7
f 324//8 321//8 286//8
f 286//8 304//8 324//8
f 289//8 292//8 298//8
f 298//8 287//8 289//8
f 298//8 286//8 284//8
f 284//8 318//8 287//8
f 286//8 298//8 304//8
f 661//9 622//9 672//9
f 633//2 646//2 628//2
f 628//2 470//2 633//2
f 466//3 471//3 463//3
f 477//4 478//4 651//4
f 653//2 463//2 461//2
f 653//2 464//2 466//2
f 654//8 650//8 655//8
f 658//10 670//10 620//10
f 641//7 462//7 467//7
f 641//7 465//7 649//7
f 645//7 638//7 632//7
f 641//7 649//7 462//7
f 643//7 645//7 632//7
f 632//7 641//7 467//7
f 624//5 659//5 621//5
f 623//5 662//5 665//5
f 636//5 621//5 623//5
f 636//5 626//5 624//5
f 623//5 642//5 636//5
f 636//5 630//5 626//5
f 642//5 623//5 665//5
s 1
f 174//7 206//7 190//7
f 221//7 270//7 254//7
f 543//7 511//7 527//7
f 558//7 575//7 583//7
f 162//7 160//7 157//7
f 166//7 164//7 162//7
f 170//7 168//7 166//7
f 174//7 172//7 170//7
f 178//7 176//7 174//7
f 182//7 180//7 178//7
f 186//7 184//7 182//7
f 182//7 188//7 186//7
f 194//7 192//7 190//7
f 202//7 196//7 194//7
f 196//7 200//7 198//7
f 206//7 204//7 202//7
f 210//7 208//7 206//7
f 206//7 212//7 210//7
f 64//7 216//7 214//7
f 157//7 158//7 64//7
f 166//7 162//7 157//7
f 157//7 170//7 166//7
f 190//7 178//7 174//7
f 190//7 188//7 182//7
f 202//7 194//7 190//7
f 196//7 202//7 200//7
f 157//7 212//7 206//7
f 157//7 64//7 214//7
f 174//7 170//7 157//7
f 190//7 182//7 178//7
f 206//7 202//7 190//7
f 157//7 214//7 212//7
f 206//7 174//7 157//7
f 226//7 224//7 221//7
f 221//7 228//7 226//7
f 238//7 232//7 230//7
f 238//7 236//7 234//7
f 246//7 240//7 238//7
f 246//7 244//7 242//7
f 250//7 248//7 246//7
f 246//7 252//7 250//7
f 258//7 256//7 254//7
f 262//7 260//7 258//7
f 270//7 264//7 262//7
f 270//7 268//7 266//7
f 274//7 272//7 270//7
f 270//7 276//7 274//7
f 128//7 280//7 278//7
f 221//7 222//7 128//7
f 238//7 228//7 221//7
f 238//7 234//7 232//7
f 246//7 242//7 240//7
f 254//7 252//7 246//7
f 270//7 258//7 254//7
f 270//7 266//7 264//7
f 278//7 276//7 270//7
f 270//7 128//7 278//7
f 238//7 230//7 228//7
f 221//7 246//7 238//7
f 270//7 262//7 258//7
f 221//7 128//7 270//7
f 254//7 246//7 221//7
f 396//7 495//7 494//7
f 551//7 553//7 396//7
f 494//7 549//7 551//7
f 543//7 545//7 547//7
f 539//7 541//7 543//7
f 535//7 537//7 539//7
f 539//7 533//7 535//7
f 527//7 529//7 531//7
f 523//7 525//7 527//7
f 519//7 521//7 523//7
f 515//7 517//7 519//7
f 519//7 513//7 515//7
f 507//7 509//7 511//7
f 503//7 505//7 507//7
f 499//7 501//7 503//7
f 494//7 497//7 499//7
f 551//7 396//7 494//7
f 543//7 547//7 549//7
f 533//7 539//7 543//7
f 543//7 531//7 533//7
f 511//7 523//7 527//7
f 511//7 513//7 519//7
f 494//7 507//7 511//7
f 494//7 499//7 503//7
f 543//7 549//7 494//7
f 527//7 531//7 543//7
f 511//7 519//7 523//7
f 494//7 503//7 507//7
f 511//7 543//7 494//7
f 460//7 559//7 558//7
f 615//7 617//7 460//7
f 607//7 613//7 615//7
f 607//7 609//7 611//7
f 603//7 605//7 607//7
f 607//7 601//7 603//7
f 595//7 597//7 599//7
f 591//7 593//7 595//7
f 583//7 589//7 591//7
f 583//7 585//7 587//7
f 579//7 581//7 583//7
f 583//7 577//7 579//7
f 571//7 573//7 575//7
f 575//7 569//7 571//7
f 575//7 565//7 567//7
f 558//7 561//7 563//7
f 607//7 460//7 558//7
f 607//7 611//7 613//7
f 599//7 601//7 607//7
f 607//7 595//7 599//7
f 583//7 587//7 589//7
f 575//7 577//7 583//7
f 567//7 569//7 575//7
f 558//7 563//7 565//7
f 607//7 615//7 460//7
f 591//7 595//7 607//7
f 558//7 583//7 591//7
f 558//7 565//7 575//7
f 591//7 607//7 558//7
usemtl Highlight
s off
f 137//11 138//11 291//11
f 309//8 306//8 135//8
f 299//4 153//4 154//4
f 627//12 648//12 139//12
f 297//13 296//13 293//13
f 143//4 142//4 144//4
f 310//14 323//14 319//14
f 316//15 315//15 312//15
f 151//8 150//8 148//8
f 143//16 330//16 332//16
f 147//12 146//12 328//12
f 629//17 475//17 474//17
f 472//5 644//5 647//5
f 491//4 490//4 637//4
f 476//12 648//12 627//12
f 631//18 634//18 635//18
f 481//4 479//4 480//4
f 465//14 660//14 664//14
f 464//15 653//15 656//15
f 485//5 487//5 488//5
f 673//19 671//19 480//19
f 484//12 667//12 669//12
f 139//11 137//11 291//11
f 136//8 309//8 135//8
f 302//4 299//4 154//4
f 291//12 627//12 139//12
f 152//13 297//13 293//13
f 145//4 143//4 144//4
f 130//14 310//14 319//14
f 129//15 316//15 312//15
f 149//8 151//8 148//8
f 142//16 143//16 332//16
f 326//12 147//12 328//12
f 476//17 629//17 474//17
f 473//5 472//5 647//5
f 640//4 491//4 637//4
f 629//12 476//12 627//12
f 489//18 631//18 635//18
f 482//4 481//4 480//4
f 649//14 465//14 664//14
f 657//15 464//15 656//15
f 486//5 485//5 488//5
f 479//19 673//19 480//19
f 483//12 484//12 669//12
s 1
f 2//12 4//20 3//20
f 4//20 6//21 5//21
f 6//21 8//22 7//22
f 8//22 10//23 9//23
f 10//23 12//24 11//24
f 12//24 14//25 13//25
f 14//25 16//26 15//26
f 16//26 18//8 17//8
f 18//8 20//27 19//27
f 20//27 22//28 21//28
f 22//28 24//29 23//29
f 24//29 26//13 25//13
f 26//13 28//30 27//30
f 28//30 30//31 29//31
f 30//31 32//32 31//32
f 32//32 34//4 33//4
f 34//4 36//33 35//33
f 36//33 38//34 37//34
f 38//34 40//35 39//35
f 40//35 42//18 41//18
f 42//18 44//36 43//36
f 44//36 46//37 45//37
f 46//37 48//38 47//38
f 48//38 50//5 49//5
f 50//5 52//39 51//39
f 52//39 54//40 53//40
f 54//40 56//41 55//41
f 56//41 58//42 57//42
f 58//42 60//43 59//43
f 60//43 62//44 61//44
f 218//45 2//12 1//12
f 62//44 218//45 63//45
f 155//2 167//2 187//2
f 66//12 68//20 67//20
f 68//20 70//21 69//21
f 70//21 72//22 71//22
f 72//22 74//23 73//23
f 74//23 76//24 75//24
f 76//24 78//25 77//25
f 78//25 80//26 79//26
f 80//26 82//8 81//8
f 82//8 84//27 83//27
f 84//27 86//28 85//28
f 86//28 88//29 87//29
f 88//29 90//13 89//13
f 90//13 92//30 91//30
f 92//30 94//31 93//31
f 94//31 96//32 95//32
f 96//32 98//4 97//4
f 98//4 100//33 99//33
f 100//33 102//34 101//34
f 102//34 104//35 103//35
f 104//35 106//18 105//18
f 106//18 108//36 107//36
f 108//36 110//37 109//37
f 110//37 112//38 111//38
f 112//38 114//5 113//5
f 114//5 116//39 115//39
f 116//39 118//40 117//40
f 118//40 120//41 119//41
f 120//41 122//42 121//42
f 122//42 124//43 123//43
f 124//43 126//44 125//44
f 282//45 66//12 65//12
f 126//44 282//45 127//45
f 219//2 227//2 251//2
f 335//45 336//45 334//12
f 337//44 338//44 336//45
f 339//43 340//43 338//44
f 341//42 342//42 340//43
f 343//41 344//41 342//42
f 345//40 346//40 344//41
f 347//39 348//39 346//40
f 349//5 350//5 348//39
f 351//38 352//38 350//5
f 353//37 354//37 352//38
f 355//36 356//36 354//37
f 357//18 358//18 356//36
f 359//35 360//35 358//18
f 361//34 362//34 360//35
f 363//33 364//33 362//34
f 365//4 366//4 364//33
f 367//32 368//32 366//4
f 369//31 370//31 368//32
f 371//30 372//30 370//31
f 373//13 374//13 372//30
f 375//29 376//29 374//13
f 377//28 378//28 376//29
f 379//27 380//27 378//28
f 381//8 382//8 380//27
f 383//26 384//26 382//8
f 385//25 386//25 384//26
f 387//24 388//24 386//25
f 389//23 390//23 388//24
f 391//22 392//22 390//23
f 393//21 394//21 392//22
f 333//12 334//12 555//20
f 395//20 555//20 394//21
f 492//2 548//2 532//2
f 399//45 400//45 398//12
f 401//44 402//44 400//45
f 403//43 404//43 402//44
f 405//42 406//42 404//43
f 407//41 408//41 406//42
f 409//40 410//40 408//41
f 411//39 412//39 410//40
f 413//5 414//5 412//39
f 415//38 416//38 414//5
f 417//37 418//37 416//38
f 419//36 420//36 418//37
f 421//18 422//18 420//36
f 423//35 424//35 422//18
f 425//34 426//34 424//35
f 427//33 428//33 426//34
f 429//4 430//4 428//33
f 431//32 432//32 430//4
f 433//31 434//31 432//32
f 435//30 436//30 434//31
f 437//13 438//13 436//30
f 439//29 440//29 438//13
f 441//28 442//28 440//29
f 443//27 444//27 442//28
f 445//8 446//8 444//27
f 447//26 448//26 446//8
f 449//25 450//25 448//26
f 451//24 452//24 450//25
f 453//23 454//23 452//24
f 455//22 456//22 454//23
f 457//21 458//21 456//22
f 397//12 398//12 619//20
f 459//20 619//20 458//21
f 556//2 604//2 588//2
f 1//12 2//12 3//20
f 3//20 4//20 5//21
f 5//21 6//21 7//22
f 7//22 8//22 9//23
f 9//23 10//23 11//24
f 11//24 12//24 13//25
f 13//25 14//25 15//26
f 15//26 16//26 17//8
f 17//8 18//8 19//27
f 19//27 20//27 21//28
f 21//28 22//28 23//29
f 23//29 24//29 25//13
f 25//13 26//13 27//30
f 27//30 28//30 29//31
f 29//31 30//31 31//32
f 31//32 32//32 33//4
f 33//4 34//4 35//33
f 35//33 36//33 37//34
f 37//34 38//34 39//35
f 39//35 40//35 41//18
f 41//18 42//18 43//36
f 43//36 44//36 45//37
f 45//37 46//37 47//38
f 47//38 48//38 49//5
f 49//5 50//5 51//39
f 51//39 52//39 53//40
f 53//40 54//40 55//41
f 55//41 56//41 57//42
f 57//42 58//42 59//43
f 59//43 60//43 61//44
f 63//45 218//45 1//12
f 61//44 62//44 63//45
f 211//2 217//2 155//2
f 211//2 213//2 215//2
f 207//2 209//2 211//2
f 211//2 205//2 207//2
f 205//2 201//2 203//2
f 195//2 197//2 199//2
f 191//2 193//2 195//2
f 187//2 189//2 191//2
f 183//2 185//2 187//2
f 187//2 181//2 183//2
f 181//2 177//2 179//2
f 171//2 173//2 175//2
f 175//2 169//2 171//2
f 163//2 165//2 167//2
f 155//2 161//2 163//2
f 155//2 156//2 159//2
f 211//2 215//2 217//2
f 201//2 205//2 211//2
f 195//2 199//2 201//2
f 187//2 191//2 195//2
f 177//2 181//2 187//2
f 187//2 175//2 177//2
f 175//2 167//2 169//2
f 155//2 159//2 161//2
f 187//2 211//2 155//2
f 187//2 195//2 201//2
f 167//2 175//2 187//2
f 155//2 163//2 167//2
f 187//2 201//2 211//2
f 65//12 66//12 67//20
f 67//20 68//20 69//21
f 69//21 70//21 71//22
f 71//22 72//22 73//23
f 73//23 74//23 75//24
f 75//24 76//24 77//25
f 77//25 78//25 79//26
f 79//26 80//26 81//8
f 81//8 82//8 83//27
f 83//27 84//27 85//28
f 85//28 86//28 87//29
f 87//29 88//29 89//13
f 89//13 90//13 91//30
f 91//30 92//30 93//31
f 93//31 94//31 95//32
f 95//32 96//32 97//4
f 97//4 98//4 99//33
f 99//33 100//33 101//34
f 101//34 102//34 103//35
f 103//35 104//35 105//18
f 105//18 106//18 107//36
f 107//36 108//36 109//37
f 109//37 110//37 111//38
f 111//38 112//38 113//5
f 113//5 114//5 115//39
f 115//39 116//39 117//40
f 117//40 118//40 119//41
f 119//41 120//41 121//42
f 121//42 122//42 123//43
f 123//43 124//43 125//44
f 127//45 282//45 65//12
f 125//44 126//44 127//45
f 275//2 281//2 219//2
f 275//2 277//2 279//2
f 271//2 273//2 275//2
f 275//2 269//2 271//2
f 263//2 265//2 267//2
f 259//2 261//2 263//2
f 251//2 257//2 259//2
f 251//2 253//2 255//2
f 247//2 249//2 251//2
f 251//2 245//2 247//2
f 239//2 241//2 243//2
f 235//2 237//2 239//2
f 227//2 233//2 235//2
f 227//2 229//2 231//2
f 223//2 225//2 227//2
f 227//2 220//2 223//2
f 275//2 279//2 281//2
f 267//2 269//2 275//2
f 251//2 263//2 267//2
f 251//2 255//2 257//2
f 243//2 245//2 251//2
f 251//2 239//2 243//2
f 227//2 231//2 233//2
f 219//2 220//2 227//2
f 267//2 275//2 219//2
f 251//2 259//2 263//2
f 235//2 239//2 251//2
f 251//2 227//2 235//2
f 251//2 267//2 219//2
f 333//12 335//45 334//12
f 335//45 337//44 336//45
f 337//44 339//43 338//44
f 339//43 341//42 340//43
f 341//42 343//41 342//42
f 343//41 345//40 344//41
f 345//40 347//39 346//40
f 347//39 349//5 348//39
f 349//5 351//38 350//5
f 351//38 353//37 352//38
f 353//37 355//36 354//37
f 355//36 357//18 356//36
f 357//18 359//35 358//18
f 359//35 361//34 360//35
f 361//34 363//33 362//34
f 363//33 365//4 364//33
f 365//4 367//32 366//4
f 367//32 369//31 368//32
f 369//31 371//30 370//31
f 371//30 373//13 372//30
f 373//13 375//29 374//13
f 375//29 377//28 376//29
f 377//28 379//27 378//28
f 379//27 381//8 380//27
f 381//8 383//26 382//8
f 383//26 385//25 384//26
f 385//25 387//24 386//25
f 387//24 389//23 388//24
f 389//23 391//22 390//23
f 391//22 393//21 392//22
f 395//20 333//12 555//20
f 393//21 395//20 394//21
f 496//2 493//2 492//2
f 492//2 498//2 496//2
f 504//2 502//2 500//2
f 512//2 506//2 504//2
f 512//2 510//2 508//2
f 516//2 514//2 512//2
f 512//2 518//2 516//2
f 524//2 522//2 520//2
f 528//2 526//2 524//2
f 532//2 530//2 528//2
f 536//2 534//2 532//2
f 532//2 538//2 536//2
f 538//2 542//2 540//2
f 548//2 546//2 544//2
f 552//2 550//2 548//2
f 548//2 554//2 552//2
f 500//2 498//2 492//2
f 492//2 504//2 500//2
f 506//2 512//2 508//2
f 512//2 520//2 518//2
f 532//2 528//2 524//2
f 548//2 538//2 532//2
f 548//2 544//2 542//2
f 492//2 554//2 548//2
f 512//2 504//2 492//2
f 524//2 520//2 512//2
f 512//2 532//2 524//2
f 538//2 548//2 542//2
f 532//2 512//2 492//2
f 397//12 399//45 398//12
f 399//45 401//44 400//45
f 401//44 403//43 402//44
f 403//43 405//42 404//43
f 405//42 407//41 406//42
f 407//41 409//40 408//41
f 409//40 411//39 410//40
f 411//39 413//5 412//39
f 413//5 415//38 414//5
f 415//38 417//37 416//38
f 417//37 419//36 418//37
f 419//36 421//18 420//36
f 421//18 423//35 422//18
f 423//35 425//34 424//35
f 425//34 427//33 426//34
f 427//33 429//4 428//33
f 429//4 431//32 430//4
f 431//32 433//31 432//32
f 433//31 435//30 434//31
f 435//30 437//13 436//30
f 437//13 439//29 438//13
f 439//29 441//28 440//29
f 441//28 443//27 442//28
f 443//27 445//8 444//27
f 445//8 447//26 446//8
f 447//26 449//25 448//26
f 449//25 451//24 450//25
f 451//24 453//23 452//24
f 453//23 455//22 454//23
f 455//22 457//21 456//22
f 459//20 397//12 619//20
f 457//21 459//20 458//21
f 564//2 557//2 556//2
f 564//2 562//2 560//2
f 568//2 566//2 564//2
f 564//2 570//2 568//2
f 576//2 574//2 572//2
f 580//2 578//2 576//2
f 588//2 582//2 580//2
f 588//2 586//2 584//2
f 592//2 590//2 588//2
f 588//2 594//2 592//2
f 600//2 598//2 596//2
f 604//2 602//2 600//2
f 612//2 606//2 604//2
f 612//2 610//2 608//2
f 616//2 614//2 612//2
f 612//2 618//2 616//2
f 564//2 560//2 557//2
f 572//2 570//2 564//2
f 588//2 576//2 572//2
f 588//2 584//2 582//2
f 596//2 594//2 588//2
f 588//2 600//2 596//2
f 612//2 608//2 606//2
f 556//2 618//2 612//2
f 588//2 564//2 556//2
f 588//2 580//2 576//2
f 604//2 600//2 588//2
f 556//2 612//2 604//2
f 588//2 572//2 564//2
l 132 288
l 469 625
