# Blender v2.74 (sub 0) OBJ File: 'turret_barrels.blend'
# www.blender.org
mtllib turret_barrels.mtl
o Cube.015_Cube.022
v -0.065000 -0.020000 -0.250000
v -0.060000 -0.025000 -0.245000
v -0.060000 0.025000 -0.245000
v -0.065000 0.020000 -0.250000
v -0.160000 -0.025000 -0.245000
v -0.155000 -0.020000 -0.250000
v -0.155000 0.020000 -0.250000
v -0.160000 0.025000 -0.245000
v -0.060000 -0.015000 0.050000
v -0.060000 -0.025000 0.040000
v -0.060000 0.025000 0.040000
v -0.060000 0.015000 0.050000
v -0.160000 -0.025000 0.040000
v -0.160000 -0.015000 0.050000
v -0.160000 0.015000 0.050000
v -0.160000 0.025000 0.040000
v 0.160000 0.015000 0.050000
v -0.080000 -0.015000 -0.250000
v -0.070000 -0.005000 -0.250000
v -0.070000 0.005000 -0.250000
v -0.080000 0.015000 -0.250000
v -0.140000 0.015000 -0.250000
v -0.150000 0.005000 -0.250000
v -0.150000 -0.005000 -0.250000
v -0.140000 -0.015000 -0.250000
v -0.070000 -0.005000 -0.450000
v -0.080000 -0.015000 -0.450000
v -0.080000 0.015000 -0.450000
v -0.070000 0.005000 -0.450000
v -0.150000 0.005000 -0.450000
v -0.140000 0.015000 -0.450000
v -0.140000 -0.015000 -0.450000
v -0.150000 -0.005000 -0.450000
v 0.065000 -0.020000 -0.250000
v 0.060000 -0.025000 -0.245000
v 0.060000 0.025000 -0.245000
v 0.065000 0.020000 -0.250000
v 0.160000 -0.025000 -0.245000
v 0.155000 -0.020000 -0.250000
v 0.155000 0.020000 -0.250000
v 0.160000 0.025000 -0.245000
v 0.060000 -0.015000 0.050000
v 0.060000 -0.025000 0.040000
v 0.060000 0.025000 0.040000
v 0.060000 0.015000 0.050000
v 0.160000 -0.025000 0.040000
v 0.160000 -0.015000 0.050000
v 0.160000 0.015000 0.050000
v 0.160000 0.025000 0.040000
v -0.160000 0.015000 0.050000
v 0.080000 -0.015000 -0.250000
v 0.070000 -0.005000 -0.250000
v 0.070000 0.005000 -0.250000
v 0.080000 0.015000 -0.250000
v 0.140000 0.015000 -0.250000
v 0.150000 0.005000 -0.250000
v 0.150000 -0.005000 -0.250000
v 0.140000 -0.015000 -0.250000
v 0.070000 -0.005000 -0.450000
v 0.080000 -0.015000 -0.450000
v 0.080000 0.015000 -0.450000
v 0.070000 0.005000 -0.450000
v 0.150000 0.005000 -0.450000
v 0.140000 0.015000 -0.450000
v 0.140000 -0.015000 -0.450000
v 0.150000 -0.005000 -0.450000
vn 1.000000 0.000000 0.000000
vn 0.000000 -1.000000 -0.000000
vn 0.000000 1.000000 0.000000
vn -1.000000 -0.000000 -0.000000
vn 0.000000 0.000000 -1.000000
vn 0.707100 0.000000 -0.707100
vn -0.707100 0.000000 -0.707100
vn 0.000000 0.707100 -0.707100
vn 0.000000 -0.707100 -0.707100
vn -0.000000 0.707100 0.707100
vn -0.000000 -0.707100 0.707100
vn -0.000000 0.000000 1.000000
vn 0.707100 -0.707100 0.000000
vn -0.707100 -0.707100 -0.000000
vn -0.707100 0.707100 -0.000000
vn 0.707100 0.707100 0.000000
usemtl Body
s off
f 3//1 11//1 12//1 9//1 10//1 2//1
f 2//2 10//2 13//2 5//2
f 22//3 21//3 28//3 31//3
f 15//4 16//4 8//4 5//4 13//4 14//4
f 18//2 25//2 32//2 27//2
f 25//5 18//5 1//5 6//5
f 8//3 16//3 11//3 3//3
f 20//5 21//5 22//5 23//5 24//5 25//5 6//5 7//5 4//5 1//5 18//5 19//5
f 36//4 35//4 43//4 42//4 45//4 44//4
f 35//2 38//2 46//2 43//2
f 55//3 64//3 61//3 54//3
f 48//1 47//1 46//1 38//1 41//1 49//1
f 51//2 60//2 65//2 58//2
f 58//5 39//5 34//5 51//5
f 41//3 36//3 44//3 49//3
f 53//5 52//5 51//5 34//5 37//5 40//5 39//5 58//5 57//5 56//5 55//5 54//5
usemtl Highlight
f 24//4 23//4 30//4 33//4
f 20//1 19//1 26//1 29//1
f 1//6 4//6 3//6 2//6
f 7//7 6//7 5//7 8//7
f 8//8 3//8 4//8 7//8
f 2//9 5//9 6//9 1//9
f 11//10 16//10 15//10 12//10
f 13//11 10//11 9//11 14//11
f 12//12 15//12 14//12 9//12
f 26//13 19//13 18//13 27//13
f 24//14 33//14 32//14 25//14
f 30//15 23//15 22//15 31//15
f 20//16 29//16 28//16 21//16
f 57//1 66//1 63//1 56//1
f 53//4 62//4 59//4 52//4
f 34//7 35//7 36//7 37//7
f 40//6 41//6 38//6 39//6
f 41//8 40//8 37//8 36//8
f 35//9 34//9 39//9 38//9
f 44//10 45//10 48//10 49//10
f 46//11 47//11 42//11 43//11
f 45//12 42//12 47//12 48//12
f 59//14 60//14 51//14 52//14
f 57//13 58//13 65//13 66//13
f 63//16 64//16 55//16 56//16
f 53//15 54//15 61//15 62//15
usemtl Black
f 30//5 31//5 28//5 29//5 26//5 27//5 32//5 33//5
f 63//5 66//5 65//5 60//5 59//5 62//5 61//5 64//5
