# Blender v2.74 (sub 0) OBJ File: 'turret_base.blend'
# www.blender.org
mtllib turret_base.mtl
o Cube.016_Cube.023
v 0.200000 -0.000000 -0.200000
v 0.200000 -0.000000 0.200000
v 0.200000 0.100000 -0.200000
v 0.200000 0.150000 -0.080000
v 0.200000 0.150000 0.080000
v 0.200000 0.100000 0.200000
v 0.160000 0.150000 -0.080000
v 0.160000 0.100000 -0.200000
v 0.160000 0.100000 0.200000
v 0.160000 0.150000 0.080000
v -0.200000 -0.000000 -0.200000
v -0.200000 -0.000000 0.200000
v -0.160000 0.100000 -0.200000
v -0.160000 0.150000 -0.080000
v -0.160000 0.150000 0.080000
v -0.160000 0.100000 0.200000
v -0.200000 0.150000 -0.080000
v -0.200000 0.100000 -0.200000
v -0.200000 0.100000 0.200000
v -0.200000 0.150000 0.080000
v 0.060000 0.150000 -0.080000
v 0.060000 0.100000 -0.200000
v 0.060000 0.100000 0.200000
v 0.060000 0.150000 0.080000
v -0.060000 0.150000 -0.080000
v -0.060000 0.100000 -0.200000
v -0.060000 0.100000 0.200000
v -0.060000 0.150000 0.080000
v 0.160000 0.050000 -0.200000
v 0.160000 0.050000 0.200000
v -0.160000 0.050000 -0.200000
v -0.160000 0.050000 0.200000
v 0.060000 0.050000 -0.200000
v 0.060000 0.050000 0.200000
v -0.060000 0.050000 -0.200000
v -0.060000 0.050000 0.200000
vn 1.000000 -0.000000 0.000000
vn -0.000000 0.000000 1.000000
vn 0.000000 0.000000 -1.000000
vn -1.000000 -0.000000 -0.000000
vn 0.000000 1.000000 0.000000
vn -0.000000 -1.000000 -0.000000
vn 0.000000 0.923100 0.384600
vn 0.000000 0.923100 -0.384600
usemtl Body
s off
f 3//1 4//1 5//1 6//1 2//1 1//1
f 12//2 2//2 6//2 9//2 30//2 34//2 23//2 27//2 36//2 32//2 16//2 19//2
f 31//3 35//3 26//3 22//3 33//3 29//3 8//3 3//3 1//3 11//3 18//3 13//3
f 19//4 20//4 17//4 18//4 11//4 12//4
f 34//1 33//1 22//1 21//1 24//1 23//1
f 36//4 27//4 28//4 25//4 26//4 35//4
f 13//1 14//1 15//1 16//1 32//1 31//1
f 9//4 10//4 7//4 8//4 29//4 30//4
f 35//5 31//5 32//5 36//5
f 34//5 30//5 29//5 33//5
f 12//6 11//6 1//6 2//6
usemtl Highlight
f 7//5 10//5 5//5 4//5
f 5//7 10//7 9//7 6//7
f 7//8 4//8 3//8 8//8
f 17//5 20//5 15//5 14//5
f 15//7 20//7 19//7 16//7
f 17//8 14//8 13//8 18//8
f 23//7 24//7 28//7 27//7
f 24//5 21//5 25//5 28//5
f 21//8 22//8 26//8 25//8
